sample,barcode,Species name,chrom,len,covBread_1x_percent,avCov,x1,x5,x10
redo_BRC_TH_NP,barcode01,Acinetobacter baumannii,NZ_CP009257_1,4335793.0,0.0425527695,1.0,1845.0,0.0,0.0
redo_BRC_TH_NP,barcode01,Actinobacillus lignieresii,NZ_LR134169_1,2377048.0,0.0949917713,1.0,2258.0,0.0,0.0
redo_BRC_TH_NP,barcode01,Actinobacillus porcitonsillarum,NZ_CP029206_1,2263191.0,0.0098975296,1.0,224.0,0.0,0.0
redo_BRC_TH_NP,barcode01,Actinobacillus succinogenes,NC_009655_1,2319663.0,0.0275039952,1.0,638.0,0.0,0.0
redo_BRC_TH_NP,barcode01,Actinomyces odontolyticus,NZ_CP040006_1,2360133.0,0.0138975219,1.0,328.0,0.0,0.0
redo_BRC_TH_NP,barcode01,Actinomyces sp. oral taxon 171,NZ_CP040005_1,3097489.0,0.0210815922,1.0,653.0,0.0,0.0
redo_BRC_TH_NP,barcode01,Aeromonas sp. ASNIH2,NZ_CP026406_1,4801408.0,0.0343857468,1.0,1651.0,0.0,0.0
redo_BRC_TH_NP,barcode01,Aeromonas sp. ASNIH2,NZ_CP026407_1,13512.0,0.0,0.0,0.0,0.0,0.0
redo_BRC_TH_NP,barcode01,Aeromonas sp. ASNIH2,NZ_CP026408_1,29979.0,0.0,0.0,0.0,0.0,0.0
redo_BRC_TH_NP,barcode01,Aeromonas sp. ASNIH2,NZ_CP026409_1,8238.0,0.0,0.0,0.0,0.0,0.0
redo_BRC_TH_NP,barcode01,Aeromonas sp. ASNIH2,NZ_CP026410_1,6782.0,0.0,0.0,0.0,0.0,0.0
redo_BRC_TH_NP,barcode01,Aeromonas sp. ASNIH2,NZ_CP026411_1,4613.0,0.0,0.0,0.0,0.0,0.0
redo_BRC_TH_NP,barcode01,Bibersteinia trehalosi,NC_020515_1,2407846.0,0.0341799268,1.0,823.0,0.0,0.0
redo_BRC_TH_NP,barcode01,Bifidobacterium dentium,NZ_AP012326_1,2635669.0,0.3291763875,1.0,8676.0,0.0,0.0
redo_BRC_TH_NP,barcode01,Blochmannia endosymbiont of Polyrhachis (Hedomyrma) turneri,NZ_CP010048_1,749321.0,0.0350984425,1.0,263.0,0.0,0.0
redo_BRC_TH_NP,barcode01,Capnocytophaga leadbetteri,NZ_CP022384_1,2504023.0,0.0508381912,1.0,1273.0,0.0,0.0
redo_BRC_TH_NP,barcode01,Clostridium botulinum,NC_010674_1,3800327.0,0.0067888895,1.0,258.0,0.0,0.0
redo_BRC_TH_NP,barcode01,Clostridium botulinum,NC_010680_1,47642.0,0.0,0.0,0.0,0.0,0.0
redo_BRC_TH_NP,barcode01,Corynebacterium aurimucosum,NC_010813_1,29037.0,0.0,0.0,0.0,0.0,0.0
redo_BRC_TH_NP,barcode01,Corynebacterium aurimucosum,NC_012590_1,2790189.0,0.0488497374,1.0,1363.0,0.0,0.0
redo_BRC_TH_NP,barcode01,Corynebacterium striatum,NZ_CP021252_1,2758551.0,0.0178717015,1.0,493.0,0.0,0.0
redo_BRC_TH_NP,barcode01,Corynebacterium striatum,NZ_CP021253_1,25501.0,0.0,0.0,0.0,0.0,0.0
redo_BRC_TH_NP,barcode01,Corynebacterium striatum,NZ_CP021254_1,13640.0,0.0,0.0,0.0,0.0,0.0
redo_BRC_TH_NP,barcode01,Edwardsiella ictaluri,NC_012779_2,3812301.0,0.1581984214,1.0,6031.0,0.0,0.0
redo_BRC_TH_NP,barcode01,Enterobacter bugandensis,NZ_LT992502_1,4717613.0,0.0245887062,1.0,1160.0,0.0,0.0
redo_BRC_TH_NP,barcode01,Erwinia sp. Ejp617,NC_017442_1,30866.0,0.0,0.0,0.0,0.0,0.0
redo_BRC_TH_NP,barcode01,Erwinia sp. Ejp617,NC_017443_1,6417.0,0.0,0.0,0.0,0.0,0.0
redo_BRC_TH_NP,barcode01,Erwinia sp. Ejp617,NC_017444_1,2691.0,0.0,0.0,0.0,0.0,0.0
redo_BRC_TH_NP,barcode01,Erwinia sp. Ejp617,NC_017445_1,3909168.0,0.0143252989,1.0,560.0,0.0,0.0
redo_BRC_TH_NP,barcode01,Erwinia sp. Ejp617,NC_017446_1,5296.0,0.0,0.0,0.0,0.0,0.0
redo_BRC_TH_NP,barcode01,Erwinia sp. Ejp617,NC_017447_1,3237.0,0.0,0.0,0.0,0.0,0.0
redo_BRC_TH_NP,barcode01,Escherichia coli,NC_000913_3,4641652.0,0.0696088375,1.0,3231.0,0.0,0.0
redo_BRC_TH_NP,barcode01,Escherichia marmotae,NZ_CP025979_1,4671322.0,0.0011559897,2.8888888889,54.0,0.0,0.0
redo_BRC_TH_NP,barcode01,Escherichia marmotae,NZ_CP025980_1,148809.0,0.0,0.0,0.0,0.0,0.0
redo_BRC_TH_NP,barcode01,Escherichia marmotae,NZ_CP025981_1,76160.0,0.0,0.0,0.0,0.0,0.0
redo_BRC_TH_NP,barcode01,Haemophilus aegyptius,NZ_LS483429_1,1993258.0,3.3886230483,1.2476163686,67544.0,685.0,0.0
redo_BRC_TH_NP,barcode01,Haemophilus haemolyticus,NZ_CP031240_1,1916320.0,3.824100359,1.0945798423,73282.0,0.0,0.0
redo_BRC_TH_NP,barcode01,Haemophilus influenzae,NC_000907_1,1830138.0,93.3863457291,53.6176464909,1709099.0,1696135.0,1692269.0
redo_BRC_TH_NP,barcode01,Haemophilus parainfluenzae,NC_015964_1,2086875.0,1.0492722372,2.6081655021,21897.0,3475.0,1036.0
redo_BRC_TH_NP,barcode01,Haemophilus sp. oral taxon 036,NZ_CP027235_1,1805716.0,0.4462495763,1.0,8058.0,0.0,0.0
redo_BRC_TH_NP,barcode01,Haemophilus virus HP1,NC_001697_1,32355.0,6.1937876681,1.0,2004.0,0.0,0.0
redo_BRC_TH_NP,barcode01,Human mastadenovirus B,NC_011202_1,34794.0,14.899120538,1.0268132716,5184.0,0.0,0.0
redo_BRC_TH_NP,barcode01,Ketobacter alkanivorans,NZ_CP022684_1,4914503.0,0.0253128343,1.0,1244.0,0.0,0.0
redo_BRC_TH_NP,barcode01,Klebsiella pneumoniae,NC_016838_1,122799.0,0.0,0.0,0.0,0.0,0.0
redo_BRC_TH_NP,barcode01,Klebsiella pneumoniae,NC_016839_1,105974.0,0.0,0.0,0.0,0.0,0.0
redo_BRC_TH_NP,barcode01,Klebsiella pneumoniae,NC_016840_1,3751.0,0.0,0.0,0.0,0.0,0.0
redo_BRC_TH_NP,barcode01,Klebsiella pneumoniae,NC_016841_1,1308.0,0.0,0.0,0.0,0.0,0.0
redo_BRC_TH_NP,barcode01,Klebsiella pneumoniae,NC_016845_1,5333942.0,0.0411140579,1.0,2193.0,0.0,0.0
redo_BRC_TH_NP,barcode01,Klebsiella pneumoniae,NC_016846_1,111195.0,0.0,0.0,0.0,0.0,0.0
redo_BRC_TH_NP,barcode01,Klebsiella pneumoniae,NC_016847_1,3353.0,0.0,0.0,0.0,0.0,0.0
redo_BRC_TH_NP,barcode01,Kosakonia cowanii,NZ_CP019445_1,4646998.0,0.0,0.0,0.0,0.0,0.0
redo_BRC_TH_NP,barcode01,Kosakonia cowanii,NZ_CP019446_1,113443.0,0.0,0.0,0.0,0.0,0.0
redo_BRC_TH_NP,barcode01,Kosakonia cowanii,NZ_CP019447_1,96883.0,1.414076773,1.400729927,1370.0,0.0,0.0
redo_BRC_TH_NP,barcode01,Lactobacillus paracasei,NZ_AP012541_1,2995875.0,0.008278049,1.0,248.0,0.0,0.0
redo_BRC_TH_NP,barcode01,Lactobacillus paracasei,NZ_AP012542_1,11154.0,0.0,0.0,0.0,0.0,0.0
redo_BRC_TH_NP,barcode01,Lactobacillus paracasei,NZ_AP012543_1,10775.0,0.0,0.0,0.0,0.0,0.0
redo_BRC_TH_NP,barcode01,Moraxella catarrhalis,NC_014147_1,1863286.0,5.5152563804,1.0042037659,102765.0,0.0,0.0
redo_BRC_TH_NP,barcode01,Mycobacterium abscessus,NC_010394_1,23319.0,0.0,0.0,0.0,0.0,0.0
redo_BRC_TH_NP,barcode01,Mycobacterium abscessus,NC_010397_1,5067172.0,0.0172680146,1.0,875.0,0.0,0.0
redo_BRC_TH_NP,barcode01,Pasteurella multocida,NZ_CP008918_1,2271840.0,0.2488291429,1.3171767203,5653.0,0.0,0.0
redo_BRC_TH_NP,barcode01,Porphyromonas gingivalis,NC_010729_1,2354886.0,1.0076920921,1.0,23730.0,0.0,0.0
redo_BRC_TH_NP,barcode01,Prevotella denticola,NC_015311_1,2937589.0,0.2808425549,1.0,8250.0,0.0,0.0
redo_BRC_TH_NP,barcode01,Prevotella fusca,NZ_CP012074_1,1828248.0,0.0157527863,1.0,288.0,0.0,0.0
redo_BRC_TH_NP,barcode01,Prevotella fusca,NZ_CP012075_1,1433558.0,0.0,0.0,0.0,0.0,0.0
redo_BRC_TH_NP,barcode01,Prevotella intermedia,NZ_CP019300_1,1965935.0,0.0,0.0,0.0,0.0,0.0
redo_BRC_TH_NP,barcode01,Prevotella intermedia,NZ_CP019301_1,708235.0,0.1582807966,1.0,1121.0,0.0,0.0
redo_BRC_TH_NP,barcode01,Prevotella jejuni,NZ_CP023863_1,2204592.0,0.1017875416,1.0,2244.0,0.0,0.0
redo_BRC_TH_NP,barcode01,Prevotella jejuni,NZ_CP023864_1,1708414.0,0.0,0.0,0.0,0.0,0.0
redo_BRC_TH_NP,barcode01,Prevotella melaninogenica,NC_014370_1,1796408.0,0.0825536292,1.0,1483.0,0.0,0.0
redo_BRC_TH_NP,barcode01,Prevotella melaninogenica,NC_014371_1,1371874.0,0.2509705702,1.8823700261,3443.0,0.0,0.0
redo_BRC_TH_NP,barcode01,Prevotella oris,NZ_LR134384_1,3168212.0,0.2339489908,1.0,7412.0,0.0,0.0
redo_BRC_TH_NP,barcode01,Prevotella sp. oral taxon 299,NC_022111_1,1770419.0,0.0,0.0,0.0,0.0,0.0
redo_BRC_TH_NP,barcode01,Prevotella sp. oral taxon 299,NC_022124_1,709850.0,1.0352891456,1.0,7349.0,0.0,0.0
redo_BRC_TH_NP,barcode01,Rothia mucilaginosa,NC_013715_1,2264603.0,0.2505957998,1.0,5675.0,0.0,0.0
redo_BRC_TH_NP,barcode01,Salmonella enterica,NC_003197_2,4857450.0,0.0257336668,1.0,1250.0,0.0,0.0
redo_BRC_TH_NP,barcode01,Salmonella enterica,NC_003277_2,93933.0,0.0,0.0,0.0,0.0,0.0
redo_BRC_TH_NP,barcode01,Serratia marcescens,NZ_HG326223_1,5113802.0,0.0635730519,1.0,3251.0,0.0,0.0
redo_BRC_TH_NP,barcode01,Serratia rubidaea,NZ_CP014474_1,4922834.0,0.0530588681,1.0,2612.0,0.0,0.0
redo_BRC_TH_NP,barcode01,Shigella flexneri,NC_004337_2,4607202.0,0.0330352348,1.0,1522.0,0.0,0.0
redo_BRC_TH_NP,barcode01,Shigella flexneri,NC_004851_1,221618.0,0.0,0.0,0.0,0.0,0.0
redo_BRC_TH_NP,barcode01,Sodalis praecaptivus,NZ_CP006569_1,4709528.0,0.0156915937,1.0,739.0,0.0,0.0
redo_BRC_TH_NP,barcode01,Sodalis praecaptivus,NZ_CP006570_1,449897.0,0.0,0.0,0.0,0.0,0.0
redo_BRC_TH_NP,barcode01,Staphylococcus pseudintermedius,NC_014925_1,2617381.0,0.0500118248,1.0,1309.0,0.0,0.0
redo_BRC_TH_NP,barcode01,Streptococcus mitis,NC_013853_1,2146611.0,1.2603121851,1.0178901456,27054.0,0.0,0.0
redo_BRC_TH_NP,barcode01,Streptococcus parasanguinis,NC_015678_1,2153652.0,0.3260508197,1.0,7022.0,0.0,0.0
redo_BRC_TH_NP,barcode01,Streptococcus pneumoniae,NC_003098_1,2038615.0,1.6267907378,1.0146544446,33164.0,0.0,0.0
redo_BRC_TH_NP,barcode01,Streptococcus pseudopneumoniae,NC_015875_1,2190731.0,5.9889142026,1.0861807456,131201.0,0.0,0.0
redo_BRC_TH_NP,barcode01,Streptococcus pseudopneumoniae,NC_015876_1,4727.0,0.0,0.0,0.0,0.0,0.0
redo_BRC_TH_NP,barcode01,Streptococcus sp. ChDC B345,NZ_CP032621_1,1972481.0,0.1190885996,1.0,2349.0,0.0,0.0
redo_BRC_TH_NP,barcode01,Streptococcus sp. NPS 308,NZ_AP017652_1,1924728.0,0.0602682561,1.0,1160.0,0.0,0.0
redo_BRC_TH_NP,barcode01,Streptococcus thermophilus,NC_017581_1,1929905.0,0.0949269524,1.0,1832.0,0.0,0.0
redo_BRC_TH_NP,barcode01,Tannerella forsythia,NC_016610_1,3405521.0,0.1773296949,1.1644311972,6039.0,0.0,0.0
redo_BRC_TH_NP,barcode01,Tannerella sp. oral taxon HOT-286,NZ_CP017038_2,2973544.0,0.0250542787,1.0,745.0,0.0,0.0
redo_BRC_TH_NP,barcode01,Treponema denticola,NC_002967_9,2843201.0,0.499823966,1.0,14211.0,0.0,0.0
redo_BRC_TH_NP,barcode01,Veillonella dispar,NZ_LR134375_1,2116915.0,0.326796305,1.3687481931,6918.0,0.0,0.0
redo_BRC_TH_NP,barcode01,Veillonella parvula,NC_013520_1,2132142.0,1.1571461938,1.0,24672.0,0.0,0.0
redo_BRC_TH_NP,barcode01,Vibrio campbellii,NC_009777_1,89008.0,0.0,0.0,0.0,0.0,0.0
redo_BRC_TH_NP,barcode01,Vibrio campbellii,NC_009783_1,3765351.0,0.0,0.0,0.0,0.0,0.0
redo_BRC_TH_NP,barcode01,Vibrio campbellii,NC_009784_1,2204018.0,0.0411067423,1.8233995585,906.0,0.0,0.0
redo_BRC_TH_NP,barcode01,Vibrio cholerae,NC_002505_1,2961149.0,0.0162774653,1.0,482.0,0.0,0.0
redo_BRC_TH_NP,barcode01,Vibrio cholerae,NC_002506_1,1072315.0,0.0,0.0,0.0,0.0,0.0
redo_BRC_TH_NP,barcode01,Vibrio coralliilyticus,NZ_CP009264_1,3463115.0,0.0306949091,1.0,1063.0,0.0,0.0
redo_BRC_TH_NP,barcode01,Vibrio coralliilyticus,NZ_CP009265_1,1888898.0,0.0,0.0,0.0,0.0,0.0
redo_BRC_TH_NP,barcode01,Vibrio coralliilyticus,NZ_CP009266_1,380781.0,0.0,0.0,0.0,0.0,0.0
redo_BRC_TH_NP,barcode01,Wigglesworthia glossinidia,NC_003425_1,5280.0,0.0,0.0,0.0,0.0,0.0
redo_BRC_TH_NP,barcode01,Wigglesworthia glossinidia,NC_004344_2,697724.0,0.1000395572,1.0,698.0,0.0,0.0
redo_BRC_TH_NP,barcode01,[Haemophilus] ducreyi,NC_002940_2,1698955.0,0.1559782337,8.0464150943,2650.0,2208.0,877.0
redo_BRC_TH_NP,barcode01,[Mannheimia] succiniciproducens,NC_006300_1,2314078.0,0.1091579454,1.0,2526.0,0.0,0.0
redo_BRC_TH_NP,barcode02,Acidaminococcus intestini,NC_016077_1,2487765.0,0.0206209188,1.0,513.0,0.0,0.0
redo_BRC_TH_NP,barcode02,Acinetobacter baumannii,NZ_CP009257_1,4335793.0,0.0219798316,1.0,953.0,0.0,0.0
redo_BRC_TH_NP,barcode02,Actinobacillus lignieresii,NZ_LR134169_1,2377048.0,0.3291898186,1.0204472843,7825.0,0.0,0.0
redo_BRC_TH_NP,barcode02,Actinomyces odontolyticus,NZ_CP040006_1,2360133.0,1.2328542502,1.0,29097.0,0.0,0.0
redo_BRC_TH_NP,barcode02,Aggregatibacter actinomycetemcomitans,NZ_CP012959_1,2367908.0,0.1560026825,1.1245262588,3694.0,0.0,0.0
redo_BRC_TH_NP,barcode02,Aggregatibacter segnis,NZ_LS483443_1,2022832.0,0.0068221187,1.0,138.0,0.0,0.0
redo_BRC_TH_NP,barcode02,Atopobium parvulum,NC_013203_1,1543805.0,0.0776652492,1.0,1199.0,0.0,0.0
redo_BRC_TH_NP,barcode02,Avibacterium volantium,NZ_LR134167_1,2230476.0,0.0089666959,1.0,200.0,0.0,0.0
redo_BRC_TH_NP,barcode02,Barnesiella viscericola,NZ_CP007034_1,3076856.0,0.0025350553,1.0,78.0,0.0,0.0
redo_BRC_TH_NP,barcode02,Bibersteinia trehalosi,NC_020515_1,2407846.0,0.0600121436,1.0,1445.0,0.0,0.0
redo_BRC_TH_NP,barcode02,Campylobacter concisus,NZ_CP012541_1,1840041.0,1.4590435757,1.0,26847.0,0.0,0.0
redo_BRC_TH_NP,barcode02,Campylobacter showae,NZ_LR535679_1,2160580.0,0.1551898101,1.0,3353.0,0.0,0.0
redo_BRC_TH_NP,barcode02,Candidatus Erwinia sp. ErCipseudotaxifoliae,NZ_LT670851_1,1064893.0,0.0742797633,1.4804045512,791.0,0.0,0.0
redo_BRC_TH_NP,barcode02,Candidatus Erwinia sp. ErCipseudotaxifoliae,NZ_LT670852_1,29779.0,0.0,0.0,0.0,0.0,0.0
redo_BRC_TH_NP,barcode02,Candidatus Gracilibacteria bacterium HOT-871,NZ_CP017714_1,1184529.0,0.4956400392,1.0,5871.0,0.0,0.0
redo_BRC_TH_NP,barcode02,Candidatus Moranella endobia,NC_015735_1,538294.0,0.4034969738,1.0,2172.0,0.0,0.0
redo_BRC_TH_NP,barcode02,Capnocytophaga sp. ChDC OS43,NZ_CP022022_1,3412686.0,0.475783591,1.1147379442,16237.0,0.0,0.0
redo_BRC_TH_NP,barcode02,Capnocytophaga sputigena,NZ_CP022385_1,3074746.0,0.0274494218,1.0,844.0,0.0,0.0
redo_BRC_TH_NP,barcode02,Cardiobacterium hominis,NZ_LR134365_1,2670755.0,0.0093980916,1.0,251.0,0.0,0.0
redo_BRC_TH_NP,barcode02,Chloracidobacterium thermophilum,NC_016024_1,2683362.0,0.0072297364,1.0,194.0,0.0,0.0
redo_BRC_TH_NP,barcode02,Chloracidobacterium thermophilum,NC_016025_1,1012010.0,0.0,0.0,0.0,0.0,0.0
redo_BRC_TH_NP,barcode02,Desulfobacterium autotrophicum,NC_012108_1,5589073.0,0.0036857633,1.0,206.0,0.0,0.0
redo_BRC_TH_NP,barcode02,Desulfobacterium autotrophicum,NC_012109_1,68709.0,0.0,0.0,0.0,0.0,0.0
redo_BRC_TH_NP,barcode02,Edwardsiella hoshinae,NZ_CP016043_1,3811650.0,0.04074351,1.0,1553.0,0.0,0.0
redo_BRC_TH_NP,barcode02,Edwardsiella ictaluri,NC_012779_2,3812301.0,0.1405712718,1.1841761523,5359.0,0.0,0.0
redo_BRC_TH_NP,barcode02,Edwardsiella tarda,NC_013508_1,3760463.0,0.0209814589,1.0,789.0,0.0,0.0
redo_BRC_TH_NP,barcode02,Edwardsiella tarda,NC_013509_1,43703.0,0.0,0.0,0.0,0.0,0.0
redo_BRC_TH_NP,barcode02,Eikenella corrodens,NZ_LT906482_1,2192577.0,0.1107828824,1.0,2429.0,0.0,0.0
redo_BRC_TH_NP,barcode02,Erwinia sp. Ejp617,NC_017442_1,30866.0,0.0,0.0,0.0,0.0,0.0
redo_BRC_TH_NP,barcode02,Erwinia sp. Ejp617,NC_017443_1,6417.0,0.0,0.0,0.0,0.0,0.0
redo_BRC_TH_NP,barcode02,Erwinia sp. Ejp617,NC_017444_1,2691.0,0.0,0.0,0.0,0.0,0.0
redo_BRC_TH_NP,barcode02,Erwinia sp. Ejp617,NC_017445_1,3909168.0,0.0099509665,1.0,389.0,0.0,0.0
redo_BRC_TH_NP,barcode02,Erwinia sp. Ejp617,NC_017446_1,5296.0,0.0,0.0,0.0,0.0,0.0
redo_BRC_TH_NP,barcode02,Erwinia sp. Ejp617,NC_017447_1,3237.0,0.0,0.0,0.0,0.0,0.0
redo_BRC_TH_NP,barcode02,Escherichia coli,NC_000913_3,4641652.0,0.2199647884,1.4258570029,10210.0,0.0,0.0
redo_BRC_TH_NP,barcode02,Escherichia marmotae,NZ_CP025979_1,4671322.0,0.0011559897,1.9814814815,54.0,0.0,0.0
redo_BRC_TH_NP,barcode02,Escherichia marmotae,NZ_CP025980_1,148809.0,0.0,0.0,0.0,0.0,0.0
redo_BRC_TH_NP,barcode02,Escherichia marmotae,NZ_CP025981_1,76160.0,0.0,0.0,0.0,0.0,0.0
redo_BRC_TH_NP,barcode02,Fusobacterium nucleatum,NZ_CP007062_1,2507720.0,0.8916864722,1.0,22361.0,0.0,0.0
redo_BRC_TH_NP,barcode02,Fusobacterium nucleatum,NZ_CP007063_1,6309.0,0.0,0.0,0.0,0.0,0.0
redo_BRC_TH_NP,barcode02,Gallibacterium anatis,NC_015460_1,2687335.0,0.0412304383,1.0,1108.0,0.0,0.0
redo_BRC_TH_NP,barcode02,Gallibacterium anatis,NC_015461_1,6804.0,0.0,0.0,0.0,0.0,0.0
redo_BRC_TH_NP,barcode02,Gemella morbillorum,NZ_LS483440_1,1760930.0,0.2707660157,1.0,4768.0,0.0,0.0
redo_BRC_TH_NP,barcode02,Glaesserella parasuis,NC_011852_1,2269156.0,0.2296007855,1.0,5210.0,0.0,0.0
redo_BRC_TH_NP,barcode02,Haemophilus aegyptius,NZ_LS483429_1,1993258.0,10.9108304093,1.1580689807,217481.0,320.0,0.0
redo_BRC_TH_NP,barcode02,Haemophilus haemolyticus,NZ_CP031240_1,1916320.0,13.2924041914,1.3256492296,254725.0,4653.0,0.0
redo_BRC_TH_NP,barcode02,Haemophilus influenzae,NC_000907_1,1830138.0,94.18185951,243.2872234515,1723658.0,1705647.0,1698470.0
redo_BRC_TH_NP,barcode02,Haemophilus parainfluenzae,NC_015964_1,2086875.0,3.197508236,1.0168594893,66728.0,0.0,0.0
redo_BRC_TH_NP,barcode02,Haemophilus sp. oral taxon 036,NZ_CP027235_1,1805716.0,0.9963360794,1.0868767717,17991.0,0.0,0.0
redo_BRC_TH_NP,barcode02,Helicobacter pylori,NC_000915_1,1667867.0,0.0614557396,1.0,1025.0,0.0,0.0
redo_BRC_TH_NP,barcode02,Jeotgalibaca sp. PTS2502,NZ_CP019433_1,2300992.0,0.2106482769,1.0,4847.0,0.0,0.0
redo_BRC_TH_NP,barcode02,Klebsiella aerogenes,NC_015663_1,5280350.0,0.043728162,1.6938068428,2309.0,0.0,0.0
redo_BRC_TH_NP,barcode02,Klebsiella michiganensis,NC_016612_1,5974109.0,0.0264641974,1.0,1581.0,0.0,0.0
redo_BRC_TH_NP,barcode02,Klebsiella oxytoca,NZ_CP011625_1,1919.0,0.0,0.0,0.0,0.0,0.0
redo_BRC_TH_NP,barcode02,Klebsiella oxytoca,NZ_CP011626_1,6538.0,0.0,0.0,0.0,0.0,0.0
redo_BRC_TH_NP,barcode02,Klebsiella oxytoca,NZ_CP011627_1,14274.0,0.0,0.0,0.0,0.0,0.0
redo_BRC_TH_NP,barcode02,Klebsiella oxytoca,NZ_CP011628_1,16069.0,0.0,0.0,0.0,0.0,0.0
redo_BRC_TH_NP,barcode02,Klebsiella oxytoca,NZ_CP011629_1,33610.0,0.0,0.0,0.0,0.0,0.0
redo_BRC_TH_NP,barcode02,Klebsiella oxytoca,NZ_CP011630_1,49200.0,0.0,0.0,0.0,0.0,0.0
redo_BRC_TH_NP,barcode02,Klebsiella oxytoca,NZ_CP011631_1,53596.0,0.0,0.0,0.0,0.0,0.0
redo_BRC_TH_NP,barcode02,Klebsiella oxytoca,NZ_CP011632_1,83652.0,0.0,0.0,0.0,0.0,0.0
redo_BRC_TH_NP,barcode02,Klebsiella oxytoca,NZ_CP011633_1,150318.0,0.0,0.0,0.0,0.0,0.0
redo_BRC_TH_NP,barcode02,Klebsiella oxytoca,NZ_CP011634_1,227680.0,0.0,0.0,0.0,0.0,0.0
redo_BRC_TH_NP,barcode02,Klebsiella oxytoca,NZ_CP011635_1,332956.0,0.0,0.0,0.0,0.0,0.0
redo_BRC_TH_NP,barcode02,Klebsiella oxytoca,NZ_CP011636_1,6257473.0,0.1150784031,1.0,7201.0,0.0,0.0
redo_BRC_TH_NP,barcode02,Klebsiella pneumoniae,NC_016838_1,122799.0,0.0,0.0,0.0,0.0,0.0
redo_BRC_TH_NP,barcode02,Klebsiella pneumoniae,NC_016839_1,105974.0,0.0,0.0,0.0,0.0,0.0
redo_BRC_TH_NP,barcode02,Klebsiella pneumoniae,NC_016840_1,3751.0,0.0,0.0,0.0,0.0,0.0
redo_BRC_TH_NP,barcode02,Klebsiella pneumoniae,NC_016841_1,1308.0,0.0,0.0,0.0,0.0,0.0
redo_BRC_TH_NP,barcode02,Klebsiella pneumoniae,NC_016845_1,5333942.0,0.1017633863,1.0,5428.0,0.0,0.0
redo_BRC_TH_NP,barcode02,Klebsiella pneumoniae,NC_016846_1,111195.0,0.0,0.0,0.0,0.0,0.0
redo_BRC_TH_NP,barcode02,Klebsiella pneumoniae,NC_016847_1,3353.0,0.0,0.0,0.0,0.0,0.0
redo_BRC_TH_NP,barcode02,Klebsiella variicola,NZ_CP010523_2,5521203.0,0.0024088953,1.0,133.0,0.0,0.0
redo_BRC_TH_NP,barcode02,Lachnoclostridium phocaeense,NZ_LT635479_1,3500754.0,0.0923515334,1.0,3233.0,0.0,0.0
redo_BRC_TH_NP,barcode02,Lachnospiraceae bacterium oral taxon 500,NZ_CP027241_1,3201383.0,0.0078403615,1.0,251.0,0.0,0.0
redo_BRC_TH_NP,barcode02,Leptotrichia wadei,NZ_AP019835_1,2414633.0,0.0155717246,1.0,376.0,0.0,0.0
redo_BRC_TH_NP,barcode02,Leptotrichia wadei,NZ_AP019836_1,35348.0,0.0,0.0,0.0,0.0,0.0
redo_BRC_TH_NP,barcode02,Leptotrichia wadei,NZ_AP019837_1,27786.0,0.0,0.0,0.0,0.0,0.0
redo_BRC_TH_NP,barcode02,Leptotrichia wadei,NZ_AP019838_1,7855.0,0.0,0.0,0.0,0.0,0.0
redo_BRC_TH_NP,barcode02,Leptotrichia wadei,NZ_AP019839_1,4485.0,0.0,0.0,0.0,0.0,0.0
redo_BRC_TH_NP,barcode02,Neisseria cinerea,NZ_LS483369_1,1832904.0,0.0511210625,1.0,937.0,0.0,0.0
redo_BRC_TH_NP,barcode02,Neisseria gonorrhoeae,NC_002946_2,2153922.0,0.1139317023,1.0,2454.0,0.0,0.0
redo_BRC_TH_NP,barcode02,Neisseria lactamica,NC_014752_1,2220606.0,1.0354380741,1.0,22993.0,0.0,0.0
redo_BRC_TH_NP,barcode02,Neisseria meningitidis,NC_003112_2,2272360.0,41.8134450527,1.2602257323,950152.0,162.0,0.0
redo_BRC_TH_NP,barcode02,Neisseria mucosa,NZ_CP028150_1,2688408.0,0.7767050239,1.0,20881.0,0.0,0.0
redo_BRC_TH_NP,barcode02,Neisseria subflava,NZ_CP031251_1,2321871.0,0.0121884463,1.0,283.0,0.0,0.0
redo_BRC_TH_NP,barcode02,Pantoea ananatis,NC_013956_2,4703373.0,0.0060594811,1.0,285.0,0.0,0.0
redo_BRC_TH_NP,barcode02,Parvimonas micra,NZ_CP009761_1,1627009.0,3.7441095901,1.562946304,60917.0,0.0,0.0
redo_BRC_TH_NP,barcode02,Pasteurella multocida,NZ_CP008918_1,2271840.0,0.4693112191,1.7527668355,10662.0,0.0,0.0
redo_BRC_TH_NP,barcode02,Pectobacterium carotovorum,NC_012917_1,4862913.0,0.0077936825,1.0,379.0,0.0,0.0
redo_BRC_TH_NP,barcode02,Prevotella dentalis,NC_019960_1,1890695.0,0.0868463713,1.0,1642.0,0.0,0.0
redo_BRC_TH_NP,barcode02,Prevotella dentalis,NC_019961_1,4946.0,0.0,0.0,0.0,0.0,0.0
redo_BRC_TH_NP,barcode02,Prevotella dentalis,NC_019968_1,1450390.0,0.0,0.0,0.0,0.0,0.0
redo_BRC_TH_NP,barcode02,Prevotella dentalis,NC_019969_1,4175.0,0.0,0.0,0.0,0.0,0.0
redo_BRC_TH_NP,barcode02,Prevotella denticola,NC_015311_1,2937589.0,0.0583812099,1.0,1715.0,0.0,0.0
redo_BRC_TH_NP,barcode02,Prevotella fusca,NZ_CP012074_1,1828248.0,0.1922605686,1.0014224751,3515.0,0.0,0.0
redo_BRC_TH_NP,barcode02,Prevotella fusca,NZ_CP012075_1,1433558.0,0.0762438632,1.0,1093.0,0.0,0.0
redo_BRC_TH_NP,barcode02,Prevotella intermedia,NZ_CP019300_1,1965935.0,1.2994325855,1.0,25546.0,0.0,0.0
redo_BRC_TH_NP,barcode02,Prevotella intermedia,NZ_CP019301_1,708235.0,1.4020769942,1.0,9930.0,0.0,0.0
redo_BRC_TH_NP,barcode02,Prevotella jejuni,NZ_CP023863_1,2204592.0,4.2397414125,1.0725053226,93469.0,0.0,0.0
redo_BRC_TH_NP,barcode02,Prevotella jejuni,NZ_CP023864_1,1708414.0,3.2725674222,1.0,55909.0,0.0,0.0
redo_BRC_TH_NP,barcode02,Prevotella melaninogenica,NC_014370_1,1796408.0,0.0682473024,1.0,1226.0,0.0,0.0
redo_BRC_TH_NP,barcode02,Prevotella melaninogenica,NC_014371_1,1371874.0,0.1544602493,1.0,2119.0,0.0,0.0
redo_BRC_TH_NP,barcode02,Prevotella oris,NZ_LR134384_1,3168212.0,0.2502673432,1.0,7929.0,0.0,0.0
redo_BRC_TH_NP,barcode02,Pseudomonas sp. SWI6,NZ_CP026676_1,5652054.0,0.0181173074,1.0,1024.0,0.0,0.0
redo_BRC_TH_NP,barcode02,Rothia aeria,NZ_AP017895_1,2588680.0,0.0282769597,1.0,732.0,0.0,0.0
redo_BRC_TH_NP,barcode02,Rothia dentocariosa,NC_014643_1,2506025.0,1.6573657485,1.0,41534.0,0.0,0.0
redo_BRC_TH_NP,barcode02,Salmonella enterica,NC_003197_2,4857450.0,0.0590433252,1.7510460251,2868.0,0.0,0.0
redo_BRC_TH_NP,barcode02,Salmonella enterica,NC_003277_2,93933.0,0.0,0.0,0.0,0.0,0.0
redo_BRC_TH_NP,barcode02,Selenomonas sp. oral taxon 136,NZ_CP014239_1,2442446.0,0.1699116378,1.0,4150.0,0.0,0.0
redo_BRC_TH_NP,barcode02,Selenomonas sp. oral taxon 136,NZ_CP014240_1,15626.0,0.0,0.0,0.0,0.0,0.0
redo_BRC_TH_NP,barcode02,Selenomonas sp. oral taxon 478,NZ_CP012071_1,2284135.0,1.4946577151,1.0,34140.0,0.0,0.0
redo_BRC_TH_NP,barcode02,Selenomonas sp. oral taxon 920,NZ_CP017042_1,2374300.0,0.0877732384,1.0,2084.0,0.0,0.0
redo_BRC_TH_NP,barcode02,Selenomonas sp. oral taxon 920,NZ_CP017043_1,65821.0,0.0,0.0,0.0,0.0,0.0
redo_BRC_TH_NP,barcode02,Selenomonas sputigena,NC_015437_1,2568361.0,0.2934166965,1.0,7536.0,0.0,0.0
redo_BRC_TH_NP,barcode02,Serratia marcescens,NZ_HG326223_1,5113802.0,0.0067660031,1.0,346.0,0.0,0.0
redo_BRC_TH_NP,barcode02,Shigella boydii,NZ_CP026731_1,4414429.0,0.0091291535,1.0,403.0,0.0,0.0
redo_BRC_TH_NP,barcode02,Shigella boydii,NZ_CP026732_1,59816.0,0.0,0.0,0.0,0.0,0.0
redo_BRC_TH_NP,barcode02,Shigella boydii,NZ_CP026733_1,51078.0,0.0,0.0,0.0,0.0,0.0
redo_BRC_TH_NP,barcode02,Simonsiella muelleri,NZ_CP019448_1,2469862.0,0.0055873567,1.0,138.0,0.0,0.0
redo_BRC_TH_NP,barcode02,Streptococcus agalactiae,NC_004116_1,2160267.0,0.0262467556,1.0,567.0,0.0,0.0
redo_BRC_TH_NP,barcode02,Streptococcus anginosus,NC_022239_1,2233640.0,0.0181318386,1.0,405.0,0.0,0.0
redo_BRC_TH_NP,barcode02,Streptococcus gordonii,NC_009785_1,2196662.0,0.2059488442,1.0,4524.0,0.0,0.0
redo_BRC_TH_NP,barcode02,Streptococcus intermedius,NC_022246_1,1996214.0,0.3888861615,2.0966121345,7763.0,0.0,0.0
redo_BRC_TH_NP,barcode02,Streptococcus mitis,NC_013853_1,2146611.0,1.375563621,1.0,29528.0,0.0,0.0
redo_BRC_TH_NP,barcode02,Streptococcus oralis,NC_015291_1,1958690.0,0.3926604006,1.0,7691.0,0.0,0.0
redo_BRC_TH_NP,barcode02,Streptococcus parasanguinis,NC_015678_1,2153652.0,9.8289324366,1.0577283743,211681.0,0.0,0.0
redo_BRC_TH_NP,barcode02,Streptococcus phage phiARI0462,NC_031942_1,40498.0,11.0598054225,1.0,4479.0,0.0,0.0
redo_BRC_TH_NP,barcode02,Streptococcus phage phiARI0746,NC_031907_1,33181.0,19.7221301347,1.0,6544.0,0.0,0.0
redo_BRC_TH_NP,barcode02,Streptococcus pneumoniae,NC_003098_1,2038615.0,81.2871483826,2.3494766862,1657132.0,102619.0,0.0
redo_BRC_TH_NP,barcode02,Streptococcus pseudopneumoniae,NC_015875_1,2190731.0,0.0397584185,1.0,871.0,0.0,0.0
redo_BRC_TH_NP,barcode02,Streptococcus pseudopneumoniae,NC_015876_1,4727.0,0.0,0.0,0.0,0.0,0.0
redo_BRC_TH_NP,barcode02,Streptococcus salivarius,NZ_CP009913_1,2188923.0,0.3198376553,1.0,7001.0,0.0,0.0
redo_BRC_TH_NP,barcode02,Streptococcus sanguinis,NC_009009_1,2388435.0,1.004967688,1.0167479065,24003.0,0.0,0.0
redo_BRC_TH_NP,barcode02,Streptococcus thermophilus,NC_017581_1,1929905.0,0.1396441794,1.0,2695.0,0.0,0.0
redo_BRC_TH_NP,barcode02,TM7 phylum sp. oral taxon 488,NZ_CP040003_1,889964.0,0.1669730461,1.0,1486.0,0.0,0.0
redo_BRC_TH_NP,barcode02,Tannerella forsythia,NC_016610_1,3405521.0,0.6400782729,1.0,21798.0,0.0,0.0
redo_BRC_TH_NP,barcode02,Tannerella sp. oral taxon HOT-286,NZ_CP017038_2,2973544.0,0.1040509237,1.0,3094.0,0.0,0.0
redo_BRC_TH_NP,barcode02,Treponema denticola,NC_002967_9,2843201.0,0.4358819514,1.0,12393.0,0.0,0.0
redo_BRC_TH_NP,barcode02,Treponema sp. OMZ 838,NZ_CP009227_1,2708067.0,0.0271042038,1.0,734.0,0.0,0.0
redo_BRC_TH_NP,barcode02,Tropheryma whipplei,NC_004572_3,927303.0,60.1660945775,1.4729639627,557922.0,973.0,0.0
redo_BRC_TH_NP,barcode02,Veillonella dispar,NZ_LR134375_1,2116915.0,9.4074159803,1.057409853,199147.0,0.0,0.0
redo_BRC_TH_NP,barcode02,Veillonella parvula,NC_013520_1,2132142.0,1.3493941773,1.1433387786,28771.0,0.0,0.0
redo_BRC_TH_NP,barcode02,Vibrio alfacsensis,NZ_CP032093_1,3136974.0,0.0060249145,1.0,189.0,0.0,0.0
redo_BRC_TH_NP,barcode02,Vibrio alfacsensis,NZ_CP032094_1,1596877.0,0.0,0.0,0.0,0.0,0.0
redo_BRC_TH_NP,barcode02,Vibrio alfacsensis,NZ_CP032095_1,176380.0,0.0,0.0,0.0,0.0,0.0
redo_BRC_TH_NP,barcode02,Vibrio campbellii,NC_009777_1,89008.0,0.0,0.0,0.0,0.0,0.0
redo_BRC_TH_NP,barcode02,Vibrio campbellii,NC_009783_1,3765351.0,0.030249504,1.0,1139.0,0.0,0.0
redo_BRC_TH_NP,barcode02,Vibrio campbellii,NC_009784_1,2204018.0,0.0,0.0,0.0,0.0,0.0
redo_BRC_TH_NP,barcode02,Vibrio coralliilyticus,NZ_CP009264_1,3463115.0,0.0464033103,1.0,1607.0,0.0,0.0
redo_BRC_TH_NP,barcode02,Vibrio coralliilyticus,NZ_CP009265_1,1888898.0,0.0,0.0,0.0,0.0,0.0
redo_BRC_TH_NP,barcode02,Vibrio coralliilyticus,NZ_CP009266_1,380781.0,0.0,0.0,0.0,0.0,0.0
redo_BRC_TH_NP,barcode02,Vibrio parahaemolyticus,NC_004603_1,3288558.0,0.0109470473,1.0,360.0,0.0,0.0
redo_BRC_TH_NP,barcode02,Vibrio parahaemolyticus,NC_004605_1,1877212.0,0.0,0.0,0.0,0.0,0.0
redo_BRC_TH_NP,barcode02,Vibrio vulnificus,NZ_CP014636_1,3394464.0,0.0076300706,1.0,259.0,0.0,0.0
redo_BRC_TH_NP,barcode02,Vibrio vulnificus,NZ_CP014637_1,1700225.0,0.0,0.0,0.0,0.0,0.0
redo_BRC_TH_NP,barcode02,Vibrio vulnificus,NZ_CP014638_1,68446.0,0.0,0.0,0.0,0.0,0.0
redo_BRC_TH_NP,barcode02,Yersinia frederiksenii,NZ_CP009363_1,55362.0,0.0,0.0,0.0,0.0,0.0
redo_BRC_TH_NP,barcode02,Yersinia frederiksenii,NZ_CP009364_1,4495532.0,0.0097207627,1.0,437.0,0.0,0.0
redo_BRC_TH_NP,barcode02,Yersinia intermedia,NZ_CP009801_1,4859749.0,0.0154328958,1.0,750.0,0.0,0.0
redo_BRC_TH_NP,barcode02,Yersinia pestis,NZ_CP033697_1,70300.0,0.0,0.0,0.0,0.0,0.0
redo_BRC_TH_NP,barcode02,Yersinia pestis,NZ_CP033698_1,19216.0,0.0,0.0,0.0,0.0,0.0
redo_BRC_TH_NP,barcode02,Yersinia pestis,NZ_CP033699_1,4708493.0,0.0534141179,1.0,2515.0,0.0,0.0
redo_BRC_TH_NP,barcode02,Yersinia pestis,NZ_CP033700_1,132950.0,0.0,0.0,0.0,0.0,0.0
redo_BRC_TH_NP,barcode02,[Haemophilus] ducreyi,NC_002940_2,1698955.0,0.099943789,1.0,1698.0,0.0,0.0
redo_BRC_TH_NP,barcode02,,NZ_CP029347_1,3214946.0,0.0453817887,1.0,1459.0,0.0,0.0
redo_BRC_TH_NP,barcode03,Haemophilus influenzae,NC_000907_1,1830138.0,10.5284410247,1.0907854789,192685.0,0.0,0.0
redo_BRC_TH_NP,barcode03,Streptococcus pneumoniae,NC_003098_1,2038615.0,0.0413516039,1.0,843.0,0.0,0.0
redo_BRC_TH_NP,barcode03,Tropheryma whipplei,NC_004572_3,927303.0,1.3596418862,1.0,12608.0,0.0,0.0
redo_BRC_TH_NP,barcode04,Acinetobacter baumannii,NZ_CP009257_1,4335793.0,0.0282993215,1.0,1227.0,0.0,0.0
redo_BRC_TH_NP,barcode04,Aggregatibacter actinomycetemcomitans,NZ_CP012959_1,2367908.0,0.0130917248,1.0,310.0,0.0,0.0
redo_BRC_TH_NP,barcode04,Campylobacter concisus,NZ_CP012541_1,1840041.0,0.0277711203,1.0,511.0,0.0,0.0
redo_BRC_TH_NP,barcode04,Denitrobacterium detoxificans,NZ_CP011402_1,2446250.0,0.0466428206,1.0,1141.0,0.0,0.0
redo_BRC_TH_NP,barcode04,Escherichia coli,NC_000913_3,4641652.0,0.009220855,1.0,428.0,0.0,0.0
redo_BRC_TH_NP,barcode04,Fusobacterium nucleatum,NZ_CP007062_1,2507720.0,0.1281642289,1.0,3214.0,0.0,0.0
redo_BRC_TH_NP,barcode04,Fusobacterium nucleatum,NZ_CP007063_1,6309.0,0.0,0.0,0.0,0.0,0.0
redo_BRC_TH_NP,barcode04,Fusobacterium periodonticum,NZ_CP024698_1,2222370.0,0.0655156432,1.0,1456.0,0.0,0.0
redo_BRC_TH_NP,barcode04,Gemella haemolysans,NZ_LR134484_1,1926227.0,0.0204025798,1.0,393.0,0.0,0.0
redo_BRC_TH_NP,barcode04,Glaesserella parasuis,NC_011852_1,2269156.0,0.0710836981,1.0,1613.0,0.0,0.0
redo_BRC_TH_NP,barcode04,Haemophilus aegyptius,NZ_LS483429_1,1993258.0,2.3648719835,1.3137171709,47138.0,0.0,0.0
redo_BRC_TH_NP,barcode04,Haemophilus haemolyticus,NZ_CP031240_1,1916320.0,1.1310741421,1.0680507497,21675.0,0.0,0.0
redo_BRC_TH_NP,barcode04,Haemophilus influenzae,NC_000907_1,1830138.0,92.6841582438,10.0924770435,1696248.0,1629210.0,748465.0
redo_BRC_TH_NP,barcode04,Haemophilus parainfluenzae,NC_015964_1,2086875.0,2.0696495957,1.0,43191.0,0.0,0.0
redo_BRC_TH_NP,barcode04,Haemophilus pittmaniae,NZ_LT906463_1,2181355.0,0.0323652042,1.0,706.0,0.0,0.0
redo_BRC_TH_NP,barcode04,Haemophilus sp. oral taxon 036,NZ_CP027235_1,1805716.0,0.147254607,1.0,2659.0,0.0,0.0
redo_BRC_TH_NP,barcode04,Neisseria flavescens,NZ_CP039886_1,2231882.0,0.0222682024,1.0,497.0,0.0,0.0
redo_BRC_TH_NP,barcode04,Pasteurella multocida,NZ_CP008918_1,2271840.0,0.0286111698,1.0,650.0,0.0,0.0
redo_BRC_TH_NP,barcode04,Prevotella melaninogenica,NC_014370_1,1796408.0,1.5758112856,1.0,28308.0,0.0,0.0
redo_BRC_TH_NP,barcode04,Prevotella melaninogenica,NC_014371_1,1371874.0,1.8960924983,1.0,26012.0,0.0,0.0
redo_BRC_TH_NP,barcode04,Rothia dentocariosa,NC_014643_1,2506025.0,0.0182360511,1.0,457.0,0.0,0.0
redo_BRC_TH_NP,barcode04,Staphylococcus cohnii,NZ_CP027419_1,32058.0,0.0,0.0,0.0,0.0,0.0
redo_BRC_TH_NP,barcode04,Staphylococcus cohnii,NZ_CP027420_1,36910.0,0.0,0.0,0.0,0.0,0.0
redo_BRC_TH_NP,barcode04,Staphylococcus cohnii,NZ_CP027421_1,29852.0,0.0,0.0,0.0,0.0,0.0
redo_BRC_TH_NP,barcode04,Staphylococcus cohnii,NZ_CP027422_1,2557319.0,0.0237748986,1.0,608.0,0.0,0.0
redo_BRC_TH_NP,barcode04,Staphylococcus cohnii,NZ_CP027423_1,2670.0,0.0,0.0,0.0,0.0,0.0
redo_BRC_TH_NP,barcode04,Staphylococcus cohnii,NZ_CP027424_1,2473.0,0.0,0.0,0.0,0.0,0.0
redo_BRC_TH_NP,barcode04,Streptococcus mitis,NC_013853_1,2146611.0,0.0200315754,1.0,430.0,0.0,0.0
redo_BRC_TH_NP,barcode04,Streptococcus parasanguinis,NC_015678_1,2153652.0,0.0434610606,1.0,936.0,0.0,0.0
redo_BRC_TH_NP,barcode04,Streptococcus phage phiARI0923,NC_030946_1,33477.0,0.9558801565,1.0,320.0,0.0,0.0
redo_BRC_TH_NP,barcode04,Streptococcus pneumoniae,NC_003098_1,2038615.0,54.8415468345,1.5374782649,1118008.0,7243.0,0.0
redo_BRC_TH_NP,barcode04,Streptococcus pseudopneumoniae,NC_015875_1,2190731.0,0.5203742495,1.0,11400.0,0.0,0.0
redo_BRC_TH_NP,barcode04,Streptococcus pseudopneumoniae,NC_015876_1,4727.0,0.0,0.0,0.0,0.0,0.0
redo_BRC_TH_NP,barcode04,Streptococcus sp. ChDC B345,NZ_CP032621_1,1972481.0,0.0096832365,1.0,191.0,0.0,0.0
redo_BRC_TH_NP,barcode04,Tannerella sp. oral taxon HOT-286,NZ_CP017038_2,2973544.0,0.0308049923,1.0,916.0,0.0,0.0
redo_BRC_TH_NP,barcode04,Veillonella dispar,NZ_LR134375_1,2116915.0,2.1556368584,1.0,45633.0,0.0,0.0
redo_BRC_TH_NP,barcode05,Aggregatibacter segnis,NZ_LS483443_1,2022832.0,0.1048035625,1.0,2120.0,0.0,0.0
redo_BRC_TH_NP,barcode05,Capnocytophaga sputigena,NZ_CP022385_1,3074746.0,0.3510859108,1.0,10795.0,0.0,0.0
redo_BRC_TH_NP,barcode05,Escherichia coli,NC_000913_3,4641652.0,0.0091777669,1.0,426.0,0.0,0.0
redo_BRC_TH_NP,barcode05,Escherichia marmotae,NZ_CP025979_1,4671322.0,0.0011559897,1.0,54.0,0.0,0.0
redo_BRC_TH_NP,barcode05,Escherichia marmotae,NZ_CP025980_1,148809.0,0.0,0.0,0.0,0.0,0.0
redo_BRC_TH_NP,barcode05,Escherichia marmotae,NZ_CP025981_1,76160.0,0.0,0.0,0.0,0.0,0.0
redo_BRC_TH_NP,barcode05,Fusobacterium periodonticum,NZ_CP024698_1,2222370.0,0.6901191071,1.0005216144,15337.0,0.0,0.0
redo_BRC_TH_NP,barcode05,Haemophilus aegyptius,NZ_LS483429_1,1993258.0,1.0328818447,1.5310374976,20588.0,0.0,0.0
redo_BRC_TH_NP,barcode05,Haemophilus haemolyticus,NZ_CP031240_1,1916320.0,0.1429823829,1.0,2740.0,0.0,0.0
redo_BRC_TH_NP,barcode05,Haemophilus influenzae,NC_000907_1,1830138.0,90.7337042343,4.214851447,1660552.0,679540.0,9488.0
redo_BRC_TH_NP,barcode05,Haemophilus parainfluenzae,NC_015964_1,2086875.0,1.0093560946,1.0048423851,21064.0,0.0,0.0
redo_BRC_TH_NP,barcode05,Haemophilus sp. oral taxon 036,NZ_CP027235_1,1805716.0,0.0399287596,1.0,721.0,0.0,0.0
redo_BRC_TH_NP,barcode05,Human gammaherpesvirus 4,NC_009334_1,172764.0,2.7210529972,1.0,4701.0,0.0,0.0
redo_BRC_TH_NP,barcode05,Leptotrichia hongkongensis,NZ_AP019846_1,2261073.0,0.0088011311,1.0,199.0,0.0,0.0
redo_BRC_TH_NP,barcode05,Leptotrichia hongkongensis,NZ_AP019847_1,23107.0,0.0,0.0,0.0,0.0,0.0
redo_BRC_TH_NP,barcode05,Neisseria flavescens,NZ_CP039886_1,2231882.0,0.050853943,1.0,1135.0,0.0,0.0
redo_BRC_TH_NP,barcode05,Neisseria mucosa,NZ_CP028150_1,2688408.0,0.0925454767,1.0,2488.0,0.0,0.0
redo_BRC_TH_NP,barcode05,Neisseria subflava,NZ_CP031251_1,2321871.0,1.3259565239,1.0,30787.0,0.0,0.0
redo_BRC_TH_NP,barcode05,Nocardiopsis dassonvillei,NC_014210_1,5767958.0,0.0157768139,1.0,910.0,0.0,0.0
redo_BRC_TH_NP,barcode05,Nocardiopsis dassonvillei,NC_014211_1,775354.0,0.0,0.0,0.0,0.0,0.0
redo_BRC_TH_NP,barcode05,Prevotella jejuni,NZ_CP023863_1,2204592.0,0.1241045962,1.0,2736.0,0.0,0.0
redo_BRC_TH_NP,barcode05,Prevotella jejuni,NZ_CP023864_1,1708414.0,0.0,0.0,0.0,0.0,0.0
redo_BRC_TH_NP,barcode05,Prevotella melaninogenica,NC_014370_1,1796408.0,0.8289319576,1.0,14891.0,0.0,0.0
redo_BRC_TH_NP,barcode05,Prevotella melaninogenica,NC_014371_1,1371874.0,0.0,0.0,0.0,0.0,0.0
redo_BRC_TH_NP,barcode05,Pseudomonas aeruginosa,NC_002516_2,6264404.0,0.0575952637,1.0,3608.0,0.0,0.0
redo_BRC_TH_NP,barcode05,Rothia dentocariosa,NC_014643_1,2506025.0,0.1124489979,1.0,2818.0,0.0,0.0
redo_BRC_TH_NP,barcode05,Streptococcus australis,NZ_LS483444_1,2161464.0,0.0177657366,1.0,384.0,0.0,0.0
redo_BRC_TH_NP,barcode05,Streptococcus mitis,NC_013853_1,2146611.0,0.3171044963,1.0,6807.0,0.0,0.0
redo_BRC_TH_NP,barcode05,Streptococcus oralis,NC_015291_1,1958690.0,0.0837294314,1.0,1640.0,0.0,0.0
redo_BRC_TH_NP,barcode05,Streptococcus pneumoniae,NC_003098_1,2038615.0,0.0518979798,1.0,1058.0,0.0,0.0
redo_BRC_TH_NP,barcode05,Streptococcus sanguinis,NC_009009_1,2388435.0,0.2852914147,1.0,6814.0,0.0,0.0
redo_BRC_TH_NP,barcode05,Streptococcus sp. A12,NZ_CP013651_1,1874337.0,0.0739994996,1.0,1387.0,0.0,0.0
redo_BRC_TH_NP,barcode05,Streptococcus sp. I-P16,NC_022582_1,2023580.0,0.2711531049,1.0,5487.0,0.0,0.0
redo_BRC_TH_NP,barcode05,Streptococcus sp. oral taxon 431,NZ_CP014264_1,2177905.0,0.5380859128,1.0,11719.0,0.0,0.0
redo_BRC_TH_NP,barcode05,Streptococcus viridans,NZ_LR134266_1,1998575.0,0.1639167907,1.0,3276.0,0.0,0.0
redo_BRC_TH_NP,barcode05,Veillonella dispar,NZ_LR134375_1,2116915.0,0.5505180888,1.0,11654.0,0.0,0.0
redo_BRC_TH_NP,barcode05,[Haemophilus] ducreyi,NC_002940_2,1698955.0,0.1662198234,1.0,2824.0,0.0,0.0
redo_BRC_TH_NP,barcode06,Actinomyces radicidentis,NZ_CP014228_1,3051613.0,0.0350634238,1.0,1070.0,0.0,0.0
redo_BRC_TH_NP,barcode06,Aggregatibacter segnis,NZ_LS483443_1,2022832.0,0.2154899665,1.0,4359.0,0.0,0.0
redo_BRC_TH_NP,barcode06,Bacteroides heparinolyticus,NZ_CP027234_1,3608975.0,0.0356888036,1.0,1288.0,0.0,0.0
redo_BRC_TH_NP,barcode06,Bacteroides vulgatus,NC_009614_1,5163189.0,0.0317052116,1.0,1637.0,0.0,0.0
redo_BRC_TH_NP,barcode06,Campylobacter curvus,NC_009715_2,1971270.0,0.3052854251,1.0,6018.0,0.0,0.0
redo_BRC_TH_NP,barcode06,Capnocytophaga gingivalis,NZ_CP022386_1,2838633.0,0.1430618188,1.0,4061.0,0.0,0.0
redo_BRC_TH_NP,barcode06,Capnocytophaga sp. oral taxon 864,NZ_CP027232_1,2654246.0,0.036507543,1.0,969.0,0.0,0.0
redo_BRC_TH_NP,barcode06,Capnocytophaga sp. oral taxon 864,NZ_CP027233_1,28295.0,0.0,0.0,0.0,0.0,0.0
redo_BRC_TH_NP,barcode06,Fusobacterium nucleatum,NZ_CP007062_1,2507720.0,0.2293318233,1.0,5751.0,0.0,0.0
redo_BRC_TH_NP,barcode06,Fusobacterium nucleatum,NZ_CP007063_1,6309.0,0.0,0.0,0.0,0.0,0.0
redo_BRC_TH_NP,barcode06,Glaesserella parasuis,NC_011852_1,2269156.0,0.4419704948,1.4302522684,10029.0,0.0,0.0
redo_BRC_TH_NP,barcode06,Haemophilus aegyptius,NZ_LS483429_1,1993258.0,1.8482303846,1.0185667752,36840.0,0.0,0.0
redo_BRC_TH_NP,barcode06,Haemophilus haemolyticus,NZ_CP031240_1,1916320.0,0.5169282792,1.0404805169,9906.0,0.0,0.0
redo_BRC_TH_NP,barcode06,Haemophilus influenzae,NC_000907_1,1830138.0,88.9371730438,3.1897377422,1627673.0,335710.0,106.0
redo_BRC_TH_NP,barcode06,Human betaherpesvirus 5,NC_006273_2,235646.0,0.1481035112,1.0,349.0,0.0,0.0
redo_BRC_TH_NP,barcode06,Mycoplasma hyosynoviae,NZ_CP008748_1,863547.0,0.3106953067,1.0,2683.0,0.0,0.0
redo_BRC_TH_NP,barcode06,Neisseria meningitidis,NC_003112_2,2272360.0,0.1556531535,1.0,3537.0,0.0,0.0
redo_BRC_TH_NP,barcode06,Parascardovia denticolens,NZ_AP012333_1,1890857.0,0.1529994071,1.0,2893.0,0.0,0.0
redo_BRC_TH_NP,barcode06,Prevotella dentalis,NC_019960_1,1890695.0,0.0,0.0,0.0,0.0,0.0
redo_BRC_TH_NP,barcode06,Prevotella dentalis,NC_019961_1,4946.0,0.0,0.0,0.0,0.0,0.0
redo_BRC_TH_NP,barcode06,Prevotella dentalis,NC_019968_1,1450390.0,0.1025930957,1.0,1488.0,0.0,0.0
redo_BRC_TH_NP,barcode06,Prevotella dentalis,NC_019969_1,4175.0,0.0,0.0,0.0,0.0,0.0
redo_BRC_TH_NP,barcode06,Prevotella denticola,NC_015311_1,2937589.0,0.1992450271,1.0,5853.0,0.0,0.0
redo_BRC_TH_NP,barcode06,Prevotella enoeca,NZ_CP013195_1,2861432.0,0.3176731091,1.0,9090.0,0.0,0.0
redo_BRC_TH_NP,barcode06,Prevotella intermedia,NZ_CP019300_1,1965935.0,0.0,0.0,0.0,0.0,0.0
redo_BRC_TH_NP,barcode06,Prevotella intermedia,NZ_CP019301_1,708235.0,1.2103327285,1.0,8572.0,0.0,0.0
redo_BRC_TH_NP,barcode06,Prevotella melaninogenica,NC_014370_1,1796408.0,0.0300043197,1.0,539.0,0.0,0.0
redo_BRC_TH_NP,barcode06,Prevotella melaninogenica,NC_014371_1,1371874.0,0.0,0.0,0.0,0.0,0.0
redo_BRC_TH_NP,barcode06,Prevotella oris,NZ_LR134384_1,3168212.0,1.0478781092,1.0,33199.0,0.0,0.0
redo_BRC_TH_NP,barcode06,Rothia dentocariosa,NC_014643_1,2506025.0,0.9336698556,1.0,23398.0,0.0,0.0
redo_BRC_TH_NP,barcode06,Rothia mucilaginosa,NC_013715_1,2264603.0,0.50282544,1.0,11387.0,0.0,0.0
redo_BRC_TH_NP,barcode06,Selenomonas sp. oral taxon 920,NZ_CP017042_1,2374300.0,0.0820031167,1.0,1947.0,0.0,0.0
redo_BRC_TH_NP,barcode06,Selenomonas sp. oral taxon 920,NZ_CP017043_1,65821.0,0.0,0.0,0.0,0.0,0.0
redo_BRC_TH_NP,barcode06,Streptococcus australis,NZ_LS483444_1,2161464.0,0.0383998993,1.0,830.0,0.0,0.0
redo_BRC_TH_NP,barcode06,Streptococcus cristatus,NC_021175_1,2142100.0,0.1410765137,1.0,3022.0,0.0,0.0
redo_BRC_TH_NP,barcode06,Streptococcus equinus,NZ_CP020438_1,2074978.0,1.6070049899,1.0,33345.0,0.0,0.0
redo_BRC_TH_NP,barcode06,Streptococcus equinus,NZ_CP020439_1,236564.0,0.0,0.0,0.0,0.0,0.0
redo_BRC_TH_NP,barcode06,Streptococcus mitis,NC_013853_1,2146611.0,0.5368928045,1.0,11525.0,0.0,0.0
redo_BRC_TH_NP,barcode06,Streptococcus oralis,NC_015291_1,1958690.0,0.0762754698,1.0,1494.0,0.0,0.0
redo_BRC_TH_NP,barcode06,Streptococcus parasanguinis,NC_015678_1,2153652.0,0.0533976706,1.0,1150.0,0.0,0.0
redo_BRC_TH_NP,barcode06,Streptococcus pneumoniae,NC_003098_1,2038615.0,10.5794865632,1.04433059,215675.0,0.0,0.0
redo_BRC_TH_NP,barcode06,Streptococcus pseudopneumoniae,NC_015875_1,2190731.0,0.4347407327,1.0,9524.0,0.0,0.0
redo_BRC_TH_NP,barcode06,Streptococcus pseudopneumoniae,NC_015876_1,4727.0,0.0,0.0,0.0,0.0,0.0
redo_BRC_TH_NP,barcode06,Streptococcus salivarius,NZ_CP009913_1,2188923.0,1.0793892704,1.0,23627.0,0.0,0.0
redo_BRC_TH_NP,barcode06,Streptococcus sanguinis,NC_009009_1,2388435.0,0.0407379728,1.0,973.0,0.0,0.0
redo_BRC_TH_NP,barcode06,Streptococcus sp. oral taxon 431,NZ_CP014264_1,2177905.0,0.0857704996,1.0,1868.0,0.0,0.0
redo_BRC_TH_NP,barcode06,Streptococcus thermophilus,NC_017581_1,1929905.0,0.0532668706,1.0,1028.0,0.0,0.0
redo_BRC_TH_NP,barcode06,Streptococcus vestibularis,NZ_LR134275_1,1950305.0,0.0448135035,1.0,874.0,0.0,0.0
redo_BRC_TH_NP,barcode06,Tannerella forsythia,NC_016610_1,3405521.0,0.4217563186,1.0,14363.0,0.0,0.0
redo_BRC_TH_NP,barcode06,Veillonella dispar,NZ_LR134375_1,2116915.0,4.4375423671,1.0323827164,93939.0,0.0,0.0
redo_BRC_TH_NP,barcode06,Veillonella parvula,NC_013520_1,2132142.0,0.1279933513,1.0,2729.0,0.0,0.0
redo_BRC_TH_NP,barcode07,Gemella haemolysans,NZ_LR134484_1,1926227.0,0.4300635387,1.0,8284.0,0.0,0.0
redo_BRC_TH_NP,barcode07,Haemophilus influenzae,NC_000907_1,1830138.0,16.3783277545,1.1110606981,299746.0,0.0,0.0
redo_BRC_TH_NP,barcode07,Human betaherpesvirus 5,NC_006273_2,235646.0,0.2541948516,1.0,599.0,0.0,0.0
redo_BRC_TH_NP,barcode07,Prevotella fusca,NZ_CP012074_1,1828248.0,0.186134485,1.0,3403.0,0.0,0.0
redo_BRC_TH_NP,barcode07,Prevotella fusca,NZ_CP012075_1,1433558.0,0.3755690387,1.0,5384.0,0.0,0.0
redo_BRC_TH_NP,barcode07,Prevotella intermedia,NZ_CP019300_1,1965935.0,0.0,0.0,0.0,0.0,0.0
redo_BRC_TH_NP,barcode07,Prevotella intermedia,NZ_CP019301_1,708235.0,0.0369933708,1.0,262.0,0.0,0.0
redo_BRC_TH_NP,barcode07,Prevotella jejuni,NZ_CP023863_1,2204592.0,0.3797981667,1.0291412875,8373.0,0.0,0.0
redo_BRC_TH_NP,barcode07,Prevotella jejuni,NZ_CP023864_1,1708414.0,0.7800217043,1.0904247336,13326.0,0.0,0.0
redo_BRC_TH_NP,barcode07,Prevotella melaninogenica,NC_014370_1,1796408.0,0.8539819462,1.0,15341.0,0.0,0.0
redo_BRC_TH_NP,barcode07,Prevotella melaninogenica,NC_014371_1,1371874.0,0.0,0.0,0.0,0.0,0.0
redo_BRC_TH_NP,barcode07,Prevotella oris,NZ_LR134384_1,3168212.0,0.291363078,1.0315242119,9231.0,0.0,0.0
redo_BRC_TH_NP,barcode07,Prevotella sp. oral taxon 299,NC_022111_1,1770419.0,0.0,0.0,0.0,0.0,0.0
redo_BRC_TH_NP,barcode07,Prevotella sp. oral taxon 299,NC_022124_1,709850.0,0.6036486582,1.0,4285.0,0.0,0.0
redo_BRC_TH_NP,barcode07,Rothia dentocariosa,NC_014643_1,2506025.0,0.3679532327,1.0,9221.0,0.0,0.0
redo_BRC_TH_NP,barcode07,Rothia mucilaginosa,NC_013715_1,2264603.0,0.1078334701,1.0,2442.0,0.0,0.0
redo_BRC_TH_NP,barcode07,Streptococcus gordonii,NC_009785_1,2196662.0,0.312883821,1.0,6873.0,0.0,0.0
redo_BRC_TH_NP,barcode07,Streptococcus mitis,NC_013853_1,2146611.0,2.1978830818,1.0,47180.0,0.0,0.0
redo_BRC_TH_NP,barcode07,Streptococcus oralis,NC_015291_1,1958690.0,0.0617759829,1.0,1210.0,0.0,0.0
redo_BRC_TH_NP,barcode07,Streptococcus parasanguinis,NC_015678_1,2153652.0,0.6908729916,1.0,14879.0,0.0,0.0
redo_BRC_TH_NP,barcode07,Streptococcus phage DCC1738,NC_024361_1,38392.0,56.8686184622,1.1520175881,21833.0,0.0,0.0
redo_BRC_TH_NP,barcode07,Streptococcus phage K13,NC_024357_1,39360.0,2.9268292683,1.0,1152.0,0.0,0.0
redo_BRC_TH_NP,barcode07,Streptococcus phage phiARI0468-4,NC_031915_1,37395.0,10.5308196283,1.0,3938.0,0.0,0.0
redo_BRC_TH_NP,barcode07,Streptococcus phage phiARI0746,NC_031907_1,33181.0,8.7429553057,1.0534298518,2901.0,0.0,0.0
redo_BRC_TH_NP,barcode07,Streptococcus pneumoniae,NC_003098_1,2038615.0,71.8473080989,2.0461367252,1464690.0,57179.0,0.0
redo_BRC_TH_NP,barcode07,Streptococcus pseudopneumoniae,NC_015875_1,2190731.0,0.2198809438,1.0,4817.0,0.0,0.0
redo_BRC_TH_NP,barcode07,Streptococcus pseudopneumoniae,NC_015876_1,4727.0,0.0,0.0,0.0,0.0,0.0
redo_BRC_TH_NP,barcode07,Streptococcus salivarius,NZ_CP009913_1,2188923.0,0.2414886225,1.0,5286.0,0.0,0.0
redo_BRC_TH_NP,barcode07,Streptococcus sp. A12,NZ_CP013651_1,1874337.0,0.0229947976,1.0,431.0,0.0,0.0
redo_BRC_TH_NP,barcode07,Streptococcus sp. ChDC B345,NZ_CP032621_1,1972481.0,0.0921174906,1.0,1817.0,0.0,0.0
redo_BRC_TH_NP,barcode07,Veillonella dispar,NZ_LR134375_1,2116915.0,1.8497199935,1.0,39157.0,0.0,0.0
redo_BRC_TH_NP,barcode07,Veillonella parvula,NC_013520_1,2132142.0,1.0801813388,1.0,23031.0,0.0,0.0
redo_BRC_TH_NP,barcode07,Veillonella rodentium,NZ_LT906470_1,2041290.0,0.008866942,1.0,181.0,0.0,0.0
redo_BRC_TH_NP,barcode08,Haemophilus influenzae,NC_000907_1,1830138.0,4.5988881713,1.013556543,84166.0,0.0,0.0
redo_BRC_TH_NP,barcode09,Haemophilus influenzae,NC_000907_1,1830138.0,17.2712658827,1.0860678039,316088.0,0.0,0.0
redo_BRC_TH_NP,barcode10,Haemophilus haemolyticus,NZ_CP031240_1,1916320.0,0.0492610837,1.0,944.0,0.0,0.0
redo_BRC_TH_NP,barcode10,Haemophilus influenzae,NC_000907_1,1830138.0,7.797936549,1.052048517,142713.0,0.0,0.0
redo_BRC_TH_NP,barcode10,Pasteurella multocida,NZ_CP008918_1,2271840.0,0.0467902669,1.0,1063.0,0.0,0.0
redo_BRC_TH_NP,barcode10,Streptococcus pneumoniae,NC_003098_1,2038615.0,0.1071806104,1.0,2185.0,0.0,0.0
redo_BRC_TH_NP,barcode11,Haemophilus influenzae,NC_000907_1,1830138.0,0.5470625712,1.0,10012.0,0.0,0.0
redo_BRC_TH_NP,barcode12,Haemophilus influenzae,NC_000907_1,1830138.0,0.7101650258,1.0,12997.0,0.0,0.0
redo_BRC_TH_NP,barcode12a,Haemophilus influenzae,NC_000907_1,1830138.0,0.4120454305,1.0,7541.0,0.0,0.0
redo_BRC_TH_NP,unclassified,Acinetobacter baumannii,NZ_CP009257_1,4335793.0,0.0210342145,1.0,912.0,0.0,0.0
redo_BRC_TH_NP,unclassified,Actinobacillus delphinicola,NZ_LR134510_1,1837244.0,0.0603077218,1.0,1108.0,0.0,0.0
redo_BRC_TH_NP,unclassified,Actinobacillus lignieresii,NZ_LR134169_1,2377048.0,0.1108938482,1.2333080425,2636.0,0.0,0.0
redo_BRC_TH_NP,unclassified,Actinobacillus pleuropneumoniae,NC_009053_1,2274482.0,0.0168389989,1.0,383.0,0.0,0.0
redo_BRC_TH_NP,unclassified,Actinobacillus suis,NZ_CP009159_1,2501598.0,0.0857451917,1.0,2145.0,0.0,0.0
redo_BRC_TH_NP,unclassified,Actinomyces odontolyticus,NZ_CP040006_1,2360133.0,0.3392181712,1.0,8006.0,0.0,0.0
redo_BRC_TH_NP,unclassified,Aeromonas sp. ASNIH2,NZ_CP026406_1,4801408.0,0.0146415385,1.0,703.0,0.0,0.0
redo_BRC_TH_NP,unclassified,Aeromonas sp. ASNIH2,NZ_CP026407_1,13512.0,0.0,0.0,0.0,0.0,0.0
redo_BRC_TH_NP,unclassified,Aeromonas sp. ASNIH2,NZ_CP026408_1,29979.0,0.0,0.0,0.0,0.0,0.0
redo_BRC_TH_NP,unclassified,Aeromonas sp. ASNIH2,NZ_CP026409_1,8238.0,0.0,0.0,0.0,0.0,0.0
redo_BRC_TH_NP,unclassified,Aeromonas sp. ASNIH2,NZ_CP026410_1,6782.0,0.0,0.0,0.0,0.0,0.0
redo_BRC_TH_NP,unclassified,Aeromonas sp. ASNIH2,NZ_CP026411_1,4613.0,0.0,0.0,0.0,0.0,0.0
redo_BRC_TH_NP,unclassified,Aggregatibacter actinomycetemcomitans,NZ_CP012959_1,2367908.0,0.2794027471,1.0923518742,6616.0,0.0,0.0
redo_BRC_TH_NP,unclassified,Aggregatibacter aphrophilus,NC_012913_1,2313035.0,0.015780133,1.0,365.0,0.0,0.0
redo_BRC_TH_NP,unclassified,Arsenophonus nasoniae,NZ_CP038613_1,3871978.0,0.0244577836,1.0,947.0,0.0,0.0
redo_BRC_TH_NP,unclassified,Arsenophonus nasoniae,NZ_CP038614_1,222851.0,0.0,0.0,0.0,0.0,0.0
redo_BRC_TH_NP,unclassified,Arsenophonus nasoniae,NZ_CP038615_1,85190.0,0.0,0.0,0.0,0.0,0.0
redo_BRC_TH_NP,unclassified,Arsenophonus nasoniae,NZ_CP038616_1,85274.0,0.0,0.0,0.0,0.0,0.0
redo_BRC_TH_NP,unclassified,Arsenophonus nasoniae,NZ_CP038617_1,133306.0,0.0,0.0,0.0,0.0,0.0
redo_BRC_TH_NP,unclassified,Arsenophonus nasoniae,NZ_CP038618_1,61872.0,0.0,0.0,0.0,0.0,0.0
redo_BRC_TH_NP,unclassified,Arsenophonus nasoniae,NZ_CP038619_1,121472.0,0.0,0.0,0.0,0.0,0.0
redo_BRC_TH_NP,unclassified,Arsenophonus nasoniae,NZ_CP038620_1,120926.0,0.0,0.0,0.0,0.0,0.0
redo_BRC_TH_NP,unclassified,Arsenophonus nasoniae,NZ_CP038621_1,51789.0,0.0,0.0,0.0,0.0,0.0
redo_BRC_TH_NP,unclassified,Arsenophonus nasoniae,NZ_CP038622_1,50328.0,0.0,0.0,0.0,0.0,0.0
redo_BRC_TH_NP,unclassified,Arsenophonus nasoniae,NZ_CP038623_1,46250.0,0.0,0.0,0.0,0.0,0.0
redo_BRC_TH_NP,unclassified,Arsenophonus nasoniae,NZ_CP038624_1,34725.0,0.0,0.0,0.0,0.0,0.0
redo_BRC_TH_NP,unclassified,Arsenophonus nasoniae,NZ_CP038625_1,33626.0,0.0,0.0,0.0,0.0,0.0
redo_BRC_TH_NP,unclassified,Arsenophonus nasoniae,NZ_CP038626_1,32417.0,0.0,0.0,0.0,0.0,0.0
redo_BRC_TH_NP,unclassified,Arsenophonus nasoniae,NZ_CP038627_1,15977.0,0.0,0.0,0.0,0.0,0.0
redo_BRC_TH_NP,unclassified,Arsenophonus nasoniae,NZ_CP038628_1,8312.0,0.0,0.0,0.0,0.0,0.0
redo_BRC_TH_NP,unclassified,Arsenophonus nasoniae,NZ_CP038629_1,3641.0,0.0,0.0,0.0,0.0,0.0
redo_BRC_TH_NP,unclassified,Arsenophonus nasoniae,NZ_CP038630_1,7173.0,0.0,0.0,0.0,0.0,0.0
redo_BRC_TH_NP,unclassified,Bacterioplanes sanyensis,NZ_CP022530_1,4293726.0,0.0254324566,1.0,1092.0,0.0,0.0
redo_BRC_TH_NP,unclassified,Buchnera aphidicola,NC_004061_1,641454.0,0.0132511451,1.0,85.0,0.0,0.0
redo_BRC_TH_NP,unclassified,Campylobacter concisus,NZ_CP012541_1,1840041.0,0.6162906153,1.0,11340.0,0.0,0.0
redo_BRC_TH_NP,unclassified,Campylobacter curvus,NC_009715_2,1971270.0,0.0165375621,1.0,326.0,0.0,0.0
redo_BRC_TH_NP,unclassified,Campylobacter showae,NZ_LR535679_1,2160580.0,0.0461450166,1.0,997.0,0.0,0.0
redo_BRC_TH_NP,unclassified,Candidatus Gracilibacteria bacterium HOT-871,NZ_CP017714_1,1184529.0,0.4727617475,1.0,5600.0,0.0,0.0
redo_BRC_TH_NP,unclassified,Candidatus Ishikawaella capsulata,NZ_AP010872_1,745590.0,0.0060354887,1.0,45.0,0.0,0.0
redo_BRC_TH_NP,unclassified,Candidatus Ishikawaella capsulata,NZ_AP010873_1,9139.0,0.0,0.0,0.0,0.0,0.0
redo_BRC_TH_NP,unclassified,Candidatus Portiera aleyrodidarum,NC_018507_1,358242.0,0.1744630724,1.0,625.0,0.0,0.0
redo_BRC_TH_NP,unclassified,Candidatus Sodalis pierantonius,NZ_CP006568_1,4513140.0,0.0269213895,1.0,1215.0,0.0,0.0
redo_BRC_TH_NP,unclassified,Capnocytophaga sp. oral taxon 323,NZ_CP012589_1,2614527.0,0.0595518807,1.0,1557.0,0.0,0.0
redo_BRC_TH_NP,unclassified,Coriobacterium glomerans,NC_015389_1,2115681.0,0.0143216298,1.0,303.0,0.0,0.0
redo_BRC_TH_NP,unclassified,Corynebacterium flavescens,NZ_CP009246_1,2758653.0,0.0085186502,1.0,235.0,0.0,0.0
redo_BRC_TH_NP,unclassified,Enterobacter bugandensis,NZ_LT992502_1,4717613.0,0.0118068184,1.0,557.0,0.0,0.0
redo_BRC_TH_NP,unclassified,Enterobacter cloacae complex bacterium,NZ_CP026975_1,4876999.0,0.0359852442,1.0,1755.0,0.0,0.0
redo_BRC_TH_NP,unclassified,Erwinia sp. Ejp617,NC_017442_1,30866.0,0.0,0.0,0.0,0.0,0.0
redo_BRC_TH_NP,unclassified,Erwinia sp. Ejp617,NC_017443_1,6417.0,0.0,0.0,0.0,0.0,0.0
redo_BRC_TH_NP,unclassified,Erwinia sp. Ejp617,NC_017444_1,2691.0,0.0,0.0,0.0,0.0,0.0
redo_BRC_TH_NP,unclassified,Erwinia sp. Ejp617,NC_017445_1,3909168.0,0.0449456253,1.0,1757.0,0.0,0.0
redo_BRC_TH_NP,unclassified,Erwinia sp. Ejp617,NC_017446_1,5296.0,0.0,0.0,0.0,0.0,0.0
redo_BRC_TH_NP,unclassified,Erwinia sp. Ejp617,NC_017447_1,3237.0,0.0,0.0,0.0,0.0,0.0
redo_BRC_TH_NP,unclassified,Escherichia coli,NC_000913_3,4641652.0,0.0600001896,1.0,2785.0,0.0,0.0
redo_BRC_TH_NP,unclassified,Escherichia fergusonii,NC_011740_1,4588711.0,0.0156035104,1.0,716.0,0.0,0.0
redo_BRC_TH_NP,unclassified,Escherichia fergusonii,NC_011743_1,55150.0,0.0,0.0,0.0,0.0,0.0
redo_BRC_TH_NP,unclassified,Frischella perrara,NZ_CP009056_1,2692351.0,0.0121826612,1.0,328.0,0.0,0.0
redo_BRC_TH_NP,unclassified,Fusobacterium nucleatum,NZ_CP007062_1,2507720.0,0.056505511,1.0,1417.0,0.0,0.0
redo_BRC_TH_NP,unclassified,Fusobacterium nucleatum,NZ_CP007063_1,6309.0,0.0,0.0,0.0,0.0,0.0
redo_BRC_TH_NP,unclassified,Fusobacterium periodonticum,NZ_CP024698_1,2222370.0,0.2530631713,1.0,5624.0,0.0,0.0
redo_BRC_TH_NP,unclassified,Gemella haemolysans,NZ_LR134484_1,1926227.0,0.216796878,1.0,4176.0,0.0,0.0
redo_BRC_TH_NP,unclassified,Gemella morbillorum,NZ_LS483440_1,1760930.0,0.0369123134,1.0,650.0,0.0,0.0
redo_BRC_TH_NP,unclassified,Gemella sp. oral taxon 928,NZ_CP014233_1,1769679.0,0.2581259087,1.0,4568.0,0.0,0.0
redo_BRC_TH_NP,unclassified,Gilliamella apicola,NZ_CP007445_1,3139412.0,0.0236987054,1.0,744.0,0.0,0.0
redo_BRC_TH_NP,unclassified,Glaesserella parasuis,NC_011852_1,2269156.0,0.1786126648,1.0,4053.0,0.0,0.0
redo_BRC_TH_NP,unclassified,Haemophilus aegyptius,NZ_LS483429_1,1993258.0,7.6226961086,1.0402790575,151940.0,0.0,0.0
redo_BRC_TH_NP,unclassified,Haemophilus haemolyticus,NZ_CP031240_1,1916320.0,7.3396927444,1.1395785343,140652.0,0.0,0.0
redo_BRC_TH_NP,unclassified,Haemophilus influenzae,NC_000907_1,1830138.0,96.2198479022,75.3230137493,1760956.0,1723308.0,1705858.0
redo_BRC_TH_NP,unclassified,Haemophilus parainfluenzae,NC_015964_1,2086875.0,3.8112009584,1.1467152826,79535.0,0.0,0.0
redo_BRC_TH_NP,unclassified,Haemophilus pittmaniae,NZ_LT906463_1,2181355.0,0.0296604633,1.0,647.0,0.0,0.0
redo_BRC_TH_NP,unclassified,Haemophilus sp. oral taxon 036,NZ_CP027235_1,1805716.0,0.695015163,1.0,12550.0,0.0,0.0
redo_BRC_TH_NP,unclassified,Histophilus somni,NC_010519_1,2263857.0,0.0036221369,1.0,82.0,0.0,0.0
redo_BRC_TH_NP,unclassified,Klebsiella aerogenes,NC_015663_1,5280350.0,0.0498451807,1.0,2632.0,0.0,0.0
redo_BRC_TH_NP,unclassified,Klebsiella michiganensis,NC_016612_1,5974109.0,0.0104450722,1.0,624.0,0.0,0.0
redo_BRC_TH_NP,unclassified,Klebsiella pneumoniae,NC_016838_1,122799.0,0.0,0.0,0.0,0.0,0.0
redo_BRC_TH_NP,unclassified,Klebsiella pneumoniae,NC_016839_1,105974.0,0.0,0.0,0.0,0.0,0.0
redo_BRC_TH_NP,unclassified,Klebsiella pneumoniae,NC_016840_1,3751.0,0.0,0.0,0.0,0.0,0.0
redo_BRC_TH_NP,unclassified,Klebsiella pneumoniae,NC_016841_1,1308.0,0.0,0.0,0.0,0.0,0.0
redo_BRC_TH_NP,unclassified,Klebsiella pneumoniae,NC_016845_1,5333942.0,0.244153386,1.1173308761,13023.0,0.0,0.0
redo_BRC_TH_NP,unclassified,Klebsiella pneumoniae,NC_016846_1,111195.0,0.0,0.0,0.0,0.0,0.0
redo_BRC_TH_NP,unclassified,Klebsiella pneumoniae,NC_016847_1,3353.0,0.0,0.0,0.0,0.0,0.0
redo_BRC_TH_NP,unclassified,Kosakonia cowanii,NZ_CP019445_1,4646998.0,0.0284915122,1.0,1324.0,0.0,0.0
redo_BRC_TH_NP,unclassified,Kosakonia cowanii,NZ_CP019446_1,113443.0,0.0,0.0,0.0,0.0,0.0
redo_BRC_TH_NP,unclassified,Kosakonia cowanii,NZ_CP019447_1,96883.0,0.0,0.0,0.0,0.0,0.0
redo_BRC_TH_NP,unclassified,Leptotrichia sp. oral taxon 212,NZ_CP012410_1,2444904.0,0.3492979683,1.0,8540.0,0.0,0.0
redo_BRC_TH_NP,unclassified,Moraxella bovis,NZ_CP030241_1,2839913.0,0.0554946578,1.0,1576.0,0.0,0.0
redo_BRC_TH_NP,unclassified,Moraxella bovis,NZ_CP030242_1,44217.0,0.0,0.0,0.0,0.0,0.0
redo_BRC_TH_NP,unclassified,Moraxella bovis,NZ_CP030243_1,27077.0,0.0,0.0,0.0,0.0,0.0
redo_BRC_TH_NP,unclassified,Moraxella catarrhalis,NC_014147_1,1863286.0,3.5490525877,1.0,66129.0,0.0,0.0
redo_BRC_TH_NP,unclassified,Moraxella osloensis,NZ_CP014234_1,2434688.0,0.0462071526,1.0,1125.0,0.0,0.0
redo_BRC_TH_NP,unclassified,Moraxella osloensis,NZ_CP014235_1,81455.0,0.0,0.0,0.0,0.0,0.0
redo_BRC_TH_NP,unclassified,Moraxella osloensis,NZ_CP014236_1,57463.0,0.0,0.0,0.0,0.0,0.0
redo_BRC_TH_NP,unclassified,Moraxella osloensis,NZ_CP014237_1,35189.0,0.0,0.0,0.0,0.0,0.0
redo_BRC_TH_NP,unclassified,Moraxella osloensis,NZ_CP014238_1,40342.0,0.0,0.0,0.0,0.0,0.0
redo_BRC_TH_NP,unclassified,Morganella morganii,NC_020418_1,3799539.0,0.0991962446,1.0,3769.0,0.0,0.0
redo_BRC_TH_NP,unclassified,Neisseria flavescens,NZ_CP039886_1,2231882.0,0.1052474996,1.0,2349.0,0.0,0.0
redo_BRC_TH_NP,unclassified,Neisseria gonorrhoeae,NC_002946_2,2153922.0,0.2973181016,1.0,6404.0,0.0,0.0
redo_BRC_TH_NP,unclassified,Neisseria meningitidis,NC_003112_2,2272360.0,11.6673414424,1.0435192589,265124.0,0.0,0.0
redo_BRC_TH_NP,unclassified,Neisseria mucosa,NZ_CP028150_1,2688408.0,0.0572829719,1.0,1540.0,0.0,0.0
redo_BRC_TH_NP,unclassified,Neisseria subflava,NZ_CP031251_1,2321871.0,0.2947192157,1.0,6843.0,0.0,0.0
redo_BRC_TH_NP,unclassified,Neisseriaceae bacterium DSM 100970,NZ_CP024847_1,2820660.0,0.0146065105,1.0,412.0,0.0,0.0
redo_BRC_TH_NP,unclassified,Neochlamydia sp. S13,NZ_AP017977_1,2586667.0,0.0046778344,1.0,121.0,0.0,0.0
redo_BRC_TH_NP,unclassified,Neochlamydia sp. S13,NZ_AP017978_1,231307.0,0.0,0.0,0.0,0.0,0.0
redo_BRC_TH_NP,unclassified,Pantoea ananatis,NC_013956_2,4703373.0,0.0310415525,1.0,1460.0,0.0,0.0
redo_BRC_TH_NP,unclassified,Parvimonas micra,NZ_CP009761_1,1627009.0,1.7819815379,1.0,28993.0,0.0,0.0
redo_BRC_TH_NP,unclassified,Pasteurella multocida,NZ_CP008918_1,2271840.0,0.4793471371,1.3209366391,10890.0,0.0,0.0
redo_BRC_TH_NP,unclassified,Pectobacterium carotovorum,NC_012917_1,4862913.0,0.0103847221,1.0,505.0,0.0,0.0
redo_BRC_TH_NP,unclassified,Photobacterium damselae,NZ_CP021151_1,3134662.0,0.0427159292,1.0,1339.0,0.0,0.0
redo_BRC_TH_NP,unclassified,Photobacterium damselae,NZ_CP021152_1,1105401.0,0.0,0.0,0.0,0.0,0.0
redo_BRC_TH_NP,unclassified,Photobacterium damselae,NZ_CP021153_1,105771.0,0.0,0.0,0.0,0.0,0.0
redo_BRC_TH_NP,unclassified,Photobacterium damselae,NZ_CP021154_1,81002.0,0.0,0.0,0.0,0.0,0.0
redo_BRC_TH_NP,unclassified,Photobacterium damselae,NZ_CP021155_1,72321.0,0.0,0.0,0.0,0.0,0.0
redo_BRC_TH_NP,unclassified,Photobacterium damselae,NZ_CP021156_1,45429.0,0.0,0.0,0.0,0.0,0.0
redo_BRC_TH_NP,unclassified,Porphyromonas cangingivalis,NZ_LR134506_1,2404857.0,0.0116015214,1.0,279.0,0.0,0.0
redo_BRC_TH_NP,unclassified,Prevotella intermedia,NZ_CP019300_1,1965935.0,0.5640064397,1.0,11088.0,0.0,0.0
redo_BRC_TH_NP,unclassified,Prevotella intermedia,NZ_CP019301_1,708235.0,0.0,0.0,0.0,0.0,0.0
redo_BRC_TH_NP,unclassified,Prevotella jejuni,NZ_CP023863_1,2204592.0,0.9474769028,1.0497414784,20888.0,0.0,0.0
redo_BRC_TH_NP,unclassified,Prevotella jejuni,NZ_CP023864_1,1708414.0,0.0775573134,1.0,1325.0,0.0,0.0
redo_BRC_TH_NP,unclassified,Prevotella melaninogenica,NC_014370_1,1796408.0,1.5857199478,1.1363476796,28486.0,0.0,0.0
redo_BRC_TH_NP,unclassified,Prevotella melaninogenica,NC_014371_1,1371874.0,0.1288748092,1.0,1768.0,0.0,0.0
redo_BRC_TH_NP,unclassified,Prevotella oris,NZ_LR134384_1,3168212.0,0.524049527,1.0,16603.0,0.0,0.0
redo_BRC_TH_NP,unclassified,Pseudomonas aeruginosa,NC_002516_2,6264404.0,0.0292286385,1.0,1831.0,0.0,0.0
redo_BRC_TH_NP,unclassified,Rothia dentocariosa,NC_014643_1,2506025.0,1.0915294141,1.0,27354.0,0.0,0.0
redo_BRC_TH_NP,unclassified,Rothia mucilaginosa,NC_013715_1,2264603.0,0.3152870503,1.0,7140.0,0.0,0.0
redo_BRC_TH_NP,unclassified,Salmonella enterica,NC_003197_2,4857450.0,0.0698514653,1.0978485116,3393.0,0.0,0.0
redo_BRC_TH_NP,unclassified,Salmonella enterica,NC_003277_2,93933.0,0.0,0.0,0.0,0.0,0.0
redo_BRC_TH_NP,unclassified,Selenomonas sp. oral taxon 478,NZ_CP012071_1,2284135.0,0.9174589068,1.0,20956.0,0.0,0.0
redo_BRC_TH_NP,unclassified,Selenomonas sputigena,NC_015437_1,2568361.0,0.5890916425,1.0,15130.0,0.0,0.0
redo_BRC_TH_NP,unclassified,Serratia ficaria,NZ_LT906479_1,5209973.0,0.0152208082,1.0,793.0,0.0,0.0
redo_BRC_TH_NP,unclassified,Shigella flexneri,NC_004337_2,4607202.0,0.0052743509,1.0,243.0,0.0,0.0
redo_BRC_TH_NP,unclassified,Shigella flexneri,NC_004851_1,221618.0,0.0,0.0,0.0,0.0,0.0
redo_BRC_TH_NP,unclassified,Sporolactobacillus terrae,NZ_AP021853_1,3308414.0,0.0247852899,1.0,820.0,0.0,0.0
redo_BRC_TH_NP,unclassified,Streptococcus cristatus,NC_021175_1,2142100.0,0.1474721068,1.0,3159.0,0.0,0.0
redo_BRC_TH_NP,unclassified,Streptococcus gordonii,NC_009785_1,2196662.0,0.0113353807,1.0,249.0,0.0,0.0
redo_BRC_TH_NP,unclassified,Streptococcus mitis,NC_013853_1,2146611.0,2.3709465758,1.000864525,50895.0,0.0,0.0
redo_BRC_TH_NP,unclassified,Streptococcus oralis,NC_015291_1,1958690.0,1.1259055797,1.0,22053.0,0.0,0.0
redo_BRC_TH_NP,unclassified,Streptococcus parasanguinis,NC_015678_1,2153652.0,4.542005858,1.0176857257,97819.0,0.0,0.0
redo_BRC_TH_NP,unclassified,Streptococcus phage IC1,NC_024370_1,39965.0,11.4450143876,1.0,4574.0,0.0,0.0
redo_BRC_TH_NP,unclassified,Streptococcus phage phiARI0031,NC_031910_1,41887.0,7.1525771719,1.0,2996.0,0.0,0.0
redo_BRC_TH_NP,unclassified,Streptococcus pneumoniae,NC_003098_1,2038615.0,69.332316303,1.919610533,1413419.0,38650.0,0.0
redo_BRC_TH_NP,unclassified,Streptococcus pseudopneumoniae,NC_015875_1,2190731.0,1.4671358556,1.0,32141.0,0.0,0.0
redo_BRC_TH_NP,unclassified,Streptococcus pseudopneumoniae,NC_015876_1,4727.0,0.0,0.0,0.0,0.0,0.0
redo_BRC_TH_NP,unclassified,Streptococcus salivarius,NZ_CP009913_1,2188923.0,0.6345129545,1.0,13889.0,0.0,0.0
redo_BRC_TH_NP,unclassified,Streptococcus sp. ChDC B345,NZ_CP032621_1,1972481.0,0.6804121307,1.0,13421.0,0.0,0.0
redo_BRC_TH_NP,unclassified,Streptococcus sp. oral taxon 431,NZ_CP014264_1,2177905.0,0.266632383,1.0,5807.0,0.0,0.0
redo_BRC_TH_NP,unclassified,Streptococcus thermophilus,NC_017581_1,1929905.0,0.0223845215,1.0,432.0,0.0,0.0
redo_BRC_TH_NP,unclassified,Streptococcus vestibularis,NZ_LR134275_1,1950305.0,0.0183561033,1.0,358.0,0.0,0.0
redo_BRC_TH_NP,unclassified,Tannerella sp. oral taxon HOT-286,NZ_CP017038_2,2973544.0,0.0099208218,1.0,295.0,0.0,0.0
redo_BRC_TH_NP,unclassified,Treponema sp. OMZ 838,NZ_CP009227_1,2708067.0,0.0950862737,1.0,2575.0,0.0,0.0
redo_BRC_TH_NP,unclassified,Tropheryma whipplei,NC_004572_3,927303.0,16.7736974862,1.0780813023,155543.0,0.0,0.0
redo_BRC_TH_NP,unclassified,Veillonella dispar,NZ_LR134375_1,2116915.0,3.0584128319,1.0348294823,64744.0,0.0,0.0
redo_BRC_TH_NP,unclassified,Veillonella parvula,NC_013520_1,2132142.0,1.0160674101,1.0,21664.0,0.0,0.0
redo_BRC_TH_NP,unclassified,Vibrio alfacsensis,NZ_CP032093_1,3136974.0,0.0701631572,1.0,2201.0,0.0,0.0
redo_BRC_TH_NP,unclassified,Vibrio alfacsensis,NZ_CP032094_1,1596877.0,0.0,0.0,0.0,0.0,0.0
redo_BRC_TH_NP,unclassified,Vibrio alfacsensis,NZ_CP032095_1,176380.0,0.0,0.0,0.0,0.0,0.0
redo_BRC_TH_NP,unclassified,Vibrio cholerae,NC_002505_1,2961149.0,0.0684193872,1.0,2026.0,0.0,0.0
redo_BRC_TH_NP,unclassified,Vibrio cholerae,NC_002506_1,1072315.0,0.0,0.0,0.0,0.0,0.0
redo_BRC_TH_NP,unclassified,Vibrio coralliilyticus,NZ_CP009264_1,3463115.0,0.0037827216,1.0,131.0,0.0,0.0
redo_BRC_TH_NP,unclassified,Vibrio coralliilyticus,NZ_CP009265_1,1888898.0,0.0,0.0,0.0,0.0,0.0
redo_BRC_TH_NP,unclassified,Vibrio coralliilyticus,NZ_CP009266_1,380781.0,0.0,0.0,0.0,0.0,0.0
redo_BRC_TH_NP,unclassified,[Haemophilus] ducreyi,NC_002940_2,1698955.0,0.1526232302,1.0,2593.0,0.0,0.0
redo_BRC_TH_NP,unclassified,[Mannheimia] succiniciproducens,NC_006300_1,2314078.0,0.1757071283,1.0,4066.0,0.0,0.0
redo_BRC_TH_NP,unclassified,[Pasteurella] aerogenes,NZ_LR134362_1,2257472.0,0.0341975449,1.0,772.0,0.0,0.0
redo_BRC_TH_NP,unclassified,endosymbiont of Sipalinus gigas,NZ_AP018162_1,230546.0,0.5096596775,1.0,1175.0,0.0,0.0
redo_BRC_TH_NP,unclassified,endosymbiont of Sipalinus gigas,NZ_AP018163_1,2117.0,0.0,0.0,0.0,0.0,0.0
