run	sample	platform	file	format	type	num_seqs	sum_len	min_len	avg_len	max_len	Q1	Q2	Q3	sum_gap	N50	Q20(%)	Q30(%)
180712_BRC_Resp_TH_4	SA1058	Illumina	r1.fq	FASTQ	DNA	98760	16770497	5	169.8	301	62.0	145.0	301.0	0	301	78.19	65.21
180712_BRC_Resp_TH_4	SA1058	Illumina	r2.fq	FASTQ	DNA	98760	17952421	5	181.8	301	66.0	174.0	301.0	0	301	65.10	49.11
