run	sample	platform	file	format	type	num_seqs	sum_len	min_len	avg_len	max_len	Q1	Q2	Q3	sum_gap	N50	Q20(%)	Q30(%)
180712_BRC_Resp_TH_4	SA279_R	Illumina	r1.fq	FASTQ	DNA	95227	19499369	6	204.8	301	117.0	223.0	301.0	0	301	90.78	81.97
180712_BRC_Resp_TH_4	SA279_R	Illumina	r2.fq	FASTQ	DNA	95227	19936706	5	209.4	301	122.0	235.0	301.0	0	301	80.84	67.80
