PID,sample name,Platform,Total human reads removed,human reads,bacterial reads,Total reads
1052,SA1052_DC_Q,ONT,565771,565771,3098,571130
279,AID279,ONT,558148,558148,24263,593381
294,AID294,ONT,244760,244760,199817,505282
187,SA187_Q,ONT,570401,570401,48291,634529
5,AID05,ONT,612863,612863,17321,639749
1055,ATP1055,ONT,505721,505721,866,508946
0,Unspiked(2),ONT,675441,675441,19485,702519
0,10^8 spike,ONT,384714,384714,454749,847827
negative control,Neg_cntrl,ONT,692,692,1640,2665
0,10^6 spike,ONT,912563,912563,37011,961052
0,10^4 spike,ONT,964736,964736,26362,1002483
0,Unspiked(1),ONT,905245,905245,29086,945620
295,AID295,ONT,460654,460654,3517,466239
1060,SA1060,ONT,719108,719108,1285,722972
1058,SA1058,ONT,1121423,1121423,1828,1127756
306,SA306,ONT,301029,301029,75556,418374
315,SA315,ONT,775999,775999,13180,794942
1041,ATP1041,ONT,754483,754483,5600,763706
288,SA288_DC,ONT,270077,270077,1717,293649
133,SA133_DC,ONT,175430,175430,4569,203397
275,SA275,ONT,131572,131572,802,154880
1054,SA1054,ONT,287861,287861,85976,409798
278,AID278_DC_Q,ONT,325275,325275,24514,384500
29,SA29_DC,ONT,219692,219692,1408,243830
214,SA214_Q,ONT,84351,84351,211,91009
healthy control,HC149_Q,ONT,530409,530409,513,550933
297,AID297,ONT,405968,405968,6718,434765
235,SA235_Q,ONT,692996,692996,2644,730586
1053,SA1053,ONT,602466,602466,449,624443
1049,ATP1049,ONT,535233,535233,2822,556950
187,AID187_Q_NNM,Illumina,965762,992167,87327,1313192
214,AID214_Q_NNM,Illumina,611176,628135,5902,664226
235,AID235_Q_NNM,Illumina,1104912,1133035,20699,1229648
healthy control,AID149_Q_NNM,Illumina,1713540,1755483,8222,1832376
278,AID278_DC_Q,Illumina,930342,954430,77770,1146054
1052,AID1052_DC_Q,Illumina,1196176,1227120,22563,1321592
278,AID278_Q,Illumina,1052784,1083850,28472,1184632
1052,AID1052_Q,Illumina,1229211,1258999,8554,1325723
278,AID278_Q_NNM,Illumina,740682,761397,89351,976136
1052,AID1052_Q_NNM,Illumina,1001948,1026363,24929,1122678
1055,SA1055_DC,Illumina,2168543,2233768,4355,2346527
5,SA05_DC,Illumina,1785218,1842515,36544,2045646
288,SA288_DC,Illumina,2239485,2297708,15580,2413699
279,SA279_DC,Illumina,2372694,2449680,146603,3069216
294,SA294_DC,Illumina,1100301,1136216,794528,3538169
29,SA29_DC,Illumina,1392660,1432499,11578,1517624
1049,SA1049_DC,Illumina,2381151,2449013,34815,2628987
295,SA295_DC,Illumina,1288229,1325695,11001,1414443
297,SA297_DC,Illumina,1524830,1571908,243141,2165284
1041,SA1041_DC,Illumina,1732343,1784772,16381,1906723
133,SA133_DC,Illumina,1679688,1729454,508153,2857786
negative control,Neg_Cntrl_4,Illumina,92638,93860,1100,168610
1054,SA1054,Illumina,1121786,1153266,1266249,3740808
275,SA275,Illumina,1784594,1840572,168844,2269798
1053,SA1053,Illumina,2518455,2586485,6826,2679867
1060,SA1060,Illumina,2727351,2783429,10703,2877157
1058,SA1058,Illumina,3159443,3239906,10316,3356963
315,SA315,Illumina,2111578,2162846,108781,2506914
306,SA306,Illumina,1903915,1961227,469041,3590981
