 64.61	4318	4318	U	0	unclassified
 35.39	2365	9	-	1	root
 35.24	2355	0	-	131567	  cellular organisms
 18.70	1250	0	D	2759	    Eukaryota
 18.70	1250	0	-	33154	      Opisthokonta
 18.29	1222	0	K	33208	        Metazoa
 18.29	1222	0	-	6072	          Eumetazoa
 18.29	1222	0	-	33213	            Bilateria
 18.29	1222	0	-	33511	              Deuterostomia
 18.29	1222	0	P	7711	                Chordata
 18.29	1222	0	-	89593	                  Craniata
 18.29	1222	0	-	7742	                    Vertebrata
 18.29	1222	0	-	7776	                      Gnathostomata
 18.29	1222	0	-	117570	                        Teleostomi
 18.29	1222	0	-	117571	                          Euteleostomi
 18.29	1222	0	-	8287	                            Sarcopterygii
 18.29	1222	0	-	1338369	                              Dipnotetrapodomorpha
 18.29	1222	0	-	32523	                                Tetrapoda
 18.29	1222	0	-	32524	                                  Amniota
 18.29	1222	0	C	40674	                                    Mammalia
 18.29	1222	0	-	32525	                                      Theria
 18.29	1222	0	-	9347	                                        Eutheria
 18.29	1222	0	-	1437010	                                          Boreoeutheria
 18.29	1222	0	-	314146	                                            Euarchontoglires
 18.29	1222	0	O	9443	                                              Primates
 18.29	1222	0	-	376913	                                                Haplorrhini
 18.29	1222	0	-	314293	                                                  Simiiformes
 18.29	1222	0	-	9526	                                                    Catarrhini
 18.29	1222	0	-	314295	                                                      Hominoidea
 18.29	1222	0	F	9604	                                                        Hominidae
 18.29	1222	0	-	207598	                                                          Homininae
 18.29	1222	0	G	9605	                                                            Homo
 18.29	1222	1222	S	9606	                                                              Homo sapiens
  0.42	28	0	K	4751	        Fungi
  0.42	28	0	-	451864	          Dikarya
  0.28	19	0	P	5204	            Basidiomycota
  0.28	19	0	-	452284	              Ustilaginomycotina
  0.28	19	0	C	1538075	                Malasseziomycetes
  0.28	19	0	O	162474	                  Malasseziales
  0.28	19	0	F	742845	                    Malasseziaceae
  0.28	19	0	G	55193	                      Malassezia
  0.28	19	19	S	76775	                        Malassezia restricta
  0.13	9	0	P	4890	            Ascomycota
  0.12	8	0	-	716545	              saccharomyceta
  0.09	6	0	-	147538	                Pezizomycotina
  0.09	6	0	-	716546	                  leotiomyceta
  0.07	5	0	-	715989	                    sordariomyceta
  0.06	4	0	C	147550	                      Sordariomycetes
  0.04	3	0	-	222543	                        Hypocreomycetidae
  0.04	3	0	O	5125	                          Hypocreales
  0.03	2	0	F	110618	                            Nectriaceae
  0.03	2	0	G	5506	                              Fusarium
  0.03	2	0	S	569360	                                Fusarium sambucinum species complex
  0.01	1	0	S	5518	                                  Fusarium graminearum
  0.01	1	1	-	229533	                                    Fusarium graminearum PH-1
  0.01	1	0	S	101028	                                  Fusarium pseudograminearum
  0.01	1	1	-	1028729	                                    Fusarium pseudograminearum CS3096
  0.01	1	0	F	34397	                            Clavicipitaceae
  0.01	1	0	G	243023	                              Pochonia
  0.01	1	0	S	280754	                                Pochonia chlamydosporia
  0.01	1	1	-	1380566	                                  Pochonia chlamydosporia 170
  0.01	1	0	-	222544	                        Sordariomycetidae
  0.01	1	0	O	5139	                          Sordariales
  0.01	1	0	F	35718	                            Chaetomiaceae
  0.01	1	0	G	1920207	                              Thermothelomyces
  0.01	1	0	S	78579	                                Thermothelomyces thermophilus
  0.01	1	1	-	573729	                                  Thermothelomyces thermophilus ATCC 42464
  0.01	1	0	C	147548	                      Leotiomycetes
  0.01	1	0	O	5178	                        Helotiales
  0.01	1	0	F	28983	                          Sclerotiniaceae
  0.01	1	0	G	33196	                            Botrytis
  0.01	1	0	S	40559	                              Botrytis cinerea
  0.01	1	1	-	332648	                                Botrytis cinerea B05.10
  0.01	1	0	-	715962	                    dothideomyceta
  0.01	1	0	C	147541	                      Dothideomycetes
  0.01	1	0	-	451867	                        Dothideomycetidae
  0.01	1	0	O	134362	                          Capnodiales
  0.01	1	0	F	93133	                            Mycosphaerellaceae
  0.01	1	0	G	1047167	                              Zymoseptoria
  0.01	1	0	S	1047171	                                Zymoseptoria tritici
  0.01	1	1	-	336722	                                  Zymoseptoria tritici IPO323
  0.03	2	0	-	147537	                Saccharomycotina
  0.03	2	0	C	4891	                  Saccharomycetes
  0.03	2	0	O	4892	                    Saccharomycetales
  0.03	2	0	F	4893	                      Saccharomycetaceae
  0.01	1	0	G	4910	                        Kluyveromyces
  0.01	1	0	S	4911	                          Kluyveromyces marxianus
  0.01	1	1	-	1003335	                            Kluyveromyces marxianus DMKU3-1042
  0.01	1	0	G	4930	                        Saccharomyces
  0.01	1	1	S	1080349	                          Saccharomyces eubayanus
  0.01	1	0	-	451866	              Taphrinomycotina
  0.01	1	0	C	147554	                Schizosaccharomycetes
  0.01	1	0	O	34346	                  Schizosaccharomycetales
  0.01	1	0	F	4894	                    Schizosaccharomycetaceae
  0.01	1	0	G	4895	                      Schizosaccharomyces
  0.01	1	1	S	4896	                        Schizosaccharomyces pombe
 16.46	1100	19	D	2	    Bacteria
  9.29	621	0	-	1783272	      Terrabacteria group
  5.63	376	0	P	201174	        Actinobacteria
  5.48	366	5	C	1760	          Actinobacteria
  2.57	172	0	O	85009	            Propionibacteriales
  2.38	159	1	F	31957	              Propionibacteriaceae
  2.33	156	2	G	1912216	                Cutibacterium
  2.26	151	150	S	1747	                  Cutibacterium acnes
  0.01	1	0	-	1905725	                    Cutibacterium acnes subsp. defendens
  0.01	1	1	-	1091045	                      Cutibacterium acnes subsp. defendens ATCC 11828
  0.03	2	2	S	33011	                  Cutibacterium granulosum
  0.01	1	1	S	33010	                  Cutibacterium avidum
  0.01	1	0	G	1743	                Propionibacterium
  0.01	1	1	S	1744	                  Propionibacterium freudenreichii
  0.01	1	0	G	72763	                Tessaracoccus
  0.01	1	1	S	1332264	                  Tessaracoccus aquimaris
  0.19	13	0	F	85015	              Nocardioidaceae
  0.12	8	0	G	1839	                Nocardioides
  0.03	2	2	S	2483798	                  Nocardioides sp. 603
  0.01	1	1	S	402297	                  Nocardioides daphniae
  0.01	1	1	S	449461	                  Nocardioides humi
  0.01	1	0	S	450734	                  Nocardioides dokdonensis
  0.01	1	1	-	1300347	                    Nocardioides dokdonensis FR1436
  0.01	1	1	S	2045452	                  Nocardioides sp. 78
  0.01	1	1	S	2500546	                  Nocardioides sp. HY056
  0.01	1	1	S	2589074	                  Nocardioides sp. KUDC 5002
  0.06	4	0	G	2040	                Aeromicrobium
  0.03	2	2	S	2041	                  Aeromicrobium erythreum
  0.03	2	2	S	2079793	                  Aeromicrobium sp. 592
  0.01	1	0	G	182639	                Kribbella
  0.01	1	0	S	182640	                  Kribbella flavida
  0.01	1	1	-	479435	                    Kribbella flavida DSM 17836
  0.96	64	4	O	85006	            Micrococcales
  0.40	27	0	F	1268	              Micrococcaceae
  0.13	9	3	G	1269	                Micrococcus
  0.09	6	6	S	1270	                  Micrococcus luteus
  0.12	8	1	G	57493	                Kocuria
  0.07	5	5	S	71999	                  Kocuria palustris
  0.01	1	1	S	1275	                  Kocuria rosea
  0.01	1	1	S	1702043	                  Kocuria sp. BT304
  0.09	6	0	G	32207	                Rothia
  0.07	5	4	S	2047	                  Rothia dentocariosa
  0.01	1	1	-	762948	                    Rothia dentocariosa ATCC 17931
  0.01	1	1	S	43675	                  Rothia mucilaginosa
  0.03	2	0	G	1663	                Arthrobacter
  0.01	1	1	S	37928	                  Arthrobacter crystallopoietes
  0.01	1	1	S	2575374	                  Arthrobacter sp. 24S4-2
  0.01	1	0	G	596707	                Sinomonas
  0.01	1	1	S	37927	                  Sinomonas atrocyanea
  0.01	1	0	G	1742993	                Pseudarthrobacter
  0.01	1	0	S	85085	                  Pseudarthrobacter chlorophenolicus
  0.01	1	1	-	452863	                    Pseudarthrobacter chlorophenolicus A6
  0.36	24	1	F	85023	              Microbacteriaceae
  0.18	12	1	G	33882	                Microbacterium
  0.01	1	0	S	2033	                  Microbacterium testaceum
  0.01	1	1	-	979556	                    Microbacterium testaceum StLB037
  0.01	1	1	S	36805	                  Microbacterium aurum
  0.01	1	1	S	84292	                  Microbacterium chocolatum
  0.01	1	1	S	104336	                  Microbacterium foliorum
  0.01	1	1	S	162426	                  Microbacterium hominis
  0.01	1	1	S	367477	                  Microbacterium sp. XT11
  0.01	1	1	S	1714373	                  Microbacterium sp. No. 7
  0.01	1	1	S	1938334	                  Microbacterium sp. TPU 3598
  0.01	1	1	S	2070348	                  Microbacterium sp. SGAir0570
  0.01	1	1	S	2268461	                  Microbacterium sp. ABRD_28
  0.01	1	1	S	2509458	                  Microbacterium sp. DFW100M-13
  0.03	2	0	G	1573	                Clavibacter
  0.03	2	0	S	28447	                  Clavibacter michiganensis
  0.01	1	0	-	31963	                    Clavibacter michiganensis subsp. nebraskensis
  0.01	1	1	-	1097677	                      Clavibacter michiganensis subsp. nebraskensis NCPPB 2581
  0.01	1	1	-	1874630	                    Clavibacter michiganensis subsp. capsici
  0.03	2	0	G	33877	                Agromyces
  0.01	1	1	S	2498704	                  Agromyces sp. LHK192
  0.01	1	1	S	2509455	                  Agromyces sp. FW100M-8
  0.03	2	0	G	110932	                Leifsonia
  0.03	2	2	S	1575	                  Leifsonia xyli
  0.03	2	0	G	1434018	                Lysinimonas
  0.03	2	2	S	2419774	                  Lysinimonas sp. 2DFWR-13
  0.01	1	0	G	2034	                Curtobacterium
  0.01	1	1	S	1905847	                  Curtobacterium sp. BH-2-1-1
  0.01	1	1	G	33886	                Rathayibacter
  0.01	1	0	G	518733	                Microterricola
  0.01	1	1	S	412690	                  Microterricola viridarii
  0.03	2	0	F	85016	              Cellulomonadaceae
  0.01	1	0	G	1707	                Cellulomonas
  0.01	1	1	S	2566013	                  Cellulomonas sp. Z28
  0.01	1	0	G	162491	                Oerskovia
  0.01	1	1	S	1179673	                  Oerskovia sp. KBS0722
  0.03	2	0	F	85019	              Brevibacteriaceae
  0.03	2	0	G	1696	                Brevibacterium
  0.03	2	2	S	273384	                  Brevibacterium aurantiacum
  0.03	2	0	F	145357	              Dermacoccaceae
  0.03	2	0	G	57499	                Kytococcus
  0.03	2	0	S	1276	                  Kytococcus sedentarius
  0.03	2	2	-	478801	                    Kytococcus sedentarius DSM 20547
  0.03	2	0	F	145358	              Bogoriellaceae
  0.03	2	0	G	154116	                Georgenia
  0.01	1	1	S	2585135	                  Georgenia sp. Z294
  0.01	1	1	S	2589797	                  Georgenia sp. Z443
  0.01	1	0	F	85021	              Intrasporangiaceae
  0.01	1	0	G	265976	                Serinicoccus
  0.01	1	1	S	767452	                  Serinicoccus chungangensis
  0.91	61	1	O	85007	            Corynebacteriales
  0.33	22	0	F	85026	              Gordoniaceae
  0.33	22	0	G	2053	                Gordonia
  0.31	21	0	S	2054	                  Gordonia bronchialis
  0.31	21	21	-	526226	                    Gordonia bronchialis DSM 43247
  0.01	1	1	S	36822	                  Gordonia rubripertincta
  0.31	21	0	F	1653	              Corynebacteriaceae
  0.31	21	4	G	1716	                Corynebacterium
  0.07	5	5	S	43990	                  Corynebacterium segmentosum
  0.04	3	3	S	401472	                  Corynebacterium ureicelerivorans
  0.03	2	2	S	43770	                  Corynebacterium striatum
  0.03	2	0	S	169292	                  Corynebacterium aurimucosum
  0.03	2	2	-	548476	                    Corynebacterium aurimucosum ATCC 700975
  0.01	1	1	S	43768	                  Corynebacterium matruchotii
  0.01	1	1	S	161899	                  Corynebacterium singulare
  0.01	1	1	S	570374	                  Corynebacterium sp. 3010
  0.01	1	1	S	1487956	                  Corynebacterium sp. ATCC 6931
  0.01	1	1	S	2079535	                  Corynebacterium sp. 2184
  0.15	10	0	F	85025	              Nocardiaceae
  0.10	7	6	G	1827	                Rhodococcus
  0.01	1	1	S	2499145	                  Rhodococcus sp. X156
  0.04	3	0	G	1817	                Nocardia
  0.03	2	1	S	37329	                  Nocardia farcinica
  0.01	1	1	-	247156	                    Nocardia farcinica IFM 10152
  0.01	1	1	S	37332	                  Nocardia seriolae
  0.09	6	0	F	1762	              Mycobacteriaceae
  0.04	3	2	G	1763	                Mycobacterium
  0.01	1	1	S	212767	                  Mycobacterium sp. JS623
  0.03	2	0	G	1866885	                Mycolicibacterium
  0.01	1	1	S	1795	                  Mycolicibacterium neoaurum
  0.01	1	0	S	1810	                  Mycolicibacterium vaccae
  0.01	1	1	-	1354275	                    Mycolicibacterium vaccae 95051
  0.01	1	0	G	670516	                Mycobacteroides
  0.01	1	1	S	1578165	                  Mycobacteroides saopaulense
  0.01	1	0	F	85029	              Dietziaceae
  0.01	1	0	G	37914	                Dietzia
  0.01	1	1	S	712270	                  Dietzia sp. oral taxon 368
  0.42	28	0	O	85011	            Streptomycetales
  0.42	28	0	F	2062	              Streptomycetaceae
  0.37	25	5	G	1883	                Streptomyces
  0.03	2	2	S	29303	                  Streptomyces cattleya
  0.03	2	2	S	67304	                  Streptomyces griseorubiginosus
  0.01	1	1	S	1893	                  Streptomyces atratus
  0.01	1	0	S	1914	                  Streptomyces lavendulae
  0.01	1	1	-	58340	                    Streptomyces lavendulae subsp. lavendulae
  0.01	1	1	S	38300	                  Streptomyces pristinaespiralis
  0.01	1	1	S	54571	                  Streptomyces venezuelae
  0.01	1	1	S	68203	                  Streptomyces fungicidicus
  0.01	1	0	S	68570	                  Streptomyces albulus
  0.01	1	1	-	1434306	                    Streptomyces albulus ZPM
  0.01	1	1	S	1616117	                  Streptomyces formicae
  0.01	1	1	S	1661694	                  Streptomyces sp. Tue 6075
  0.01	1	1	S	1690221	                  Streptomyces spongiicola
  0.01	1	1	S	1812480	                  Streptomyces sp. fd1-xmd
  0.01	1	1	S	1841249	                  Streptomyces sp. RTd22
  0.01	1	1	S	1849967	                  Streptomyces sp. SAT1
  0.01	1	1	S	2083284	                  Streptomyces sp. CB09001
  0.01	1	1	S	2135430	                  Streptomyces sp. P3
  0.01	1	1	S	2202000	                  Streptomyces sp. NEAU-S7GS2
  0.01	1	1	S	2203205	                  Streptomyces sp. WAC 01529
  0.04	3	0	G	2063	                Kitasatospora
  0.03	2	2	S	2018025	                  Kitasatospora sp. MMS16-BH015
  0.01	1	0	S	2066	                  Kitasatospora setae
  0.01	1	1	-	452652	                    Kitasatospora setae KM-6054
  0.13	9	0	O	85010	            Pseudonocardiales
  0.13	9	2	F	2070	              Pseudonocardiaceae
  0.07	5	1	G	1847	                Pseudonocardia
  0.03	2	2	S	1690815	                  Pseudonocardia sp. HH130630-07
  0.01	1	1	S	2074	                  Pseudonocardia autotrophica
  0.01	1	1	S	1641402	                  Pseudonocardia sp. HH130629-09
  0.03	2	0	G	1813	                Amycolatopsis
  0.01	1	0	S	1814	                  Amycolatopsis methanolica
  0.01	1	1	-	1068978	                    Amycolatopsis methanolica 239
  0.01	1	1	S	1896961	                  Amycolatopsis sp. AA4
  0.12	8	0	O	85008	            Micromonosporales
  0.12	8	0	F	28056	              Micromonosporaceae
  0.07	5	1	G	1873	                Micromonospora
  0.03	2	2	S	47850	                  Micromonospora aurantiaca
  0.01	1	1	S	479978	                  Micromonospora tulbaghiae
  0.01	1	1	S	2201999	                  Micromonospora sp. B006
  0.03	2	1	G	1865	                Actinoplanes
  0.01	1	0	S	196914	                  Actinoplanes friuliensis
  0.01	1	1	-	1246995	                    Actinoplanes friuliensis DSM 7358
  0.01	1	0	G	673534	                Plantactinospora
  0.01	1	1	S	2071627	                  Plantactinospora sp. BB1
  0.07	5	0	O	2037	            Actinomycetales
  0.07	5	0	F	2049	              Actinomycetaceae
  0.06	4	1	G	1654	                Actinomyces
  0.01	1	0	S	706438	                  Actinomyces sp. oral taxon 171
  0.01	1	1	-	706439	                    Actinomyces sp. oral taxon 171 str. F0337
  0.01	1	1	S	712122	                  Actinomyces sp. oral taxon 414
  0.01	1	1	S	2081702	                  Actinomyces sp. oral taxon 897
  0.01	1	0	G	2529408	                Schaalia
  0.01	1	1	S	1660	                  Schaalia odontolytica
  0.06	4	0	O	85012	            Streptosporangiales
  0.03	2	0	F	2004	              Streptosporangiaceae
  0.03	2	0	G	83681	                Nonomuraea
  0.03	2	2	S	1909395	                  Nonomuraea sp. ATCC 55076
  0.01	1	0	F	2012	              Thermomonosporaceae
  0.01	1	0	G	1988	                Actinomadura
  0.01	1	1	S	1411117	                  Actinomadura amylolytica
  0.01	1	0	F	83676	              Nocardiopsaceae
  0.01	1	0	G	104204	                Streptomonospora
  0.01	1	1	S	2498135	                  Streptomonospora sp. M2
  0.04	3	0	O	85004	            Bifidobacteriales
  0.04	3	0	F	31953	              Bifidobacteriaceae
  0.03	2	0	G	196082	                Parascardovia
  0.03	2	0	S	78258	                  Parascardovia denticolens
  0.03	2	2	-	864564	                    Parascardovia denticolens DSM 10105 = JCM 12538
  0.01	1	0	G	1678	                Bifidobacterium
  0.01	1	1	S	216816	                  Bifidobacterium longum
  0.03	2	0	O	85013	            Frankiales
  0.03	2	0	F	74712	              Frankiaceae
  0.03	2	0	G	1854	                Frankia
  0.03	2	2	S	298653	                  Frankia sp. EAN1pec
  0.03	2	0	O	1643682	            Geodermatophilales
  0.03	2	0	F	85030	              Geodermatophilaceae
  0.01	1	0	G	1860	                Geodermatophilus
  0.01	1	0	S	1861	                  Geodermatophilus obscurus
  0.01	1	1	-	526225	                    Geodermatophilus obscurus DSM 43160
  0.01	1	0	G	38501	                Blastococcus
  0.01	1	0	S	138336	                  Blastococcus saxobsidens
  0.01	1	1	-	1146883	                    Blastococcus saxobsidens DD2
  0.01	1	0	O	414714	            Catenulisporales
  0.01	1	0	F	414877	              Catenulisporaceae
  0.01	1	0	G	414878	                Catenulispora
  0.01	1	0	S	304895	                  Catenulispora acidiphila
  0.01	1	1	-	479433	                    Catenulispora acidiphila DSM 44928
  0.01	1	0	O	622450	            Actinopolysporales
  0.01	1	0	F	622451	              Actinopolysporaceae
  0.01	1	0	G	1849	                Actinopolyspora
  0.01	1	1	S	414996	                  Actinopolyspora erythraea
  0.01	1	0	O	1643684	            Nakamurellales
  0.01	1	0	F	85031	              Nakamurellaceae
  0.01	1	0	G	53460	                Nakamurella
  0.01	1	0	S	53461	                  Nakamurella multipartita
  0.01	1	1	-	479431	                    Nakamurella multipartita DSM 44233
  0.06	4	0	C	84998	          Coriobacteriia
  0.04	3	0	O	84999	            Coriobacteriales
  0.03	2	0	F	1643824	              Atopobiaceae
  0.03	2	0	G	133925	                Olsenella
  0.01	1	1	S	712411	                  Olsenella sp. oral taxon 807
  0.01	1	1	S	2109685	                  Olsenella sp. GAM18
  0.01	1	0	F	84107	              Coriobacteriaceae
  0.01	1	0	G	102106	                Collinsella
  0.01	1	1	S	74426	                  Collinsella aerofaciens
  0.01	1	0	O	1643822	            Eggerthellales
  0.01	1	0	F	1643826	              Eggerthellaceae
  0.01	1	0	G	84111	                Eggerthella
  0.01	1	0	S	84112	                  Eggerthella lenta
  0.01	1	1	-	479437	                    Eggerthella lenta DSM 2243
  0.04	3	0	C	908620	          Nitriliruptoria
  0.03	2	0	O	1747768	            Egibacterales
  0.03	2	0	F	1747769	              Egibacteraceae
  0.03	2	0	G	1747770	                Egibacter
  0.03	2	2	S	1670831	                  Egibacter rhizosphaerae
  0.01	1	0	O	1755823	            Egicoccales
  0.01	1	0	F	1755824	              Egicoccaceae
  0.01	1	0	G	1755825	                Egicoccus
  0.01	1	1	S	1670830	                  Egicoccus halophilus
  0.04	3	0	C	1497346	          Thermoleophilia
  0.04	3	0	O	588673	            Solirubrobacterales
  0.04	3	0	F	320583	              Conexibacteraceae
  0.04	3	0	G	191494	                Conexibacter
  0.04	3	0	S	191495	                  Conexibacter woesei
  0.04	3	3	-	469383	                    Conexibacter woesei DSM 14684
  3.44	230	1	P	1239	        Firmicutes
  3.16	211	1	C	91061	          Bacilli
  2.77	185	0	O	186826	            Lactobacillales
  2.65	177	0	F	1300	              Streptococcaceae
  2.65	177	15	G	1301	                Streptococcus
  2.02	135	134	S	1313	                  Streptococcus pneumoniae
  0.01	1	1	-	488222	                    Streptococcus pneumoniae JJA
  0.16	11	7	S	28037	                  Streptococcus mitis
  0.04	3	3	-	246201	                    Streptococcus mitis NCTC 12261
  0.01	1	1	-	365659	                    Streptococcus mitis B6
  0.06	4	2	S	1303	                  Streptococcus oralis
  0.01	1	1	-	927666	                    Streptococcus oralis Uo5
  0.01	1	1	-	1458253	                    Streptococcus oralis subsp. dentisani
  0.04	3	0	S	1318	                  Streptococcus parasanguinis
  0.03	2	2	-	760570	                    Streptococcus parasanguinis ATCC 15912
  0.01	1	1	-	1114965	                    Streptococcus parasanguinis FW213
  0.03	2	2	S	1902136	                  Streptococcus sp. NPS 308
  0.01	1	1	S	1305	                  Streptococcus sanguinis
  0.01	1	0	S	1307	                  Streptococcus suis
  0.01	1	1	-	423211	                    Streptococcus suis GZ1
  0.01	1	1	S	1308	                  Streptococcus thermophilus
  0.01	1	0	S	45634	                  Streptococcus cristatus
  0.01	1	1	-	889201	                    Streptococcus cristatus ATCC 51100
  0.01	1	1	S	78535	                  Streptococcus viridans
  0.01	1	1	S	113107	                  Streptococcus australis
  0.01	1	0	S	257758	                  Streptococcus pseudopneumoniae
  0.01	1	1	-	1054460	                    Streptococcus pseudopneumoniae IS7493
  0.06	4	0	F	33958	              Lactobacillaceae
  0.03	2	0	G	1253	                Pediococcus
  0.01	1	1	S	51663	                  Pediococcus damnosus
  0.01	1	0	S	1670797	                  Pediococcus acidilactici group
  0.01	1	1	S	1254	                    Pediococcus acidilactici
  0.03	2	0	G	1578	                Lactobacillus
  0.01	1	1	S	28038	                  Lactobacillus curvatus
  0.01	1	1	S	33959	                  Lactobacillus johnsonii
  0.03	2	0	F	81850	              Leuconostocaceae
  0.01	1	0	G	46254	                Oenococcus
  0.01	1	1	S	1247	                  Oenococcus oeni
  0.01	1	0	G	46255	                Weissella
  0.01	1	1	S	759620	                  Weissella ceti
  0.01	1	0	F	81852	              Enterococcaceae
  0.01	1	0	G	1350	                Enterococcus
  0.01	1	1	S	44008	                  Enterococcus cecorum
  0.01	1	0	F	186827	              Aerococcaceae
  0.01	1	0	G	1375	                Aerococcus
  0.01	1	1	S	51665	                  Aerococcus urinaeequi
  0.37	25	0	O	1385	            Bacillales
  0.19	13	0	F	90964	              Staphylococcaceae
  0.19	13	0	G	1279	                Staphylococcus
  0.12	8	7	S	1290	                  Staphylococcus hominis
  0.01	1	1	-	145391	                    Staphylococcus hominis subsp. hominis
  0.07	5	5	S	1282	                  Staphylococcus epidermidis
  0.13	9	0	F	186817	              Bacillaceae
  0.10	7	6	G	1386	                Bacillus
  0.01	1	0	S	653685	                  Bacillus subtilis group
  0.01	1	0	S	1938374	                    Bacillus amyloliquefaciens group
  0.01	1	1	S	492670	                      Bacillus velezensis
  0.01	1	0	G	129337	                Geobacillus
  0.01	1	1	S	1921421	                  Geobacillus genomosp. 3
  0.01	1	0	G	182709	                Oceanobacillus
  0.01	1	1	S	182710	                  Oceanobacillus iheyensis
  0.01	1	0	F	186818	              Planococcaceae
  0.01	1	0	G	1372	                Planococcus
  0.01	1	1	S	2213202	                  Planococcus sp. Y42
  0.01	1	0	F	186823	              Alicyclobacillaceae
  0.01	1	0	G	29330	                Alicyclobacillus
  0.01	1	0	S	405212	                  Alicyclobacillus acidocaldarius
  0.01	1	0	-	1388	                    Alicyclobacillus acidocaldarius subsp. acidocaldarius
  0.01	1	1	-	521098	                      Alicyclobacillus acidocaldarius subsp. acidocaldarius DSM 446
  0.01	1	0	-	539002	              Bacillales incertae sedis
  0.01	1	0	-	539738	                Bacillales Family XI. Incertae Sedis
  0.01	1	0	G	1378	                  Gemella
  0.01	1	1	S	1379	                    Gemella haemolysans
  0.16	11	0	C	186801	          Clostridia
  0.16	11	0	O	186802	            Clostridiales
  0.04	3	0	F	541000	              Ruminococcaceae
  0.01	1	0	G	216851	                Faecalibacterium
  0.01	1	1	S	853	                  Faecalibacterium prausnitzii
  0.01	1	0	G	253238	                Ethanoligenens
  0.01	1	1	S	253239	                  Ethanoligenens harbinense
  0.01	1	0	G	946234	                Flavonifractor
  0.01	1	1	S	292800	                  Flavonifractor plautii
  0.03	2	0	F	186803	              Lachnospiraceae
  0.01	1	0	-	186928	                unclassified Lachnospiraceae
  0.01	1	1	S	2109690	                  Lachnospiraceae bacterium Choco86
  0.01	1	0	G	207244	                Anaerostipes
  0.01	1	1	S	649756	                  Anaerostipes hadrus
  0.03	2	0	F	186807	              Peptococcaceae
  0.03	2	0	G	1562	                Desulfotomaculum
  0.01	1	0	S	1565	                  Desulfotomaculum nigrificans
  0.01	1	1	-	868595	                    Desulfotomaculum nigrificans CO-1-SRB
  0.01	1	1	S	1833852	                  Desulfotomaculum ferrireducens
  0.01	1	0	F	31979	              Clostridiaceae
  0.01	1	0	G	1485	                Clostridium
  0.01	1	1	S	1216932	                  Clostridium bornimense
  0.01	1	0	F	68298	              Syntrophomonadaceae
  0.01	1	0	G	862	                Syntrophomonas
  0.01	1	0	S	863	                  Syntrophomonas wolfei
  0.01	1	0	-	370885	                    Syntrophomonas wolfei subsp. wolfei
  0.01	1	1	-	335541	                      Syntrophomonas wolfei subsp. wolfei str. Goettingen G311
  0.01	1	1	F	216572	              Oscillospiraceae
  0.01	1	0	F	2304686	              Hungateiclostridiaceae
  0.01	1	0	G	2304692	                Hungateiclostridium
  0.01	1	0	S	288965	                  Hungateiclostridium clariflavum
  0.01	1	1	-	720554	                    Hungateiclostridium clariflavum DSM 19732
  0.10	7	0	C	909932	          Negativicutes
  0.09	6	0	O	1843489	            Veillonellales
  0.09	6	0	F	31977	              Veillonellaceae
  0.07	5	0	G	29465	                Veillonella
  0.04	3	3	S	39778	                  Veillonella dispar
  0.03	2	2	S	29466	                  Veillonella parvula
  0.01	1	0	G	906	                Megasphaera
  0.01	1	1	S	907	                  Megasphaera elsdenii
  0.01	1	0	O	909929	            Selenomonadales
  0.01	1	0	F	1843491	              Selenomonadaceae
  0.01	1	0	G	158846	                Megamonas
  0.01	1	1	S	158847	                  Megamonas hypermegale
  0.10	7	0	P	1297	        Deinococcus-Thermus
  0.10	7	0	C	188787	          Deinococci
  0.07	5	0	O	118964	            Deinococcales
  0.07	5	0	F	183710	              Deinococcaceae
  0.07	5	0	G	1298	                Deinococcus
  0.03	2	2	S	980427	                  Deinococcus wulumuqiensis
  0.01	1	1	S	1299	                  Deinococcus radiodurans
  0.01	1	0	S	68909	                  Deinococcus geothermalis
  0.01	1	1	-	319795	                    Deinococcus geothermalis DSM 11300
  0.01	1	0	S	432329	                  Deinococcus peraridilitoris
  0.01	1	1	-	937777	                    Deinococcus peraridilitoris DSM 19664
  0.03	2	0	O	68933	            Thermales
  0.03	2	0	F	188786	              Thermaceae
  0.03	2	0	G	65551	                Meiothermus
  0.01	1	0	S	277	                  Meiothermus ruber
  0.01	1	1	-	504728	                    Meiothermus ruber DSM 1279
  0.01	1	0	S	52022	                  Meiothermus silvanus
  0.01	1	1	-	526227	                    Meiothermus silvanus DSM 9946
  0.04	3	0	P	200795	        Chloroflexi
  0.03	2	0	C	32061	          Chloroflexia
  0.03	2	0	O	32064	            Chloroflexales
  0.03	2	0	-	1508595	              Roseiflexineae
  0.03	2	0	F	1508635	                Roseiflexaceae
  0.03	2	0	G	120961	                  Roseiflexus
  0.03	2	2	S	357808	                    Roseiflexus sp. RS-1
  0.01	1	0	C	1382928	          Ardenticatenia
  0.01	1	0	O	1382929	            Ardenticatenales
  0.01	1	0	F	1382930	              Ardenticatenaceae
  0.01	1	0	G	1988031	                Candidatus Promineofilum
  0.01	1	1	S	1806508	                  Candidatus Promineofilum breve
  0.04	3	0	P	544448	        Tenericutes
  0.04	3	0	C	31969	          Mollicutes
  0.01	1	0	O	2085	            Mycoplasmatales
  0.01	1	0	F	2092	              Mycoplasmataceae
  0.01	1	0	G	2093	                Mycoplasma
  0.01	1	1	S	29553	                  Mycoplasma bovirhinis
  0.01	1	0	O	186328	            Entomoplasmatales
  0.01	1	0	F	2131	              Spiroplasmataceae
  0.01	1	0	G	2132	                Spiroplasma
  0.01	1	0	S	2136	                  Spiroplasma monobiae
  0.01	1	1	-	1336748	                    Spiroplasma monobiae MQ-1
  0.01	1	0	O	186329	            Acholeplasmatales
  0.01	1	0	F	2146	              Acholeplasmataceae
  0.01	1	0	G	33926	                Candidatus Phytoplasma
  0.01	1	0	S	85632	                  16SrXII (Stolbur group)
  0.01	1	1	S	59748	                    Candidatus Phytoplasma australiense
  0.03	2	0	-	1798711	        Cyanobacteria/Melainabacteria group
  0.03	2	0	P	1117	          Cyanobacteria
  0.03	2	0	O	1890424	            Synechococcales
  0.01	1	0	F	1890426	              Synechococcaceae
  0.01	1	0	G	1129	                Synechococcus
  0.01	1	1	S	195253	                  Synechococcus sp. PCC 6312
  0.01	1	0	F	1890438	              Leptolyngbyaceae
  0.01	1	0	G	47251	                Leptolyngbya
  0.01	1	1	S	1752064	                  Leptolyngbya sp. NIES-3755
  6.00	401	14	P	1224	      Proteobacteria
  2.75	184	0	C	1236	        Gammaproteobacteria
  1.14	76	0	O	72274	          Pseudomonadales
  0.57	38	0	F	468	            Moraxellaceae
  0.49	33	5	G	469	              Acinetobacter
  0.19	13	13	S	106649	                Acinetobacter guillouiae
  0.13	9	9	S	40214	                Acinetobacter johnsonii
  0.01	1	1	S	108981	                Acinetobacter schindleri
  0.01	1	1	S	202954	                Acinetobacter tandoii
  0.01	1	1	S	1407071	                Acinetobacter sp. TGL-Y2
  0.01	1	1	S	1608473	                Acinetobacter sp. NCu2D-2
  0.01	1	1	S	1636603	                Acinetobacter sp. ACNIH1
  0.01	1	1	S	2136182	                Acinetobacter cumulans
  0.07	5	0	G	475	              Moraxella
  0.07	5	5	S	34062	                Moraxella osloensis
  0.57	38	0	F	135621	            Pseudomonadaceae
  0.57	38	11	G	286	              Pseudomonas
  0.15	10	0	S	136843	                Pseudomonas fluorescens group
  0.07	5	4	S	294	                  Pseudomonas fluorescens
  0.01	1	1	-	1221522	                    Pseudomonas fluorescens NCIMB 11764
  0.03	2	2	S	47878	                  Pseudomonas azotoformans
  0.01	1	1	S	46679	                  Pseudomonas mucidolens
  0.01	1	1	S	75588	                  Pseudomonas libanensis
  0.01	1	1	S	76761	                  Pseudomonas veronii
  0.04	3	0	S	136842	                Pseudomonas chlororaphis group
  0.03	2	2	S	296	                  Pseudomonas fragi
  0.01	1	0	S	587753	                  Pseudomonas chlororaphis
  0.01	1	1	-	1513890	                    Pseudomonas chlororaphis subsp. piscium
  0.03	2	0	S	136845	                Pseudomonas putida group
  0.03	2	2	S	76759	                  Pseudomonas monteilii
  0.03	2	0	S	136846	                Pseudomonas stutzeri group
  0.03	2	0	S	578833	                  Pseudomonas stutzeri subgroup
  0.03	2	1	S	316	                    Pseudomonas stutzeri
  0.01	1	1	-	1196835	                      Pseudomonas stutzeri CCUG 29243
  0.03	2	0	S	136849	                Pseudomonas syringae group
  0.03	2	0	S	251695	                  Pseudomonas syringae group genomosp. 1
  0.03	2	1	S	317	                    Pseudomonas syringae
  0.01	1	0	-	321	                      Pseudomonas syringae pv. syringae
  0.01	1	1	-	1324931	                        Pseudomonas syringae pv. syringae B301D
  0.01	1	0	S	65741	                Pseudomonas knackmussii
  0.01	1	1	-	1301098	                  Pseudomonas knackmussii B13
  0.01	1	0	S	136841	                Pseudomonas aeruginosa group
  0.01	1	1	S	300	                  Pseudomonas mendocina
  0.01	1	1	S	157783	                Pseudomonas cremoricolorata
  0.01	1	1	S	244566	                Pseudomonas lurida
  0.01	1	1	S	1500687	                Pseudomonas sp. St29
  0.01	1	1	S	1886807	                Pseudomonas sp. TMW 2.1634
  0.01	1	1	S	2018067	                Pseudomonas sp. FDAARGOS_380
  0.01	1	1	S	2083054	                Pseudomonas sp. LG1D9
  0.66	44	0	O	91347	          Enterobacterales
  0.54	36	20	F	543	            Enterobacteriaceae
  0.13	9	2	G	561	              Escherichia
  0.10	7	7	S	562	                Escherichia coli
  0.03	2	0	G	547	              Enterobacter
  0.03	2	0	S	354276	                Enterobacter cloacae complex
  0.03	2	2	S	550	                  Enterobacter cloacae
  0.01	1	1	G	544	              Citrobacter
  0.01	1	0	G	570	              Klebsiella
  0.01	1	1	S	573	                Klebsiella pneumoniae
  0.01	1	0	G	590	              Salmonella
  0.01	1	0	S	54736	                Salmonella bongori
  0.01	1	0	-	59245	                  Salmonella bongori serovar 66:z41:-
  0.01	1	1	-	1243617	                    Salmonella bongori serovar 66:z41:- str. SA19983605
  0.01	1	1	G	83654	              Leclercia
  0.01	1	0	G	1330546	              Pluralibacter
  0.01	1	1	S	61647	                Pluralibacter gergoviae
  0.06	4	0	F	1903411	            Yersiniaceae
  0.06	4	2	G	613	              Serratia
  0.01	1	1	S	61652	                Serratia rubidaea
  0.01	1	1	S	1759437	                Serratia sp. YD25
  0.04	3	0	F	1903409	            Erwiniaceae
  0.03	2	1	G	53335	              Pantoea
  0.01	1	0	S	1654067	                Pantoea agglomerans group
  0.01	1	1	S	549	                  Pantoea agglomerans
  0.01	1	1	G	551	              Erwinia
  0.01	1	0	F	1903410	            Pectobacteriaceae
  0.01	1	1	G	84565	              Sodalis
  0.63	42	0	O	135625	          Pasteurellales
  0.63	42	1	F	712	            Pasteurellaceae
  0.61	41	4	G	724	              Haemophilus
  0.55	37	37	S	727	                Haemophilus influenzae
  0.16	11	0	O	135619	          Oceanospirillales
  0.13	9	0	F	28256	            Halomonadaceae
  0.09	6	2	G	2745	              Halomonas
  0.01	1	0	S	2746	                Halomonas elongata
  0.01	1	1	-	768066	                  Halomonas elongata DSM 2581
  0.01	1	1	S	475662	                Halomonas beimenensis
  0.01	1	1	S	507626	                Halomonas chromatireducens
  0.01	1	1	S	1883416	                Halomonas sp. 1513
  0.03	2	0	G	42054	              Chromohalobacter
  0.03	2	0	S	158080	                Chromohalobacter salexigens
  0.03	2	2	-	290398	                  Chromohalobacter salexigens DSM 3043
  0.01	1	0	G	1897649	              Pistricoccus
  0.01	1	1	S	1883414	                Pistricoccus aurantiacus
  0.01	1	0	F	224372	            Alcanivoracaceae
  0.01	1	0	G	59753	              Alcanivorax
  0.01	1	0	S	1306787	                Alcanivorax pacificus
  0.01	1	1	-	391936	                  Alcanivorax pacificus W11-5
  0.01	1	0	F	1920240	            Kangiellaceae
  0.01	1	0	G	261963	              Kangiella
  0.01	1	0	S	261964	                Kangiella koreensis
  0.01	1	1	-	523791	                  Kangiella koreensis DSM 16069
  0.06	4	0	O	135614	          Xanthomonadales
  0.06	4	0	F	32033	            Xanthomonadaceae
  0.03	2	0	G	338	              Xanthomonas
  0.01	1	1	S	347	                Xanthomonas oryzae
  0.01	1	0	S	643453	                Xanthomonas citri group
  0.01	1	1	S	346	                  Xanthomonas citri
  0.01	1	0	G	40323	              Stenotrophomonas
  0.01	1	1	S	1904944	                Stenotrophomonas sp. LM091
  0.01	1	0	G	83614	              Luteimonas
  0.01	1	1	S	1176533	                Luteimonas sp. Gr-4
  0.03	2	0	O	135622	          Alteromonadales
  0.03	2	0	F	267888	            Pseudoalteromonadaceae
  0.03	2	1	G	53246	              Pseudoalteromonas
  0.01	1	1	S	1761891	                Pseudoalteromonas sp. 13-15
  0.01	1	0	O	72273	          Thiotrichales
  0.01	1	0	F	34064	            Francisellaceae
  0.01	1	0	G	262	              Francisella
  0.01	1	1	S	263	                Francisella tularensis
  0.01	1	0	O	135613	          Chromatiales
  0.01	1	0	F	449719	            Granulosicoccaceae
  0.01	1	0	G	1860077	              Sulfuriflexus
  0.01	1	1	S	1811807	                Sulfuriflexus mobilis
  0.01	1	0	O	135618	          Methylococcales
  0.01	1	0	F	403	            Methylococcaceae
  0.01	1	0	G	73778	              Methylocaldum
  0.01	1	1	S	1432792	                Methylocaldum marinum
  0.01	1	0	O	1692040	          Acidiferrobacterales
  0.01	1	0	F	1692041	            Acidiferrobacteraceae
  0.01	1	0	G	1692042	              Sulfurifustis
  0.01	1	1	S	1675686	                Sulfurifustis variabilis
  0.01	1	0	O	1775403	          Nevskiales
  0.01	1	0	F	568386	            Sinobacteraceae
  0.01	1	0	G	469322	              Steroidobacter
  0.01	1	1	S	465721	                Steroidobacter denitrificans
  1.63	109	2	C	28211	        Alphaproteobacteria
  0.70	47	2	O	356	          Rhizobiales
  0.28	19	0	F	41294	            Bradyrhizobiaceae
  0.13	9	2	G	374	              Bradyrhizobium
  0.01	1	1	S	376	                Bradyrhizobium sp.
  0.01	1	0	S	44255	                Bradyrhizobium oligotrophicum
  0.01	1	1	-	1245469	                  Bradyrhizobium oligotrophicum S58
  0.01	1	1	S	114615	                Bradyrhizobium sp. ORS 278
  0.01	1	1	S	115808	                Bradyrhizobium sp. ORS 285
  0.01	1	1	S	167468	                Bradyrhizobium sp. ORS 3257
  0.01	1	1	S	1274631	                Bradyrhizobium icense
  0.01	1	1	S	1325095	                Bradyrhizobium guangzhouense
  0.09	6	0	G	1073	              Rhodopseudomonas
  0.09	6	2	S	1076	                Rhodopseudomonas palustris
  0.03	2	2	-	316055	                  Rhodopseudomonas palustris BisA53
  0.01	1	1	-	316057	                  Rhodopseudomonas palustris BisB5
  0.01	1	1	-	316058	                  Rhodopseudomonas palustris HaA2
  0.04	3	0	G	85413	              Bosea
  0.01	1	1	S	1526658	                Bosea vaviloviae
  0.01	1	1	S	1792307	                Bosea sp. PAMC 26642
  0.01	1	1	S	2015316	                Bosea sp. AS-1
  0.01	1	0	G	911	              Nitrobacter
  0.01	1	0	S	912	                Nitrobacter hamburgensis
  0.01	1	1	-	323097	                  Nitrobacter hamburgensis X14
  0.18	12	0	F	82115	            Rhizobiaceae
  0.18	12	0	-	227290	              Rhizobium/Agrobacterium group
  0.13	9	1	G	357	                Agrobacterium
  0.10	7	0	S	1183400	                  Agrobacterium tumefaciens complex
  0.10	7	7	S	358	                    Agrobacterium tumefaciens
  0.01	1	1	S	2580515	                  Agrobacterium sp. T29
  0.03	2	1	G	379	                Rhizobium
  0.01	1	1	S	29449	                  Rhizobium etli
  0.01	1	0	G	1525371	                Neorhizobium
  0.01	1	0	S	399	                  Neorhizobium galegae
  0.01	1	0	-	323656	                    Neorhizobium galegae bv. officinalis
  0.01	1	1	-	1028801	                      Neorhizobium galegae bv. officinalis bv. officinalis str. HAMBI 1141
  0.06	4	0	F	119045	            Methylobacteriaceae
  0.03	2	0	G	407	              Methylobacterium
  0.01	1	1	S	426117	                Methylobacterium sp. 4-46
  0.01	1	1	S	2202828	                Methylobacterium sp. 17Sr1-43
  0.03	2	1	G	2282523	              Methylorubrum
  0.01	1	0	S	408	                Methylorubrum extorquens
  0.01	1	1	-	272630	                  Methylorubrum extorquens AM1
  0.04	3	0	F	45401	            Hyphomicrobiaceae
  0.01	1	0	G	81	              Hyphomicrobium
  0.01	1	0	S	53399	                Hyphomicrobium denitrificans
  0.01	1	1	-	582899	                  Hyphomicrobium denitrificans ATCC 51888
  0.01	1	1	G	46913	              Devosia
  0.01	1	0	G	59282	              Blastochloris
  0.01	1	1	S	1079	                Blastochloris viridis
  0.04	3	0	F	69277	            Phyllobacteriaceae
  0.04	3	1	G	68287	              Mesorhizobium
  0.01	1	0	S	381	                Mesorhizobium loti
  0.01	1	1	-	935546	                  Mesorhizobium loti NZP2037
  0.01	1	1	S	1670800	                Mesorhizobium oceanicum
  0.01	1	0	F	118882	            Brucellaceae
  0.01	1	1	G	234	              Brucella
  0.01	1	0	-	119042	            unclassified Rhizobiales
  0.01	1	0	G	1734920	              Pseudorhodoplanes
  0.01	1	1	S	1235591	                Pseudorhodoplanes sinuspersici
  0.01	1	0	F	119043	            Rhodobiaceae
  0.01	1	0	G	256616	              Parvibaculum
  0.01	1	0	S	256618	                Parvibaculum lavamentivorans
  0.01	1	1	-	402881	                  Parvibaculum lavamentivorans DS-1
  0.01	1	0	F	255475	            Aurantimonadaceae
  0.01	1	0	G	414371	              Aureimonas
  0.01	1	1	S	1349819	                Aureimonas sp. AU20
  0.34	23	0	O	204457	          Sphingomonadales
  0.33	22	1	F	41297	            Sphingomonadaceae
  0.13	9	0	G	13687	              Sphingomonas
  0.03	2	2	S	2565555	                Sphingomonas sp. PAMC26645
  0.01	1	1	S	160791	                Sphingomonas wittichii
  0.01	1	1	S	745310	                Sphingomonas sp. MM-1
  0.01	1	1	S	1327635	                Sphingomonas sp. Cra20
  0.01	1	1	S	1560345	                Sphingomonas panacis
  0.01	1	1	S	1813879	                Sphingomonas sp. HKS19
  0.01	1	1	S	1938607	                Sphingomonas sp. LM7
  0.01	1	1	S	1961362	                Sphingomonas sp. NIC1
  0.06	4	1	G	165695	              Sphingobium
  0.03	2	2	S	13690	                Sphingobium yanoikuyae
  0.01	1	1	S	627192	                Sphingobium sp. SYK-6
  0.06	4	0	G	165696	              Novosphingobium
  0.03	2	2	S	702113	                Novosphingobium sp. PP1Y
  0.01	1	0	S	205844	                Novosphingobium pentaromativorans
  0.01	1	1	-	1088721	                  Novosphingobium pentaromativorans US6-1
  0.01	1	1	S	1176536	                Novosphingobium ginsenosidimutans
  0.03	2	0	G	165697	              Sphingopyxis
  0.01	1	1	S	1357916	                Sphingopyxis sp. QXT-31
  0.01	1	1	S	1515612	                Sphingopyxis fribergensis
  0.01	1	0	G	335405	              Sphingosinicella
  0.01	1	1	S	335406	                Sphingosinicella microcystinivorans
  0.01	1	0	G	1434046	              Sphingorhabdus
  0.01	1	1	S	1806885	                Sphingorhabdus sp. M41
  0.01	1	0	F	335929	            Erythrobacteraceae
  0.01	1	0	G	361177	              Altererythrobacter
  0.01	1	1	S	692370	                Altererythrobacter dongtanensis
  0.18	12	0	O	204458	          Caulobacterales
  0.18	12	0	F	76892	            Caulobacteraceae
  0.10	7	2	G	41275	              Brevundimonas
  0.03	2	0	S	74313	                Brevundimonas subvibrioides
  0.03	2	2	-	633149	                  Brevundimonas subvibrioides ATCC 15264
  0.01	1	1	S	293	                Brevundimonas diminuta
  0.01	1	1	S	41276	                Brevundimonas vesicularis
  0.01	1	1	S	2591463	                Brevundimonas sp. M20
  0.04	3	0	G	20	              Phenylobacterium
  0.03	2	0	S	284016	                Phenylobacterium zucineum
  0.03	2	2	-	450851	                  Phenylobacterium zucineum HLK1
  0.01	1	1	S	2201350	                Phenylobacterium sp. HYN0004
  0.03	2	0	G	75	              Caulobacter
  0.01	1	1	S	69395	                Caulobacter henricii
  0.01	1	1	S	366602	                Caulobacter sp. K31
  0.16	11	0	O	204441	          Rhodospirillales
  0.12	8	0	F	41295	            Rhodospirillaceae
  0.03	2	1	G	191	              Azospirillum
  0.01	1	1	S	2202148	                Azospirillum sp. CFH 70021
  0.03	2	0	G	171436	              Tistrella
  0.03	2	0	S	171437	                Tistrella mobilis
  0.03	2	2	-	1110502	                  Tistrella mobilis KA081020-065
  0.01	1	0	G	1231242	              Ferrovibrio
  0.01	1	1	S	2594003	                Ferrovibrio sp. K5
  0.01	1	0	G	1543705	              Nitrospirillum
  0.01	1	0	S	28077	                Nitrospirillum amazonense
  0.01	1	1	-	1441467	                  Nitrospirillum amazonense CBAmc
  0.01	1	0	G	1804663	              Haematospirillum
  0.01	1	1	S	1549855	                Haematospirillum jordaniae
  0.01	1	0	G	2478349	              Indioceanicola
  0.01	1	1	S	2220096	                Indioceanicola profundi
  0.04	3	0	F	433	            Acetobacteraceae
  0.03	2	0	G	125216	              Roseomonas
  0.01	1	1	S	257708	                Roseomonas gilardii
  0.01	1	1	S	2018065	                Roseomonas sp. FDAARGOS_362
  0.01	1	0	G	434	              Acetobacter
  0.01	1	1	S	1076596	                Acetobacter persici
  0.16	11	1	O	204455	          Rhodobacterales
  0.15	10	0	F	31989	            Rhodobacteraceae
  0.06	4	1	G	265	              Paracoccus
  0.01	1	0	S	34003	                Paracoccus aminophilus
  0.01	1	1	-	1367847	                  Paracoccus aminophilus JCM 7686
  0.01	1	1	S	34004	                Paracoccus aminovorans
  0.01	1	1	S	2259340	                Paracoccus sp. SC2-6
  0.04	3	0	G	60136	              Sulfitobacter
  0.01	1	1	S	1402135	                Sulfitobacter pseudonitzschiae
  0.01	1	1	S	1917485	                Sulfitobacter sp. AM1-D1
  0.01	1	1	S	1968541	                Sulfitobacter sp. D7
  0.01	1	0	G	58842	              Sagittula
  0.01	1	1	S	2009329	                Sagittula sp. P11
  0.01	1	0	G	360528	              Pelagibaca
  0.01	1	1	S	1250539	                Pelagibaca abyssi
  0.01	1	0	G	436357	              Thalassococcus
  0.01	1	1	S	2017482	                Thalassococcus sp. S3
  0.03	2	0	O	255473	          Parvularculales
  0.03	2	0	F	255474	            Parvularculaceae
  0.03	2	0	G	208215	              Parvularcula
  0.03	2	0	S	208216	                Parvularcula bermudensis
  0.03	2	2	-	314260	                  Parvularcula bermudensis HTCC2503
  0.01	1	0	-	82117	          unclassified Alphaproteobacteria
  0.01	1	0	-	33807	            unclassified Alphaproteobacteria (miscellaneous)
  0.01	1	1	S	2341112	              Alphaproteobacteria bacterium WS11
  1.23	82	0	C	28216	        Betaproteobacteria
  1.06	71	4	O	80840	          Burkholderiales
  0.48	32	2	F	119060	            Burkholderiaceae
  0.19	13	3	G	32008	              Burkholderia
  0.06	4	0	S	111527	                pseudomallei group
  0.01	1	1	S	28450	                  Burkholderia pseudomallei
  0.01	1	1	S	1385591	                  Burkholderia sp. BDU6
  0.01	1	1	S	1385592	                  Burkholderia sp. BDU8
  0.01	1	1	S	1637841	                  Burkholderia sp. MSMB0852
  0.03	2	0	S	87882	                Burkholderia cepacia complex
  0.01	1	1	S	87883	                  Burkholderia multivorans
  0.01	1	1	S	1637853	                  Burkholderia sp. NRF60-BP8
  0.03	2	2	S	1705310	                Burkholderia sp. IDO3
  0.01	1	0	S	337	                Burkholderia glumae
  0.01	1	1	-	626418	                  Burkholderia glumae BGR1
  0.01	1	1	S	28095	                Burkholderia gladioli
  0.12	8	0	G	48736	              Ralstonia
  0.10	7	1	S	329	                Ralstonia pickettii
  0.04	3	3	-	402626	                  Ralstonia pickettii 12J
  0.04	3	3	-	428406	                  Ralstonia pickettii 12D
  0.01	1	1	S	105219	                Ralstonia mannitolilytica
  0.07	5	0	G	106589	              Cupriavidus
  0.03	2	0	S	82541	                Cupriavidus gilardii
  0.03	2	2	-	1267562	                  Cupriavidus gilardii CR3
  0.01	1	1	S	82633	                Cupriavidus pauculus
  0.01	1	1	S	96344	                Cupriavidus oxalaticus
  0.01	1	1	S	1389192	                Cupriavidus sp. USMAHM13
  0.03	2	0	G	93217	              Pandoraea
  0.03	2	2	S	93218	                Pandoraea apista
  0.03	2	0	G	1822464	              Paraburkholderia
  0.01	1	1	S	134537	                Paraburkholderia fungorum
  0.01	1	1	S	1926494	                Paraburkholderia sp. SOS3
  0.28	19	5	F	80864	            Comamonadaceae
  0.04	3	0	G	12916	              Acidovorax
  0.03	2	2	S	232721	                Acidovorax sp. JS42
  0.01	1	1	S	358220	                Acidovorax sp. KKS102
  0.04	3	0	G	80865	              Delftia
  0.03	2	0	S	80866	                Delftia acidovorans
  0.03	2	2	-	398578	                  Delftia acidovorans SPH-1
  0.01	1	1	S	1920191	                Delftia sp. HK171
  0.03	2	0	G	28065	              Rhodoferax
  0.01	1	1	S	81479	                Rhodoferax antarcticus
  0.01	1	1	S	1484693	                Rhodoferax saidenbachensis
  0.01	1	0	G	283	              Comamonas
  0.01	1	1	S	1082851	                Comamonas serinivorans
  0.01	1	0	G	34072	              Variovorax
  0.01	1	0	S	34073	                Variovorax paradoxus
  0.01	1	1	-	595537	                  Variovorax paradoxus EPS
  0.01	1	0	G	52972	              Polaromonas
  0.01	1	1	S	2268087	                Polaromonas sp. SP1
  0.01	1	0	G	201096	              Alicycliphilus
  0.01	1	0	S	179636	                Alicycliphilus denitrificans
  0.01	1	1	-	596153	                  Alicycliphilus denitrificans BC
  0.01	1	0	G	219181	              Ottowia
  0.01	1	1	S	2109914	                Ottowia oryzae
  0.01	1	0	G	1649468	              Melaminivora
  0.01	1	1	S	2109913	                Melaminivora sp. SC2-9
  0.12	8	0	F	75682	            Oxalobacteraceae
  0.06	4	0	G	149698	              Massilia
  0.03	2	2	S	1593482	                Massilia sp. YMA4
  0.01	1	1	S	1141883	                Massilia putida
  0.01	1	1	S	2072590	                Massilia armeniaca
  0.03	2	1	G	29580	              Janthinobacterium
  0.01	1	1	S	1644131	                Janthinobacterium sp. 1_2014MBL_MicDiv
  0.01	1	0	G	963	              Herbaspirillum
  0.01	1	1	S	863372	                Herbaspirillum huttiense
  0.01	1	0	G	202907	              Collimonas
  0.01	1	1	S	279113	                Collimonas pratensis
  0.06	4	0	F	506	            Alcaligenaceae
  0.03	2	1	G	222	              Achromobacter
  0.01	1	1	S	217203	                Achromobacter spanius
  0.01	1	0	G	517	              Bordetella
  0.01	1	1	S	1416806	                Bordetella genomosp. 8
  0.01	1	0	G	290425	              Advenella
  0.01	1	0	S	310575	                Advenella kashmirensis
  0.01	1	1	-	1036672	                  Advenella kashmirensis WT001
  0.06	4	0	-	119065	            unclassified Burkholderiales
  0.06	4	0	-	224471	              Burkholderiales Genera incertae sedis
  0.03	2	0	G	88	                Leptothrix
  0.03	2	0	S	34029	                  Leptothrix cholodnii
  0.03	2	2	-	395495	                    Leptothrix cholodnii SP-6
  0.01	1	0	G	28067	                Rubrivivax
  0.01	1	0	S	28068	                  Rubrivivax gelatinosus
  0.01	1	1	-	983917	                    Rubrivivax gelatinosus IL144
  0.01	1	0	G	212743	                Rhizobacter
  0.01	1	1	S	946333	                  Rhizobacter gummiphilus
  0.10	7	0	O	206389	          Rhodocyclales
  0.07	5	0	F	2008794	            Zoogloeaceae
  0.04	3	0	G	12960	              Azoarcus
  0.03	2	2	S	748247	                Azoarcus sp. KH32C
  0.01	1	1	S	198107	                Azoarcus sp. CIB
  0.03	2	0	G	33057	              Thauera
  0.01	1	1	S	85643	                Thauera sp. MZ1T
  0.01	1	1	S	96773	                Thauera chlorobenzoica
  0.03	2	0	F	75787	            Rhodocyclaceae
  0.01	1	0	G	146937	              Azospira
  0.01	1	0	S	146939	                Azospira oryzae
  0.01	1	1	-	640081	                  Azospira oryzae PS
  0.01	1	0	G	551759	              Aromatoleum
  0.01	1	0	S	551760	                Aromatoleum aromaticum
  0.01	1	1	-	76114	                  Aromatoleum aromaticum EbN1
  0.03	2	0	O	206351	          Neisseriales
  0.03	2	0	F	481	            Neisseriaceae
  0.03	2	0	G	482	              Neisseria
  0.01	1	1	S	487	                Neisseria meningitidis
  0.01	1	1	S	488	                Neisseria mucosa
  0.01	1	0	O	32003	          Nitrosomonadales
  0.01	1	0	F	2008793	            Sterolibacteriaceae
  0.01	1	0	G	1054211	              Sulfuritalea
  0.01	1	0	S	748811	                Sulfuritalea hydrogenivorans
  0.01	1	1	-	1223802	                  Sulfuritalea hydrogenivorans sk43H
  0.01	1	0	-	119066	          unclassified Betaproteobacteria
  0.01	1	0	-	33809	            unclassified Betaproteobacteria (miscellaneous)
  0.01	1	1	S	1904640	              Betaproteobacteria bacterium GR16-43
  0.18	12	0	-	68525	        delta/epsilon subdivisions
  0.10	7	1	C	28221	          Deltaproteobacteria
  0.06	4	0	O	29	            Myxococcales
  0.03	2	0	-	80811	              Cystobacterineae
  0.03	2	0	F	1524213	                Vulgatibacteraceae
  0.03	2	0	G	1524214	                  Vulgatibacter
  0.03	2	2	S	1391653	                    Vulgatibacter incomptus
  0.03	2	0	-	80812	              Sorangiineae
  0.03	2	0	F	1055686	                Sandaracinaceae
  0.03	2	0	G	1055688	                  Sandaracinus
  0.03	2	2	S	927083	                    Sandaracinus amylolyticus
  0.01	1	0	O	69541	            Desulfuromonadales
  0.01	1	0	F	213421	              Desulfuromonadaceae
  0.01	1	0	G	890	                Desulfuromonas
  0.01	1	1	S	1823759	                  Desulfuromonas sp. DDH964
  0.01	1	0	O	213115	            Desulfovibrionales
  0.01	1	0	F	194924	              Desulfovibrionaceae
  0.01	1	0	G	2035811	                Pseudodesulfovibrio
  0.01	1	1	S	1716143	                  Pseudodesulfovibrio indicus
  0.07	5	0	C	29547	          Epsilonproteobacteria
  0.06	4	0	O	213849	            Campylobacterales
  0.06	4	0	F	72294	              Campylobacteraceae
  0.06	4	0	-	2321108	                Arcobacter group
  0.04	3	0	G	28196	                  Arcobacter
  0.04	3	1	S	28198	                    Arcobacter cryaerophilus
  0.01	1	1	-	1032070	                      Arcobacter cryaerophilus ATCC 43158
  0.01	1	1	-	1032071	                      Arcobacter cryaerophilus D2610
  0.01	1	0	-	2321207	                  unclassified Arcobacter group
  0.01	1	1	S	944547	                    Arcobacter sp. L
  0.01	1	0	-	34035	            unclassified Epsilonproteobacteria
  0.01	1	0	G	269258	              Nitratiruptor
  0.01	1	1	S	387092	                Nitratiruptor sp. SB155-2
  0.75	50	0	-	1783270	      FCB group
  0.75	50	0	-	68336	        Bacteroidetes/Chlorobi group
  0.72	48	0	P	976	          Bacteroidetes
  0.43	29	0	C	200643	            Bacteroidia
  0.43	29	0	O	171549	              Bacteroidales
  0.21	14	0	F	171552	                Prevotellaceae
  0.21	14	0	G	838	                  Prevotella
  0.07	5	5	S	28135	                    Prevotella oris
  0.04	3	3	S	28132	                    Prevotella melaninogenica
  0.03	2	1	S	28129	                    Prevotella denticola
  0.01	1	1	-	767031	                      Prevotella denticola F0289
  0.03	2	2	S	1177574	                    Prevotella jejuni
  0.01	1	1	S	28131	                    Prevotella intermedia
  0.01	1	0	S	589436	                    Prevotella fusca
  0.01	1	1	-	1236517	                      Prevotella fusca JCM 17724
  0.19	13	0	F	815	                Bacteroidaceae
  0.19	13	3	G	816	                  Bacteroides
  0.06	4	0	S	821	                    Bacteroides vulgatus
  0.06	4	4	-	435590	                      Bacteroides vulgatus ATCC 8482
  0.03	2	2	S	820	                    Bacteroides uniformis
  0.01	1	1	S	818	                    Bacteroides thetaiotaomicron
  0.01	1	1	S	28116	                    Bacteroides ovatus
  0.01	1	1	S	329854	                    Bacteroides intestinalis
  0.01	1	1	S	371601	                    Bacteroides xylanisolvens
  0.01	1	0	F	171550	                Rikenellaceae
  0.01	1	0	G	239759	                  Alistipes
  0.01	1	1	S	2364787	                    Alistipes sp. Marseille-P5997
  0.01	1	0	F	1853231	                Odoribacteraceae
  0.01	1	0	G	574697	                  Butyricimonas
  0.01	1	1	S	2093856	                    Butyricimonas faecalis
  0.18	12	0	C	117743	            Flavobacteriia
  0.18	12	0	O	200644	              Flavobacteriales
  0.18	12	1	F	49546	                Flavobacteriaceae
  0.04	3	0	G	237	                  Flavobacterium
  0.01	1	1	S	96345	                    Flavobacterium psychrophilum
  0.01	1	1	S	2172098	                    Flavobacterium pallidum
  0.01	1	1	S	2249356	                    Flavobacterium sp. HYN0086
  0.03	2	0	G	59732	                  Chryseobacterium
  0.01	1	1	S	1124835	                    Chryseobacterium carnipullorum
  0.01	1	1	S	1265445	                    Chryseobacterium camelliae
  0.03	2	0	G	104267	                  Tenacibaculum
  0.01	1	1	S	669041	                    Tenacibaculum dicentrarchi
  0.01	1	1	S	1850252	                    Tenacibaculum todarodis
  0.03	2	0	G	501783	                  Cloacibacterium
  0.03	2	2	S	237258	                    Cloacibacterium normanense
  0.01	1	1	G	1016	                  Capnocytophaga
  0.01	1	0	G	286104	                  Winogradskyella
  0.01	1	1	S	1936080	                    Winogradskyella sp. J14-2
  0.04	3	0	C	117747	            Sphingobacteriia
  0.04	3	0	O	200666	              Sphingobacteriales
  0.04	3	0	F	84566	                Sphingobacteriaceae
  0.03	2	0	-	84568	                  unclassified Sphingobacteriaceae
  0.03	2	2	S	1986952	                    Sphingobacteriaceae bacterium GW460-11-11-14-LB5
  0.01	1	0	G	423349	                  Mucilaginibacter
  0.01	1	1	S	2305508	                    Mucilaginibacter sp. HYN0043
  0.03	2	0	C	768503	            Cytophagia
  0.03	2	0	O	768507	              Cytophagales
  0.01	1	0	F	89373	                Cytophagaceae
  0.01	1	0	G	107	                  Spirosoma
  0.01	1	1	S	1178516	                    Spirosoma montaniterrae
  0.01	1	0	F	1853232	                Hymenobacteraceae
  0.01	1	0	G	89966	                  Hymenobacter
  0.01	1	0	S	1446467	                    Hymenobacter swuensis
  0.01	1	1	-	1227739	                      Hymenobacter swuensis DY53
  0.01	1	0	C	1853228	            Chitinophagia
  0.01	1	0	O	1853229	              Chitinophagales
  0.01	1	0	F	563835	                Chitinophagaceae
  0.01	1	0	G	1874621	                  Panacibacter
  0.01	1	1	S	1813871	                    Panacibacter ginsenosidivorans
  0.01	1	0	C	1937959	            Saprospiria
  0.01	1	0	O	1936988	              Saprospirales
  0.01	1	0	F	1937961	                Haliscomenobacteraceae
  0.01	1	0	G	2349	                  Haliscomenobacter
  0.01	1	0	S	2350	                    Haliscomenobacter hydrossis
  0.01	1	1	-	760192	                      Haliscomenobacter hydrossis DSM 1100
  0.03	2	0	P	1090	          Chlorobi
  0.03	2	0	C	191410	            Chlorobia
  0.03	2	0	O	191411	              Chlorobiales
  0.03	2	0	F	191412	                Chlorobiaceae
  0.01	1	0	G	256319	                  Chlorobaculum
  0.01	1	0	S	1097	                    Chlorobaculum tepidum
  0.01	1	1	-	194439	                      Chlorobaculum tepidum TLS
  0.01	1	0	-	274493	                  Chlorobium/Pelodictyon group
  0.01	1	0	G	1091	                    Chlorobium
  0.01	1	0	S	337090	                      Chlorobium chlorochromatii
  0.01	1	1	-	340177	                        Chlorobium chlorochromatii CaD3
  0.10	7	0	-	1783257	      PVC group
  0.07	5	1	P	203682	        Planctomycetes
  0.03	2	0	C	203683	          Planctomycetia
  0.03	2	0	O	112	            Planctomycetales
  0.01	1	0	F	1763524	              Isosphaeraceae
  0.01	1	0	G	466152	                Singulisphaera
  0.01	1	0	S	466153	                  Singulisphaera acidiphila
  0.01	1	1	-	886293	                    Singulisphaera acidiphila DSM 18658
  0.01	1	0	F	1914233	              Gemmataceae
  0.01	1	0	G	113	                Gemmata
  0.01	1	1	S	114	                  Gemmata obscuriglobus
  0.03	2	0	-	473814	          unclassified Planctomycetes
  0.01	1	1	S	2527984	            Planctomycetes bacterium Pan97
  0.01	1	1	S	2528009	            Planctomycetes bacterium Pla175
  0.03	2	0	P	74201	        Verrucomicrobia
  0.03	2	0	C	414999	          Opitutae
  0.03	2	0	O	415000	            Opitutales
  0.03	2	0	F	134623	              Opitutaceae
  0.01	1	0	-	278955	                unclassified Opitutaceae
  0.01	1	1	S	794903	                  Opitutaceae bacterium TAV5
  0.01	1	0	G	2576890	                Nibricoccus
  0.01	1	1	S	2576891	                  Nibricoccus aquaticus
  0.01	1	0	-	2323	      unclassified Bacteria
  0.01	1	0	-	1783234	        Bacteria candidate phyla
  0.01	1	1	P	95818	          Candidatus Saccharibacteria
  0.01	1	0	P	57723	      Acidobacteria
  0.01	1	0	C	204432	        Acidobacteriia
  0.01	1	0	O	204433	          Acidobacteriales
  0.01	1	0	F	204434	            Acidobacteriaceae
  0.01	1	0	G	940557	              Granulicella
  0.01	1	0	S	940615	                Granulicella tundricola
  0.01	1	1	-	1198114	                  Granulicella tundricola MP5ACTX9
  0.07	5	0	D	2157	    Archaea
  0.04	3	0	P	28890	      Euryarchaeota
  0.03	2	0	-	2290931	        Stenosarchaea group
  0.03	2	0	C	224756	          Methanomicrobia
  0.01	1	0	O	94695	            Methanosarcinales
  0.01	1	0	F	143067	              Methanotrichaceae
  0.01	1	0	G	2222	                Methanothrix
  0.01	1	0	S	2223	                  Methanothrix soehngenii
  0.01	1	1	-	990316	                    Methanothrix soehngenii GP6
  0.01	1	0	O	570264	            Methanocellales
  0.01	1	0	F	570265	              Methanocellaceae
  0.01	1	0	G	570266	                Methanocella
  0.01	1	0	S	570267	                  Methanocella paludicola
  0.01	1	1	-	304371	                    Methanocella paludicola SANAE
  0.01	1	0	-	2283794	        Methanomada group
  0.01	1	0	C	183925	          Methanobacteria
  0.01	1	0	O	2158	            Methanobacteriales
  0.01	1	0	F	2159	              Methanobacteriaceae
  0.01	1	0	G	2160	                Methanobacterium
  0.01	1	1	S	2162	                  Methanobacterium formicicum
  0.03	2	0	-	1783275	      TACK group
  0.03	2	0	P	28889	        Crenarchaeota
  0.03	2	0	C	183924	          Thermoprotei
  0.01	1	0	O	2281	            Sulfolobales
  0.01	1	0	F	118883	              Sulfolobaceae
  0.01	1	0	G	69655	                Sulfurisphaera
  0.01	1	0	S	111955	                  Sulfurisphaera tokodaii
  0.01	1	1	-	273063	                    Sulfurisphaera tokodaii str. 7
  0.01	1	0	O	114380	            Desulfurococcales
  0.01	1	0	F	2272	              Desulfurococcaceae
  0.01	1	0	G	54258	                Ignicoccus
  0.01	1	0	S	160233	                  Ignicoccus hospitalis
  0.01	1	1	-	453591	                    Ignicoccus hospitalis KIN4/I
  0.01	1	0	D	10239	  Viruses
  0.01	1	0	O	28883	    Caudovirales
  0.01	1	0	F	10744	      Podoviridae
  0.01	1	0	-	196895	        unclassified Podoviridae
  0.01	1	0	-	1978007	          crAss-like viruses
  0.01	1	0	-	2315857	            environmental samples
  0.01	1	1	S	1211417	              uncultured crAssphage
