 21.67	19289	19289	U	0	unclassified
 78.33	69703	67	-	1	root
 78.23	69621	0	-	131567	  cellular organisms
 73.33	65262	8	D	2759	    Eukaryota
 73.32	65252	0	-	33154	      Opisthokonta
 73.29	65225	0	K	33208	        Metazoa
 73.29	65225	0	-	6072	          Eumetazoa
 73.29	65225	0	-	33213	            Bilateria
 73.29	65225	0	-	33511	              Deuterostomia
 73.29	65225	0	P	7711	                Chordata
 73.29	65225	0	-	89593	                  Craniata
 73.29	65225	0	-	7742	                    Vertebrata
 73.29	65225	0	-	7776	                      Gnathostomata
 73.29	65225	0	-	117570	                        Teleostomi
 73.29	65225	0	-	117571	                          Euteleostomi
 73.29	65225	0	-	8287	                            Sarcopterygii
 73.29	65225	0	-	1338369	                              Dipnotetrapodomorpha
 73.29	65225	0	-	32523	                                Tetrapoda
 73.29	65225	0	-	32524	                                  Amniota
 73.29	65225	0	C	40674	                                    Mammalia
 73.29	65225	0	-	32525	                                      Theria
 73.29	65225	0	-	9347	                                        Eutheria
 73.29	65225	0	-	1437010	                                          Boreoeutheria
 73.29	65225	0	-	314146	                                            Euarchontoglires
 73.29	65225	0	O	9443	                                              Primates
 73.29	65225	0	-	376913	                                                Haplorrhini
 73.29	65225	0	-	314293	                                                  Simiiformes
 73.29	65225	0	-	9526	                                                    Catarrhini
 73.29	65225	0	-	314295	                                                      Hominoidea
 73.29	65225	0	F	9604	                                                        Hominidae
 73.29	65225	0	-	207598	                                                          Homininae
 73.29	65225	0	G	9605	                                                            Homo
 73.29	65225	65225	S	9606	                                                              Homo sapiens
  0.03	27	0	K	4751	        Fungi
  0.03	27	0	-	451864	          Dikarya
  0.03	23	0	P	4890	            Ascomycota
  0.03	23	0	-	716545	              saccharomyceta
  0.02	16	0	-	147538	                Pezizomycotina
  0.02	16	0	-	716546	                  leotiomyceta
  0.02	14	0	-	715989	                    sordariomyceta
  0.01	11	0	C	147550	                      Sordariomycetes
  0.01	8	0	-	222543	                        Hypocreomycetidae
  0.01	8	0	O	5125	                          Hypocreales
  0.01	8	0	F	110618	                            Nectriaceae
  0.01	8	4	G	5506	                              Fusarium
  0.00	3	0	S	569360	                                Fusarium sambucinum species complex
  0.00	2	2	S	56646	                                  Fusarium venenatum
  0.00	1	0	S	101028	                                  Fusarium pseudograminearum
  0.00	1	1	-	1028729	                                    Fusarium pseudograminearum CS3096
  0.00	1	0	S	171631	                                Fusarium oxysporum species complex
  0.00	1	0	S	5507	                                  Fusarium oxysporum
  0.00	1	0	-	59765	                                    Fusarium oxysporum f. sp. lycopersici
  0.00	1	1	-	426428	                                      Fusarium oxysporum f. sp. lycopersici 4287
  0.00	3	0	-	222544	                        Sordariomycetidae
  0.00	2	0	O	5139	                          Sordariales
  0.00	2	0	F	35718	                            Chaetomiaceae
  0.00	2	0	G	1920207	                              Thermothelomyces
  0.00	2	0	S	78579	                                Thermothelomyces thermophilus
  0.00	2	2	-	573729	                                  Thermothelomyces thermophilus ATCC 42464
  0.00	1	0	O	639021	                          Magnaporthales
  0.00	1	0	F	2528436	                            Pyriculariaceae
  0.00	1	0	G	48558	                              Pyricularia
  0.00	1	0	S	318829	                                Pyricularia oryzae
  0.00	1	1	-	242507	                                  Pyricularia oryzae 70-15
  0.00	3	0	C	147548	                      Leotiomycetes
  0.00	3	0	O	5178	                        Helotiales
  0.00	3	0	F	28983	                          Sclerotiniaceae
  0.00	3	0	G	33196	                            Botrytis
  0.00	3	0	S	40559	                              Botrytis cinerea
  0.00	3	3	-	332648	                                Botrytis cinerea B05.10
  0.00	2	0	-	715962	                    dothideomyceta
  0.00	2	0	C	147541	                      Dothideomycetes
  0.00	2	0	-	451867	                        Dothideomycetidae
  0.00	2	0	O	134362	                          Capnodiales
  0.00	2	0	F	93133	                            Mycosphaerellaceae
  0.00	1	0	G	29002	                              Cercospora
  0.00	1	1	S	122368	                                Cercospora beticola
  0.00	1	0	G	1047167	                              Zymoseptoria
  0.00	1	0	S	1047171	                                Zymoseptoria tritici
  0.00	1	1	-	336722	                                  Zymoseptoria tritici IPO323
  0.01	7	0	-	147537	                Saccharomycotina
  0.01	7	0	C	4891	                  Saccharomycetes
  0.01	7	0	O	4892	                    Saccharomycetales
  0.00	4	0	F	4893	                      Saccharomycetaceae
  0.00	1	0	G	4930	                        Saccharomyces
  0.00	1	1	S	1080349	                          Saccharomyces eubayanus
  0.00	1	0	G	33170	                        Eremothecium
  0.00	1	1	S	45286	                          Eremothecium sinecaudum
  0.00	1	0	G	71245	                        Kazachstania
  0.00	1	0	S	588726	                          Kazachstania naganishii
  0.00	1	1	-	1071383	                            Kazachstania naganishii CBS 8797
  0.00	1	0	G	278028	                        Naumovozyma
  0.00	1	0	S	27288	                          Naumovozyma castellii
  0.00	1	1	-	1064592	                            Naumovozyma castellii CBS 4309
  0.00	2	0	F	766764	                      Debaryomycetaceae
  0.00	2	0	-	1535325	                        Candida/Lodderomyces clade
  0.00	2	0	G	1535326	                          Candida
  0.00	2	0	S	273371	                            Candida orthopsilosis
  0.00	2	2	-	1136231	                              Candida orthopsilosis Co 90-125
  0.00	1	0	F	34353	                      Dipodascaceae
  0.00	1	0	G	4951	                        Yarrowia
  0.00	1	0	S	4952	                          Yarrowia lipolytica
  0.00	1	1	-	284591	                            Yarrowia lipolytica CLIB122
  0.00	4	0	P	5204	            Basidiomycota
  0.00	4	0	-	452284	              Ustilaginomycotina
  0.00	3	0	C	5257	                Ustilaginomycetes
  0.00	3	0	O	5267	                  Ustilaginales
  0.00	3	0	F	5268	                    Ustilaginaceae
  0.00	3	0	G	5269	                      Ustilago
  0.00	3	0	S	5270	                        Ustilago maydis
  0.00	3	3	-	237631	                          Ustilago maydis 521
  0.00	1	0	C	1538075	                Malasseziomycetes
  0.00	1	0	O	162474	                  Malasseziales
  0.00	1	0	F	742845	                    Malasseziaceae
  0.00	1	0	G	55193	                      Malassezia
  0.00	1	1	S	76775	                        Malassezia restricta
  0.00	1	0	-	33630	      Alveolata
  0.00	1	0	P	5794	        Apicomplexa
  0.00	1	0	C	422676	          Aconoidasida
  0.00	1	0	O	5863	            Piroplasmida
  0.00	1	0	F	27994	              Theileriidae
  0.00	1	0	G	5873	                Theileria
  0.00	1	0	S	68886	                  Theileria orientalis
  0.00	1	1	-	869250	                    Theileria orientalis strain Shintoku
  0.00	1	0	-	33682	      Euglenozoa
  0.00	1	0	O	5653	        Kinetoplastida
  0.00	1	0	F	5654	          Trypanosomatidae
  0.00	1	0	-	1286322	            Leishmaniinae
  0.00	1	0	G	5658	              Leishmania
  0.00	1	0	-	38568	                Leishmania
  0.00	1	0	S	38581	                  Leishmania major species complex
  0.00	1	0	S	5664	                    Leishmania major
  0.00	1	1	-	347515	                      Leishmania major strain Friedlin
  4.89	4355	18	D	2	    Bacteria
  2.88	2566	0	-	1783272	      Terrabacteria group
  1.78	1583	2	P	1239	        Firmicutes
  0.92	823	2	C	909932	          Negativicutes
  0.87	778	0	O	1843489	            Veillonellales
  0.87	778	0	F	31977	              Veillonellaceae
  0.87	774	40	G	29465	                Veillonella
  0.55	492	492	S	39778	                  Veillonella dispar
  0.24	215	215	S	29466	                  Veillonella parvula
  0.03	27	27	S	248315	                  Veillonella rodentium
  0.00	4	1	G	906	                Megasphaera
  0.00	1	0	S	907	                  Megasphaera elsdenii
  0.00	1	1	-	1064535	                    Megasphaera elsdenii DSM 20460
  0.00	1	1	S	1675036	                  Megasphaera hexanoica
  0.00	1	1	S	2144175	                  Megasphaera stantonii
  0.05	43	0	O	909929	            Selenomonadales
  0.04	40	0	F	1843491	              Selenomonadaceae
  0.04	40	5	G	970	                Selenomonas
  0.02	16	16	S	712538	                  Selenomonas sp. oral taxon 478
  0.01	11	11	S	713030	                  Selenomonas sp. oral taxon 136
  0.01	5	0	S	69823	                  Selenomonas sputigena
  0.01	5	5	-	546271	                    Selenomonas sputigena ATCC 35185
  0.00	3	3	S	1884263	                  Selenomonas sp. oral taxon 920
  0.00	3	0	F	1843490	              Sporomusaceae
  0.00	2	0	G	2375	                Sporomusa
  0.00	2	2	S	2377	                  Sporomusa termitida
  0.00	1	0	G	2093783	                Methylomusa
  0.00	1	1	S	1930071	                  Methylomusa anaerophila
  0.80	711	2	C	91061	          Bacilli
  0.76	673	1	O	186826	            Lactobacillales
  0.74	660	1	F	1300	              Streptococcaceae
  0.74	655	77	G	1301	                Streptococcus
  0.18	158	47	S	1318	                  Streptococcus parasanguinis
  0.07	58	58	-	760570	                    Streptococcus parasanguinis ATCC 15912
  0.06	53	53	-	1114965	                    Streptococcus parasanguinis FW213
  0.09	79	45	S	28037	                  Streptococcus mitis
  0.03	24	24	-	246201	                    Streptococcus mitis NCTC 12261
  0.01	10	10	-	365659	                    Streptococcus mitis B6
  0.07	64	52	S	1305	                  Streptococcus sanguinis
  0.01	12	12	-	388919	                    Streptococcus sanguinis SK36
  0.07	60	52	S	1304	                  Streptococcus salivarius
  0.00	4	4	-	347253	                    Streptococcus salivarius JIM8777
  0.00	4	4	-	1048332	                    Streptococcus salivarius CCHSS3
  0.04	38	38	S	1313	                  Streptococcus pneumoniae
  0.04	35	35	S	712633	                  Streptococcus sp. oral taxon 431
  0.03	26	11	S	1303	                  Streptococcus oralis
  0.01	5	5	-	655813	                    Streptococcus oralis ATCC 35037
  0.01	5	5	-	1458253	                    Streptococcus oralis subsp. dentisani
  0.00	3	3	-	927666	                    Streptococcus oralis Uo5
  0.00	2	2	-	1077464	                    Streptococcus oralis subsp. tigurinus
  0.03	26	0	S	257758	                  Streptococcus pseudopneumoniae
  0.03	26	26	-	1054460	                    Streptococcus pseudopneumoniae IS7493
  0.02	16	16	S	1302	                  Streptococcus gordonii
  0.01	10	10	S	1433513	                  Streptococcus sp. ChDC B345
  0.01	8	8	S	1335	                  Streptococcus equinus
  0.01	7	7	S	1308	                  Streptococcus thermophilus
  0.01	7	3	S	45634	                  Streptococcus cristatus
  0.00	3	3	-	889201	                    Streptococcus cristatus ATCC 51100
  0.00	1	1	-	1302863	                    Streptococcus cristatus AS 1.3089
  0.01	7	7	S	113107	                  Streptococcus australis
  0.01	5	5	S	78535	                  Streptococcus viridans
  0.01	5	5	S	1902136	                  Streptococcus sp. NPS 308
  0.01	5	5	S	2382163	                  Streptococcus sp. JS71
  0.00	4	4	S	1759399	                  Streptococcus sp. A12
  0.00	3	0	S	671232	                  Streptococcus anginosus group
  0.00	2	0	S	1338	                    Streptococcus intermedius
  0.00	2	2	-	862966	                      Streptococcus intermedius C270
  0.00	1	1	S	1328	                    Streptococcus anginosus
  0.00	3	3	S	1839799	                  Streptococcus sp. FDAARGOS_192
  0.00	3	3	S	2576376	                  Streptococcus sp. 1643
  0.00	2	2	S	1307	                  Streptococcus suis
  0.00	2	2	S	1343	                  Streptococcus vestibularis
  0.00	2	2	S	1156431	                  Streptococcus sp. I-G2
  0.00	1	1	S	1310	                  Streptococcus sobrinus
  0.00	1	1	S	1311	                  Streptococcus agalactiae
  0.00	1	0	S	119603	                  Streptococcus dysgalactiae group
  0.00	1	1	S	1336	                    Streptococcus equi
  0.00	4	0	G	1357	                Lactococcus
  0.00	4	3	S	1358	                  Lactococcus lactis
  0.00	1	1	-	1360	                    Lactococcus lactis subsp. lactis
  0.01	7	0	F	33958	              Lactobacillaceae
  0.01	6	1	G	1578	                Lactobacillus
  0.00	1	0	S	1581	                  Lactobacillus buchneri
  0.00	1	1	-	1071400	                    Lactobacillus buchneri CD034
  0.00	1	0	S	1602	                  Lactobacillus alimentarius
  0.00	1	1	-	1423720	                    Lactobacillus alimentarius DSM 20249
  0.00	1	1	S	1604	                  Lactobacillus amylovorus
  0.00	1	0	S	293371	                  Lactobacillus oligofermentans
  0.00	1	1	-	1423778	                    Lactobacillus oligofermentans DSM 15707 = LMG 22743
  0.00	1	0	S	655183	                  Lactobacillus casei group
  0.00	1	0	S	1582	                    Lactobacillus casei
  0.00	1	1	-	219334	                      Lactobacillus casei subsp. casei ATCC 393
  0.00	1	0	G	1253	                Pediococcus
  0.00	1	1	S	1255	                  Pediococcus pentosaceus
  0.00	4	0	F	81852	              Enterococcaceae
  0.00	3	0	G	1350	                Enterococcus
  0.00	2	2	S	1354	                  Enterococcus hirae
  0.00	1	1	S	2005703	                  Enterococcus wangshanyuanii
  0.00	1	0	G	51668	                Tetragenococcus
  0.00	1	1	S	51669	                  Tetragenococcus halophilus
  0.00	1	0	F	81850	              Leuconostocaceae
  0.00	1	0	G	1243	                Leuconostoc
  0.00	1	1	S	1252	                  Leuconostoc carnosum
  0.04	36	0	O	1385	            Bacillales
  0.02	14	0	F	186817	              Bacillaceae
  0.01	12	1	G	1386	                Bacillus
  0.00	3	0	S	653685	                  Bacillus subtilis group
  0.00	2	1	S	1423	                    Bacillus subtilis
  0.00	1	1	-	135461	                      Bacillus subtilis subsp. subtilis
  0.00	1	1	S	72361	                    Bacillus vallismortis
  0.00	2	0	S	86661	                  Bacillus cereus group
  0.00	1	0	S	1396	                    Bacillus cereus
  0.00	1	1	-	288681	                      Bacillus cereus E33L
  0.00	1	0	S	1428	                    Bacillus thuringiensis
  0.00	1	1	-	1442	                      Bacillus thuringiensis serovar tolworthi
  0.00	2	2	S	199441	                  Bacillus krulwichiae
  0.00	1	0	S	79885	                  Bacillus pseudofirmus
  0.00	1	1	-	398511	                    Bacillus pseudofirmus OF4
  0.00	1	0	S	86665	                  Bacillus halodurans
  0.00	1	1	-	272558	                    Bacillus halodurans C-125
  0.00	1	1	S	666686	                  Bacillus sp. 1NLA3E
  0.00	1	1	S	1547283	                  Bacillus weihaiensis
  0.00	1	0	G	45667	                Halobacillus
  0.00	1	1	S	45668	                  Halobacillus litoralis
  0.00	1	0	G	400634	                Lysinibacillus
  0.00	1	1	S	1421	                  Lysinibacillus sphaericus
  0.01	8	0	-	539002	              Bacillales incertae sedis
  0.01	8	0	-	539738	                Bacillales Family XI. Incertae Sedis
  0.01	8	0	G	1378	                  Gemella
  0.01	8	8	S	1379	                    Gemella haemolysans
  0.01	7	0	F	90964	              Staphylococcaceae
  0.01	7	0	G	1279	                Staphylococcus
  0.00	2	2	S	1288	                  Staphylococcus xylosus
  0.00	1	1	S	1290	                  Staphylococcus hominis
  0.00	1	1	S	29382	                  Staphylococcus cohnii
  0.00	1	1	S	29388	                  Staphylococcus capitis
  0.00	1	1	S	643214	                  Staphylococcus stepanovicii
  0.00	1	1	S	1654388	                  Staphylococcus schweitzeri
  0.01	5	0	F	186822	              Paenibacillaceae
  0.00	4	1	G	44249	                Paenibacillus
  0.00	1	0	S	159743	                  Paenibacillus terrae
  0.00	1	1	-	985665	                    Paenibacillus terrae HPL-003
  0.00	1	1	S	172713	                  Paenibacillus kribbensis
  0.00	1	0	S	365617	                  Paenibacillus sabinae
  0.00	1	1	-	1268072	                    Paenibacillus sabinae T27
  0.00	1	0	G	76632	                Thermobacillus
  0.00	1	0	S	377615	                  Thermobacillus composti
  0.00	1	1	-	717605	                    Thermobacillus composti KWC4
  0.00	2	0	F	186818	              Planococcaceae
  0.00	1	0	G	1569	                Sporosarcina
  0.00	1	1	S	1571	                  Sporosarcina ureae
  0.00	1	0	G	648800	                Solibacillus
  0.00	1	0	S	76853	                  Solibacillus silvestris
  0.00	1	1	-	1002809	                    Solibacillus silvestris StLB046
  0.05	45	0	C	186801	          Clostridia
  0.05	45	0	O	186802	            Clostridiales
  0.02	21	0	-	538999	              Clostridiales incertae sedis
  0.02	21	0	F	543314	                Clostridiales Family XIII. Incertae Sedis
  0.02	18	0	G	86331	                  Mogibacterium
  0.02	18	18	S	114527	                    Mogibacterium diversum
  0.00	3	0	S	143393	                  [Eubacterium] sulci
  0.00	3	3	-	888727	                    Eubacterium sulci ATCC 35585
  0.01	10	0	F	186803	              Lachnospiraceae
  0.00	3	0	G	572511	                Blautia
  0.00	2	2	S	33035	                  Blautia producta
  0.00	1	1	S	1912897	                  Blautia sp. N6H1-15
  0.00	3	1	G	1506553	                Lachnoclostridium
  0.00	1	0	S	84030	                  [Clostridium] saccharolyticum
  0.00	1	1	-	610130	                    [Clostridium] saccharolyticum WM1
  0.00	1	1	S	208479	                  [Clostridium] bolteae
  0.00	1	0	G	830	                Butyrivibrio
  0.00	1	0	S	43305	                  Butyrivibrio proteoclasticus
  0.00	1	1	-	515622	                    Butyrivibrio proteoclasticus B316
  0.00	1	0	G	841	                Roseburia
  0.00	1	0	S	166486	                  Roseburia intestinalis
  0.00	1	1	-	536231	                    Roseburia intestinalis L1-82
  0.00	1	0	-	186928	                unclassified Lachnospiraceae
  0.00	1	1	S	2109691	                  Lachnospiraceae bacterium GAM79
  0.00	1	0	G	1164882	                Lachnoanaerobaculum
  0.00	1	1	S	617123	                  Lachnoanaerobaculum umeaense
  0.01	6	0	F	31979	              Clostridiaceae
  0.01	6	0	G	1485	                Clostridium
  0.00	2	2	S	1520	                  Clostridium beijerinckii
  0.00	1	1	S	1491	                  Clostridium botulinum
  0.00	1	1	S	1548	                  Clostridium scatologenes
  0.00	1	0	S	238834	                  Clostridium estertheticum
  0.00	1	1	-	1552	                    Clostridium estertheticum subsp. estertheticum
  0.00	1	1	S	2320868	                  Clostridium sp. CT4
  0.00	2	0	F	186806	              Eubacteriaceae
  0.00	2	0	G	1730	                Eubacterium
  0.00	1	1	S	1736	                  Eubacterium limosum
  0.00	1	0	S	39485	                  [Eubacterium] eligens
  0.00	1	1	-	515620	                    [Eubacterium] eligens ATCC 27750
  0.00	1	0	F	31984	              Heliobacteriaceae
  0.00	1	0	G	2697	                Heliobacterium
  0.00	1	0	S	35701	                  Heliobacterium modesticaldum
  0.00	1	1	-	498761	                    Heliobacterium modesticaldum Ice1
  0.00	1	0	F	186804	              Peptostreptococcaceae
  0.00	1	0	G	1849828	                Paeniclostridium
  0.00	1	1	S	1505	                  Paeniclostridium sordellii
  0.00	1	0	F	186807	              Peptococcaceae
  0.00	1	0	G	471826	                Candidatus Desulforudis
  0.00	1	0	S	471827	                  Candidatus Desulforudis audaxviator
  0.00	1	1	-	477974	                    Candidatus Desulforudis audaxviator MP104C
  0.00	1	0	F	541000	              Ruminococcaceae
  0.00	1	0	G	216851	                Faecalibacterium
  0.00	1	1	S	853	                  Faecalibacterium prausnitzii
  0.00	1	0	F	543349	              Symbiobacteriaceae
  0.00	1	0	G	2733	                Symbiobacterium
  0.00	1	0	S	2734	                  Symbiobacterium thermophilum
  0.00	1	1	-	292459	                    Symbiobacterium thermophilum IAM 14863
  0.00	1	0	F	2304686	              Hungateiclostridiaceae
  0.00	1	0	G	1508657	                Ruminiclostridium
  0.00	1	0	S	1521	                  Ruminiclostridium cellulolyticum
  0.00	1	1	-	394503	                    Ruminiclostridium cellulolyticum H10
  0.00	2	0	C	1737404	          Tissierellia
  0.00	2	0	O	1737405	            Tissierellales
  0.00	1	0	F	1570339	              Peptoniphilaceae
  0.00	1	0	G	165779	                Anaerococcus
  0.00	1	1	S	1870984	                  Anaerococcus mediterraneensis
  0.00	1	0	F	2042895	              Gottschalkiaceae
  0.00	1	0	G	1505664	                Gottschalkia
  0.00	1	0	S	1556	                  Gottschalkia acidurici
  0.00	1	1	-	1128398	                    Gottschalkia acidurici 9a
  1.09	971	1	P	201174	        Actinobacteria
  1.07	954	10	C	1760	          Actinobacteria
  0.68	606	0	O	85006	            Micrococcales
  0.67	592	0	F	1268	              Micrococcaceae
  0.66	586	11	G	32207	                Rothia
  0.50	449	348	S	43675	                  Rothia mucilaginosa
  0.11	101	101	-	680646	                    Rothia mucilaginosa DY-18
  0.10	93	69	S	2047	                  Rothia dentocariosa
  0.03	24	24	-	762948	                    Rothia dentocariosa ATCC 17931
  0.04	33	33	S	172042	                  Rothia aeria
  0.00	3	1	G	1663	                Arthrobacter
  0.00	1	1	S	2020486	                  Arthrobacter sp. YN
  0.00	1	1	S	2565366	                  Arthrobacter sp. PAMC25564
  0.00	1	1	G	1269	                Micrococcus
  0.00	1	0	G	57493	                Kocuria
  0.00	1	1	S	1702043	                  Kocuria sp. BT304
  0.00	1	0	G	1868332	                Neomicrococcus
  0.00	1	1	S	556325	                  Neomicrococcus aestuarii
  0.00	4	0	F	85023	              Microbacteriaceae
  0.00	1	0	G	33882	                Microbacterium
  0.00	1	1	S	1714373	                  Microbacterium sp. No. 7
  0.00	1	0	G	55968	                Leucobacter
  0.00	1	1	S	1784719	                  Leucobacter triazinivorans
  0.00	1	0	G	69578	                Cryobacterium
  0.00	1	1	S	670052	                  Cryobacterium arcticum
  0.00	1	0	G	110932	                Leifsonia
  0.00	1	0	S	1575	                  Leifsonia xyli
  0.00	1	0	-	31966	                    Leifsonia xyli subsp. cynodontis
  0.00	1	1	-	1389489	                      Leifsonia xyli subsp. cynodontis DSM 46306
  0.00	2	0	F	85016	              Cellulomonadaceae
  0.00	2	1	G	1707	                Cellulomonas
  0.00	1	1	S	2003551	                  Cellulomonas sp. PSBB021
  0.00	2	0	-	577468	              unclassified Micrococcales
  0.00	2	0	G	2038	                Tropheryma
  0.00	2	0	S	2039	                  Tropheryma whipplei
  0.00	2	2	-	218496	                    Tropheryma whipplei TW08/27
  0.00	1	0	F	85017	              Promicromonosporaceae
  0.00	1	0	G	254250	                Isoptericola
  0.00	1	0	S	139208	                  Isoptericola variabilis
  0.00	1	1	-	743718	                    Isoptericola variabilis 225
  0.00	1	0	F	85018	              Dermatophilaceae
  0.00	1	0	G	1862	                Dermatophilus
  0.00	1	1	S	1863	                  Dermatophilus congolensis
  0.00	1	0	F	85019	              Brevibacteriaceae
  0.00	1	0	G	1696	                Brevibacterium
  0.00	1	1	S	2575923	                  Brevibacterium sp. CS2
  0.00	1	0	F	85021	              Intrasporangiaceae
  0.00	1	0	G	53457	                Janibacter
  0.00	1	1	S	857417	                  Janibacter indicus
  0.00	1	0	F	145357	              Dermacoccaceae
  0.00	1	0	G	57495	                Dermacoccus
  0.00	1	1	S	1274	                  Dermacoccus nishinomiyaensis
  0.00	1	0	F	145358	              Bogoriellaceae
  0.00	1	0	G	154116	                Georgenia
  0.00	1	1	S	2483799	                  Georgenia sp. ZLJ0423
  0.28	248	0	O	2037	            Actinomycetales
  0.28	248	1	F	2049	              Actinomycetaceae
  0.20	174	1	G	2529408	                Schaalia
  0.17	153	153	S	1660	                  Schaalia odontolytica
  0.02	18	18	S	52773	                  Schaalia meyeri
  0.00	2	0	S	181487	                  Schaalia cardiffensis
  0.00	2	2	-	888050	                    Schaalia cardiffensis F0333
  0.08	72	12	G	1654	                Actinomyces
  0.02	16	0	S	706438	                  Actinomyces sp. oral taxon 171
  0.02	16	16	-	706439	                    Actinomyces sp. oral taxon 171 str. F0337
  0.01	8	8	S	1655	                  Actinomyces naeslundii
  0.01	8	8	S	1656	                  Actinomyces viscosus
  0.01	7	7	S	544580	                  Actinomyces oris
  0.01	7	7	S	1852377	                  Actinomyces pacaensis
  0.00	3	3	S	111015	                  Actinomyces radicidentis
  0.00	3	3	S	712122	                  Actinomyces sp. oral taxon 414
  0.00	2	0	S	649739	                  Actinomyces sp. oral taxon 848
  0.00	2	2	-	649743	                    Actinomyces sp. oral taxon 848 str. F0332
  0.00	2	2	S	2079536	                  Actinomyces sp. Z16
  0.00	1	1	S	52771	                  Actinomyces howellii
  0.00	1	1	S	52774	                  Actinomyces slackii
  0.00	1	1	S	1851395	                  Actinomyces sp. Chiba101
  0.00	1	1	S	2560010	                  Actinomyces sp. dk561
  0.00	1	0	G	1522056	                Flaviflexus
  0.00	1	1	S	1282737	                  Flaviflexus salsibiostraticola
  0.03	30	0	O	85007	            Corynebacteriales
  0.02	18	0	F	1653	              Corynebacteriaceae
  0.02	18	0	G	1716	                Corynebacterium
  0.01	13	13	S	43768	                  Corynebacterium matruchotii
  0.00	1	1	S	1705	                  Corynebacterium stationis
  0.00	1	0	S	1727	                  Corynebacterium variabile
  0.00	1	1	-	858619	                    Corynebacterium variabile DSM 44702
  0.00	1	1	S	38289	                  Corynebacterium jeikeium
  0.00	1	0	S	42817	                  Corynebacterium argentoratense
  0.00	1	1	-	1348662	                    Corynebacterium argentoratense DSM 44202
  0.00	1	0	S	1121358	                  Corynebacterium doosanense
  0.00	1	1	-	558173	                    Corynebacterium doosanense CAU 212 = DSM 45436
  0.01	5	0	F	1762	              Mycobacteriaceae
  0.00	3	0	G	1763	                Mycobacterium
  0.00	2	0	S	120793	                  Mycobacterium avium complex (MAC)
  0.00	1	1	S	1764	                    Mycobacterium avium
  0.00	1	0	S	339268	                    Mycobacterium colombiense
  0.00	1	1	-	1041522	                      Mycobacterium colombiense CECT 3035
  0.00	1	1	S	1682113	                  Mycobacterium sp. YC-RL4
  0.00	1	0	G	670516	                Mycobacteroides
  0.00	1	1	S	404941	                  Mycobacteroides salmoniphilum
  0.00	1	0	G	1866885	                Mycolicibacterium
  0.00	1	0	S	110539	                  Mycolicibacterium vanbaalenii
  0.00	1	1	-	350058	                    Mycolicibacterium vanbaalenii PYR-1
  0.01	5	0	F	85025	              Nocardiaceae
  0.00	3	0	G	1827	                Rhodococcus
  0.00	2	2	S	1833	                  Rhodococcus erythropolis
  0.00	1	1	S	1990687	                  Rhodococcus sp. S2-17
  0.00	2	0	G	1817	                Nocardia
  0.00	1	1	S	37329	                  Nocardia farcinica
  0.00	1	1	S	37332	                  Nocardia seriolae
  0.00	1	0	F	85026	              Gordoniaceae
  0.00	1	0	G	2053	                Gordonia
  0.00	1	1	S	1004901	                  Gordonia iterans
  0.00	1	0	-	697024	              unclassified Corynebacteriales
  0.00	1	0	G	741759	                Tomitella
  0.00	1	1	S	2597660	                  Tomitella sp. HY188
  0.02	22	0	O	85010	            Pseudonocardiales
  0.02	22	0	F	2070	              Pseudonocardiaceae
  0.02	17	0	G	65496	                Actinoalloteichus
  0.02	17	17	S	2072503	                  Actinoalloteichus sp. AHMU CJ021
  0.00	2	0	G	1813	                Amycolatopsis
  0.00	1	1	S	33910	                  Amycolatopsis mediterranei
  0.00	1	1	S	129921	                  Amycolatopsis keratiniphila
  0.00	2	0	G	674734	                Alloactinosynnema
  0.00	2	2	S	1653480	                  Alloactinosynnema sp. L-07
  0.00	1	0	G	1835	                Saccharopolyspora
  0.00	1	0	S	1836	                  Saccharopolyspora erythraea
  0.00	1	1	-	405948	                    Saccharopolyspora erythraea NRRL 2338
  0.02	18	0	O	85009	            Propionibacteriales
  0.02	14	0	F	31957	              Propionibacteriaceae
  0.01	8	0	G	1912216	                Cutibacterium
  0.01	7	7	S	1747	                  Cutibacterium acnes
  0.00	1	0	S	33010	                  Cutibacterium avidum
  0.00	1	1	-	1170318	                    Cutibacterium avidum 44067
  0.00	3	0	G	1743	                Propionibacterium
  0.00	1	1	S	119981	                  Propionibacterium australiense
  0.00	1	1	S	556499	                  Propionibacterium acidifaciens
  0.00	1	1	S	671223	                  Propionibacterium sp. oral taxon 193
  0.00	3	0	G	72763	                Tessaracoccus
  0.00	2	2	S	1332264	                  Tessaracoccus aquimaris
  0.00	1	1	S	1610493	                  Tessaracoccus flavus
  0.00	4	0	F	85015	              Nocardioidaceae
  0.00	3	1	G	1839	                Nocardioides
  0.00	1	1	S	2518370	                  Nocardioides sp. MMS17-SY117
  0.00	1	1	S	2589074	                  Nocardioides sp. KUDC 5002
  0.00	1	0	G	2044	                Pimelobacter
  0.00	1	1	S	2045	                  Pimelobacter simplex
  0.01	11	0	O	85011	            Streptomycetales
  0.01	11	0	F	2062	              Streptomycetaceae
  0.01	11	1	G	1883	                Streptomyces
  0.00	1	1	S	1907	                  Streptomyces glaucescens
  0.00	1	1	S	1915	                  Streptomyces lincolnensis
  0.00	1	0	S	33903	                  Streptomyces avermitilis
  0.00	1	1	-	227882	                    Streptomyces avermitilis MA-4680 = NBRC 14893
  0.00	1	1	S	67304	                  Streptomyces griseorubiginosus
  0.00	1	0	S	68280	                  Streptomyces violaceusniger
  0.00	1	1	-	653045	                    Streptomyces violaceusniger Tu 4113
  0.00	1	1	S	193462	                  Streptomyces niveus
  0.00	1	1	S	362257	                  Streptomyces vietnamensis
  0.00	1	1	S	465541	                  Streptomyces sp. Mg1
  0.00	1	1	S	1827580	                  Streptomyces nigra
  0.00	1	1	S	1984801	                  Streptomyces sp. CLI2509
  0.00	4	0	O	85004	            Bifidobacteriales
  0.00	4	0	F	31953	              Bifidobacteriaceae
  0.00	2	1	G	1678	                Bifidobacterium
  0.00	1	1	S	1686	                  Bifidobacterium catenulatum
  0.00	2	0	G	2701	                Gardnerella
  0.00	2	2	S	2702	                  Gardnerella vaginalis
  0.00	3	0	O	85008	            Micromonosporales
  0.00	3	0	F	28056	              Micromonosporaceae
  0.00	1	0	G	1865	                Actinoplanes
  0.00	1	0	S	1866	                  Actinoplanes missouriensis
  0.00	1	1	-	512565	                    Actinoplanes missouriensis 431
  0.00	1	0	G	1873	                Micromonospora
  0.00	1	1	S	47850	                  Micromonospora aurantiaca
  0.00	1	0	G	84593	                Verrucosispora
  0.00	1	0	S	1003110	                  Verrucosispora maris
  0.00	1	1	-	263358	                    Verrucosispora maris AB-18-032
  0.00	1	0	O	85013	            Frankiales
  0.00	1	0	F	74712	              Frankiaceae
  0.00	1	0	G	1854	                Frankia
  0.00	1	1	S	298653	                  Frankia sp. EAN1pec
  0.00	1	0	O	2039638	            Candidatus Nanopelagicales
  0.00	1	0	F	2162846	              Candidatus Nanopelagicaceae
  0.00	1	0	G	622681	                Candidatus Planktophila
  0.00	1	1	S	1884905	                  Candidatus Planktophila versatilis
  0.02	15	0	C	84998	          Coriobacteriia
  0.02	15	0	O	84999	            Coriobacteriales
  0.02	14	0	F	1643824	              Atopobiaceae
  0.01	11	0	G	1380	                Atopobium
  0.01	11	0	S	1382	                  Atopobium parvulum
  0.01	11	11	-	521095	                    Atopobium parvulum DSM 20469
  0.00	3	0	G	133925	                Olsenella
  0.00	3	3	S	712411	                  Olsenella sp. oral taxon 807
  0.00	1	0	F	84107	              Coriobacteriaceae
  0.00	1	0	G	102106	                Collinsella
  0.00	1	1	S	74426	                  Collinsella aerofaciens
  0.00	1	0	C	1497346	          Thermoleophilia
  0.00	1	0	O	588673	            Solirubrobacterales
  0.00	1	0	F	320583	              Conexibacteraceae
  0.00	1	0	G	191494	                Conexibacter
  0.00	1	0	S	191495	                  Conexibacter woesei
  0.00	1	1	-	469383	                    Conexibacter woesei DSM 14684
  0.01	9	0	-	1798711	        Cyanobacteria/Melainabacteria group
  0.01	9	0	P	1117	          Cyanobacteria
  0.00	3	0	O	1161	            Nostocales
  0.00	2	0	F	1162	              Nostocaceae
  0.00	2	0	G	1163	                Anabaena
  0.00	1	0	S	1165	                  Anabaena cylindrica
  0.00	1	1	-	272123	                    Anabaena cylindrica PCC 7122
  0.00	1	1	S	1647413	                  Anabaena sp. WA102
  0.00	1	0	F	1892263	              Hapalosiphonaceae
  0.00	1	0	G	1190	                Fischerella
  0.00	1	1	S	1752063	                  Fischerella sp. NIES-3754
  0.00	3	0	-	1301283	            Oscillatoriophycideae
  0.00	3	0	O	1118	              Chroococcales
  0.00	2	0	F	1890450	                Aphanothecaceae
  0.00	1	0	G	28070	                  Gloeothece
  0.00	1	0	S	2546356	                    Gloeothece citriformis
  0.00	1	1	-	65393	                      Gloeothece citriformis PCC 7424
  0.00	1	0	G	2546365	                  Rippkaea
  0.00	1	0	S	2546366	                    Rippkaea orientalis
  0.00	1	1	-	395962	                      Rippkaea orientalis PCC 8802
  0.00	1	0	F	1890449	                Microcystaceae
  0.00	1	0	G	1125	                  Microcystis
  0.00	1	1	S	1967666	                    Microcystis sp. MC19
  0.00	2	0	O	1890424	            Synechococcales
  0.00	1	0	F	1890426	              Synechococcaceae
  0.00	1	0	G	1129	                Synechococcus
  0.00	1	1	S	321332	                  Synechococcus sp. JA-2-3B'a(2-13)
  0.00	1	0	F	2303730	              Prochlorotrichaceae
  0.00	1	0	G	170610	                Halomicronema
  0.00	1	0	S	1209493	                  Halomicronema hongdechloris
  0.00	1	1	-	1641165	                    Halomicronema hongdechloris C2206
  0.00	1	0	C	307596	            Gloeobacteria
  0.00	1	0	O	307595	              Gloeobacterales
  0.00	1	0	F	1890422	                Gloeobacteraceae
  0.00	1	0	G	33071	                  Gloeobacter
  0.00	1	0	S	1416614	                    Gloeobacter kilaueensis
  0.00	1	1	-	1183438	                      Gloeobacter kilaueensis JS1
  0.00	3	0	P	544448	        Tenericutes
  0.00	3	0	C	31969	          Mollicutes
  0.00	3	0	O	2085	            Mycoplasmatales
  0.00	3	0	F	2092	              Mycoplasmataceae
  0.00	3	1	G	2093	                Mycoplasma
  0.00	1	1	S	29556	                  Mycoplasma gallinaceum
  0.00	1	0	S	656088	                  Mycoplasma mycoides group
  0.00	1	0	S	2095	                    Mycoplasma capricolum
  0.00	1	0	-	40479	                      Mycoplasma capricolum subsp. capricolum
  0.00	1	1	-	340047	                        Mycoplasma capricolum subsp. capricolum ATCC 27343
  1.10	978	5	P	1224	      Proteobacteria
  0.58	514	4	C	1236	        Gammaproteobacteria
  0.50	448	0	O	135625	          Pasteurellales
  0.50	448	5	F	712	            Pasteurellaceae
  0.47	419	26	G	724	              Haemophilus
  0.35	310	232	S	729	                Haemophilus parainfluenzae
  0.09	78	78	-	862965	                  Haemophilus parainfluenzae T3T1
  0.07	66	63	S	727	                Haemophilus influenzae
  0.00	1	1	-	281310	                  Haemophilus influenzae 86-028NP
  0.00	1	1	-	935897	                  Haemophilus influenzae F3047
  0.00	1	1	-	1334187	                  Haemophilus influenzae KR494
  0.01	8	8	S	726	                Haemophilus haemolyticus
  0.01	5	5	S	249188	                Haemophilus pittmaniae
  0.00	3	3	S	712310	                Haemophilus sp. oral taxon 036
  0.00	1	1	S	197575	                Haemophilus aegyptius
  0.01	9	2	G	713	              Actinobacillus
  0.00	2	2	S	715	                Actinobacillus pleuropneumoniae
  0.00	2	2	S	716	                Actinobacillus suis
  0.00	2	2	S	189834	                Actinobacillus porcitonsillarum
  0.00	1	0	S	67854	                Actinobacillus succinogenes
  0.00	1	1	-	339671	                  Actinobacillus succinogenes 130Z
  0.00	4	0	G	416916	              Aggregatibacter
  0.00	2	2	S	732	                Aggregatibacter aphrophilus
  0.00	1	1	S	714	                Aggregatibacter actinomycetemcomitans
  0.00	1	0	S	739	                Aggregatibacter segnis
  0.00	1	1	-	888057	                  Aggregatibacter segnis ATCC 33393
  0.00	3	0	G	75984	              Mannheimia
  0.00	2	2	S	1432056	                Mannheimia sp. USDA-ARS-USMARC-1261
  0.00	1	1	S	75985	                Mannheimia haemolytica
  0.00	2	0	G	745	              Pasteurella
  0.00	2	2	S	747	                Pasteurella multocida
  0.00	2	0	G	214906	              Histophilus
  0.00	2	1	S	731	                Histophilus somni
  0.00	1	1	-	205914	                  Histophilus somni 129PT
  0.00	1	0	G	155493	              Gallibacterium
  0.00	1	0	S	750	                Gallibacterium anatis
  0.00	1	1	-	1005058	                  Gallibacterium anatis UMN179
  0.00	1	0	G	476528	              Bibersteinia
  0.00	1	1	S	47735	                Bibersteinia trehalosi
  0.00	1	0	G	697331	              Basfia
  0.00	1	0	S	157673	                [Mannheimia] succiniciproducens
  0.00	1	1	-	221988	                  [Mannheimia] succiniciproducens MBEL55E
  0.00	1	0	G	2094023	              Glaesserella
  0.00	1	1	S	738	                Glaesserella parasuis
  0.02	20	0	O	91347	          Enterobacterales
  0.01	11	2	F	543	            Enterobacteriaceae
  0.00	2	1	G	561	              Escherichia
  0.00	1	1	S	208962	                Escherichia albertii
  0.00	2	0	G	590	              Salmonella
  0.00	2	1	S	28901	                Salmonella enterica
  0.00	1	1	-	59201	                  Salmonella enterica subsp. enterica
  0.00	1	1	G	544	              Citrobacter
  0.00	1	0	G	547	              Enterobacter
  0.00	1	1	S	2051905	                Enterobacter sp. CRENT-193
  0.00	1	1	G	570	              Klebsiella
  0.00	1	0	G	1330545	              Lelliottia
  0.00	1	1	S	69220	                Lelliottia nimipressuralis
  0.00	1	0	G	1335483	              Shimwellia
  0.00	1	1	S	563	                Shimwellia blattae
  0.00	3	0	F	1903410	            Pectobacteriaceae
  0.00	2	0	G	204037	              Dickeya
  0.00	1	1	S	568768	                Dickeya sp. NCPPB 569
  0.00	1	1	S	1089444	                Dickeya solani
  0.00	1	0	G	71655	              Brenneria
  0.00	1	1	S	55210	                Brenneria nigrifluens
  0.00	3	0	F	1903414	            Morganellaceae
  0.00	2	0	G	586	              Providencia
  0.00	1	1	S	587	                Providencia rettgeri
  0.00	1	1	S	126385	                Providencia alcalifaciens
  0.00	1	0	G	626	              Xenorhabdus
  0.00	1	1	S	628	                Xenorhabdus nematophila
  0.00	2	0	F	1903411	            Yersiniaceae
  0.00	1	1	G	613	              Serratia
  0.00	1	0	G	1927833	              Candidatus Fukatsuia
  0.00	1	1	S	1878942	                Candidatus Fukatsuia symbiotica
  0.00	1	0	F	1903409	            Erwiniaceae
  0.00	1	0	G	2100764	              Mixta
  0.00	1	1	S	665913	                Mixta calida
  0.01	12	0	O	72274	          Pseudomonadales
  0.01	7	0	F	135621	            Pseudomonadaceae
  0.01	7	3	G	286	              Pseudomonas
  0.00	1	0	S	136841	                Pseudomonas aeruginosa group
  0.00	1	1	S	287	                  Pseudomonas aeruginosa
  0.00	1	0	S	136842	                Pseudomonas chlororaphis group
  0.00	1	1	S	296	                  Pseudomonas fragi
  0.00	1	1	S	2126069	                Pseudomonas sp. LBUM920
  0.00	1	1	S	2213226	                Pseudomonas sp. QZS01
  0.01	5	0	F	468	            Moraxellaceae
  0.00	4	2	G	469	              Acinetobacter
  0.00	1	1	S	106649	                Acinetobacter guillouiae
  0.00	1	1	S	1636603	                Acinetobacter sp. ACNIH1
  0.00	1	0	G	475	              Moraxella
  0.00	1	1	S	34062	                Moraxella osloensis
  0.01	11	0	O	135622	          Alteromonadales
  0.01	5	0	F	72275	            Alteromonadaceae
  0.00	3	0	G	2742	              Marinobacter
  0.00	1	0	S	2743	                Marinobacter hydrocarbonoclasticus
  0.00	1	1	-	351348	                  Marinobacter hydrocarbonoclasticus VT8
  0.00	1	1	S	1671721	                Marinobacter sp. CP1
  0.00	1	1	S	2488665	                Marinobacter sp. NP-4(2019)
  0.00	1	0	G	226	              Alteromonas
  0.00	1	1	S	2267264	                Alteromonas sp. RKMC-009
  0.00	1	0	G	288793	              Salinimonas
  0.00	1	1	S	914153	                Salinimonas lutimaris
  0.00	3	0	F	267888	            Pseudoalteromonadaceae
  0.00	3	1	G	53246	              Pseudoalteromonas
  0.00	1	1	S	288	                Pseudoalteromonas atlantica
  0.00	1	1	S	1709477	                Pseudoalteromonas sp. R3
  0.00	1	0	F	267890	            Shewanellaceae
  0.00	1	0	G	22	              Shewanella
  0.00	1	0	S	62322	                Shewanella baltica
  0.00	1	1	-	402882	                  Shewanella baltica OS185
  0.00	1	0	F	267893	            Idiomarinaceae
  0.00	1	0	G	135575	              Idiomarina
  0.00	1	1	S	135577	                Idiomarina loihiensis
  0.00	1	0	F	267894	            Psychromonadaceae
  0.00	1	0	G	67572	              Psychromonas
  0.00	1	1	S	314282	                Psychromonas sp. CNPT3
  0.01	7	0	O	135615	          Cardiobacteriales
  0.01	7	0	F	868	            Cardiobacteriaceae
  0.01	7	0	G	2717	              Cardiobacterium
  0.01	7	7	S	2718	                Cardiobacterium hominis
  0.00	3	0	O	135614	          Xanthomonadales
  0.00	2	0	F	32033	            Xanthomonadaceae
  0.00	1	0	G	338	              Xanthomonas
  0.00	1	1	S	48664	                Xanthomonas fragariae
  0.00	1	1	G	40323	              Stenotrophomonas
  0.00	1	0	F	1775411	            Rhodanobacteraceae
  0.00	1	0	G	231454	              Dyella
  0.00	1	1	S	2501295	                Dyella sp. M7H15-1
  0.00	2	0	O	118969	          Legionellales
  0.00	2	0	F	444	            Legionellaceae
  0.00	2	0	G	445	              Legionella
  0.00	1	1	S	450	                Legionella longbeachae
  0.00	1	0	S	96230	                Legionella fallonii
  0.00	1	1	-	1212491	                  Legionella fallonii LLAP-10
  0.00	2	0	O	135618	          Methylococcales
  0.00	2	0	F	403	            Methylococcaceae
  0.00	1	1	G	416	              Methylomonas
  0.00	1	1	G	39773	              Methylomicrobium
  0.00	2	0	O	135623	          Vibrionales
  0.00	2	0	F	641	            Vibrionaceae
  0.00	1	0	G	662	              Vibrio
  0.00	1	1	S	674	                Vibrio mimicus
  0.00	1	0	G	511678	              Aliivibrio
  0.00	1	1	S	80852	                Aliivibrio wodanis
  0.00	1	0	O	72273	          Thiotrichales
  0.00	1	0	F	34064	            Francisellaceae
  0.00	1	0	G	262	              Francisella
  0.00	1	1	S	263	                Francisella tularensis
  0.00	1	0	-	118884	          unclassified Gammaproteobacteria
  0.00	1	0	G	1524249	            Pseudohongiella
  0.00	1	1	S	1249552	              Pseudohongiella spirulinae
  0.00	1	0	O	135619	          Oceanospirillales
  0.00	1	0	F	28256	            Halomonadaceae
  0.00	1	0	G	2745	              Halomonas
  0.00	1	0	S	2746	                Halomonas elongata
  0.00	1	1	-	768066	                  Halomonas elongata DSM 2581
  0.32	286	0	C	28216	        Betaproteobacteria
  0.28	248	0	O	206351	          Neisseriales
  0.28	248	0	F	481	            Neisseriaceae
  0.28	245	23	G	482	              Neisseria
  0.15	137	137	S	28449	                Neisseria subflava
  0.04	34	34	S	484	                Neisseria flavescens
  0.02	16	16	S	488	                Neisseria mucosa
  0.01	13	10	S	487	                Neisseria meningitidis
  0.00	1	0	-	491	                  Neisseria meningitidis serogroup B
  0.00	1	1	-	122586	                    Neisseria meningitidis MC58
  0.00	1	0	-	135720	                  Neisseria meningitidis serogroup C
  0.00	1	1	-	374833	                    Neisseria meningitidis 053442
  0.00	1	1	-	935588	                  Neisseria meningitidis M01-240355
  0.01	12	12	S	495	                Neisseria elongata
  0.00	4	4	S	486	                Neisseria lactamica
  0.00	3	3	S	483	                Neisseria cinerea
  0.00	2	2	S	655307	                Neisseria sp. KEM232
  0.00	1	1	S	485	                Neisseria gonorrhoeae
  0.00	2	0	G	538	              Eikenella
  0.00	2	2	S	539	                Eikenella corrodens
  0.00	1	0	G	71	              Simonsiella
  0.00	1	0	S	72	                Simonsiella muelleri
  0.00	1	1	-	641147	                  Simonsiella muelleri ATCC 29453
  0.04	36	2	O	80840	          Burkholderiales
  0.03	26	0	F	119060	            Burkholderiaceae
  0.02	19	0	G	47670	              Lautropia
  0.02	19	19	S	47671	                Lautropia mirabilis
  0.00	3	1	G	106589	              Cupriavidus
  0.00	2	2	S	876364	                Cupriavidus sp. USMAA2-4
  0.00	2	0	G	48736	              Ralstonia
  0.00	1	1	S	329	                Ralstonia pickettii
  0.00	1	1	S	190721	                Ralstonia insidiosa
  0.00	1	0	G	93217	              Pandoraea
  0.00	1	1	S	93218	                Pandoraea apista
  0.00	1	1	G	1822464	              Paraburkholderia
  0.00	4	0	F	80864	            Comamonadaceae
  0.00	2	0	G	12916	              Acidovorax
  0.00	1	1	S	232721	                Acidovorax sp. JS42
  0.00	1	0	S	721785	                Acidovorax ebreus
  0.00	1	1	-	535289	                  Acidovorax ebreus TPSY
  0.00	1	0	G	283	              Comamonas
  0.00	1	1	S	363952	                Comamonas thiooxydans
  0.00	1	0	G	219181	              Ottowia
  0.00	1	1	S	1658672	                Ottowia sp. oral taxon 894
  0.00	3	0	F	506	            Alcaligenaceae
  0.00	1	0	G	222	              Achromobacter
  0.00	1	0	S	85698	                Achromobacter xylosoxidans
  0.00	1	1	-	762376	                  Achromobacter xylosoxidans A8
  0.00	1	0	G	507	              Alcaligenes
  0.00	1	1	S	323284	                Alcaligenes aquatilis
  0.00	1	1	G	29574	              Taylorella
  0.00	1	0	F	75682	            Oxalobacteraceae
  0.00	1	0	G	963	              Herbaspirillum
  0.00	1	0	S	80842	                Herbaspirillum rubrisubalbicans
  0.00	1	1	-	1078773	                  Herbaspirillum rubrisubalbicans M1
  0.00	1	0	O	32003	          Nitrosomonadales
  0.00	1	0	F	32011	            Methylophilaceae
  0.00	1	0	G	1679002	              Candidatus Methylopumilus
  0.00	1	1	S	1581680	                Candidatus Methylopumilus turicensis
  0.00	1	0	O	206389	          Rhodocyclales
  0.00	1	0	F	2008794	            Zoogloeaceae
  0.00	1	0	G	33057	              Thauera
  0.00	1	1	S	85643	                Thauera sp. MZ1T
  0.16	146	0	-	68525	        delta/epsilon subdivisions
  0.15	137	0	C	29547	          Epsilonproteobacteria
  0.15	137	0	O	213849	            Campylobacterales
  0.15	136	0	F	72294	              Campylobacteraceae
  0.15	135	1	G	194	                Campylobacter
  0.14	123	62	S	199	                  Campylobacter concisus
  0.07	61	61	-	360104	                    Campylobacter concisus 13826
  0.01	5	5	S	204	                  Campylobacter showae
  0.00	3	3	S	824	                  Campylobacter gracilis
  0.00	2	0	S	488546	                  Campylobacter peloridis
  0.00	2	2	-	1388753	                    Campylobacter peloridis LMG 23910
  0.00	1	0	S	76517	                  Campylobacter hominis
  0.00	1	1	-	360107	                    Campylobacter hominis ATCC BAA-381
  0.00	1	0	-	2321108	                Arcobacter group
  0.00	1	0	G	28196	                  Arcobacter
  0.00	1	1	S	197482	                    Arcobacter halophilus
  0.00	1	0	F	72293	              Helicobacteraceae
  0.00	1	0	G	209	                Helicobacter
  0.00	1	1	S	210	                  Helicobacter pylori
  0.01	9	0	C	28221	          Deltaproteobacteria
  0.01	5	0	O	29	            Myxococcales
  0.00	4	0	-	80811	              Cystobacterineae
  0.00	3	0	F	31	                Myxococcaceae
  0.00	3	0	G	32	                  Myxococcus
  0.00	1	1	S	34	                    Myxococcus xanthus
  0.00	1	1	S	35	                    Myxococcus macrosporus
  0.00	1	1	S	1297742	                    Myxococcus hansupus
  0.00	1	0	F	1524215	                Anaeromyxobacteraceae
  0.00	1	0	G	161492	                  Anaeromyxobacter
  0.00	1	1	S	447217	                    Anaeromyxobacter sp. K
  0.00	1	0	-	224462	              Nannocystineae
  0.00	1	0	F	224464	                Kofleriaceae
  0.00	1	0	G	162027	                  Haliangium
  0.00	1	0	S	80816	                    Haliangium ochraceum
  0.00	1	1	-	502025	                      Haliangium ochraceum DSM 14365
  0.00	2	0	O	213115	            Desulfovibrionales
  0.00	2	0	F	194924	              Desulfovibrionaceae
  0.00	1	0	G	41707	                Lawsonia
  0.00	1	1	S	29546	                  Lawsonia intracellularis
  0.00	1	0	G	2035811	                Pseudodesulfovibrio
  0.00	1	0	S	182210	                  Pseudodesulfovibrio aespoeensis
  0.00	1	1	-	643562	                    Pseudodesulfovibrio aespoeensis Aspo-2
  0.00	1	0	O	213118	            Desulfobacterales
  0.00	1	0	F	213121	              Desulfobulbaceae
  0.00	1	0	G	53318	                Desulfocapsa
  0.00	1	0	S	65555	                  Desulfocapsa sulfexigens
  0.00	1	1	-	1167006	                    Desulfocapsa sulfexigens DSM 10523
  0.00	1	0	O	1779134	            Bradymonadales
  0.00	1	0	-	2099666	              unclassified Bradymonadales
  0.00	1	1	S	2292766	                Bradymonadales bacterium YN101
  0.03	26	1	C	28211	        Alphaproteobacteria
  0.01	13	0	O	356	          Rhizobiales
  0.01	5	0	F	82115	            Rhizobiaceae
  0.00	4	0	-	227290	              Rhizobium/Agrobacterium group
  0.00	2	0	G	357	                Agrobacterium
  0.00	1	1	S	359	                  Agrobacterium rhizogenes
  0.00	1	0	S	1183400	                  Agrobacterium tumefaciens complex
  0.00	1	1	S	358	                    Agrobacterium tumefaciens
  0.00	2	0	G	379	                Rhizobium
  0.00	1	1	S	396	                  Rhizobium phaseoli
  0.00	1	1	S	2048897	                  Rhizobium sp. NXC24
  0.00	1	0	-	227292	              Sinorhizobium/Ensifer group
  0.00	1	0	G	28105	                Sinorhizobium
  0.00	1	1	S	382	                  Sinorhizobium meliloti
  0.00	2	0	F	41294	            Bradyrhizobiaceae
  0.00	2	0	G	374	              Bradyrhizobium
  0.00	1	1	S	1404768	                Bradyrhizobium sp. 2 39S1MB
  0.00	1	1	S	2057741	                Bradyrhizobium sp. SK17
  0.00	2	0	F	45401	            Hyphomicrobiaceae
  0.00	1	0	G	29407	              Rhodoplanes
  0.00	1	1	S	674703	                Rhodoplanes sp. Z2-YC6860
  0.00	1	0	G	59282	              Blastochloris
  0.00	1	1	S	1079	                Blastochloris viridis
  0.00	2	0	F	119045	            Methylobacteriaceae
  0.00	2	0	G	2282523	              Methylorubrum
  0.00	1	1	S	408	                Methylorubrum extorquens
  0.00	1	1	S	29429	                Methylorubrum zatmanii
  0.00	1	0	F	255475	            Aurantimonadaceae
  0.00	1	0	G	414371	              Aureimonas
  0.00	1	1	S	1349819	                Aureimonas sp. AU20
  0.00	1	0	F	335928	            Xanthobacteraceae
  0.00	1	0	G	152053	              Starkeya
  0.00	1	0	S	921	                Starkeya novella
  0.00	1	1	-	639283	                  Starkeya novella DSM 506
  0.00	4	0	O	204455	          Rhodobacterales
  0.00	4	1	F	31989	            Rhodobacteraceae
  0.00	1	0	G	265	              Paracoccus
  0.00	1	1	S	2500532	                Paracoccus sp. Arc7-R13
  0.00	1	0	G	1060	              Rhodobacter
  0.00	1	1	S	1063	                Rhodobacter sphaeroides
  0.00	1	0	G	191028	              Leisingera
  0.00	1	0	S	133924	                Leisingera methylohalidivorans
  0.00	1	1	-	999552	                  Leisingera methylohalidivorans DSM 14336
  0.00	4	0	O	204457	          Sphingomonadales
  0.00	4	0	F	41297	            Sphingomonadaceae
  0.00	1	0	G	13687	              Sphingomonas
  0.00	1	1	S	1390395	                Sphingomonas sp. LK11
  0.00	1	0	G	72173	              Citromicrobium
  0.00	1	1	S	1634516	                Citromicrobium sp. JL477
  0.00	1	0	G	165695	              Sphingobium
  0.00	1	0	S	332056	                Sphingobium japonicum
  0.00	1	1	-	452662	                  Sphingobium japonicum UT26S
  0.00	1	1	G	165697	              Sphingopyxis
  0.00	2	0	O	204441	          Rhodospirillales
  0.00	1	0	F	433	            Acetobacteraceae
  0.00	1	1	G	522	              Acidiphilium
  0.00	1	0	F	41295	            Rhodospirillaceae
  0.00	1	0	G	191	              Azospirillum
  0.00	1	1	S	682998	                Azospirillum sp. M2T2B2
  0.00	1	0	O	766	          Rickettsiales
  0.00	1	0	F	942	            Anaplasmataceae
  0.00	1	0	G	943	              Ehrlichia
  0.00	1	0	S	106178	                canis group
  0.00	1	1	S	945	                  Ehrlichia chaffeensis
  0.00	1	0	O	204458	          Caulobacterales
  0.00	1	0	F	76892	            Caulobacteraceae
  0.00	1	0	G	75	              Caulobacter
  0.00	1	1	S	69666	                Caulobacter mirabilis
  0.00	1	0	C	1553900	        Oligoflexia
  0.00	1	0	O	2024979	          Bacteriovoracales
  0.00	1	0	F	1652132	            Halobacteriovoraceae
  0.00	1	0	G	1652133	              Halobacteriovorax
  0.00	1	1	S	97084	                Halobacteriovorax marinus
  0.85	755	0	-	1783270	      FCB group
  0.85	755	0	-	68336	        Bacteroidetes/Chlorobi group
  0.85	755	2	P	976	          Bacteroidetes
  0.80	709	0	C	200643	            Bacteroidia
  0.80	708	8	O	171549	              Bacteroidales
  0.76	675	0	F	171552	                Prevotellaceae
  0.76	675	38	G	838	                  Prevotella
  0.32	284	284	S	1177574	                    Prevotella jejuni
  0.28	247	247	S	28132	                    Prevotella melaninogenica
  0.03	29	26	S	28131	                    Prevotella intermedia
  0.00	3	3	-	1122984	                      Prevotella intermedia ATCC 25611 = DSM 20706
  0.02	20	0	S	652716	                    Prevotella sp. oral taxon 299
  0.02	20	20	-	575614	                      Prevotella sp. oral taxon 299 str. F0039
  0.02	18	0	S	589436	                    Prevotella fusca
  0.02	18	18	-	1236517	                      Prevotella fusca JCM 17724
  0.02	15	11	S	28129	                    Prevotella denticola
  0.00	4	4	-	767031	                      Prevotella denticola F0289
  0.02	15	15	S	28135	                    Prevotella oris
  0.01	7	7	S	76123	                    Prevotella enoeca
  0.00	1	0	S	839	                    Prevotella ruminicola
  0.00	1	1	-	264731	                      Prevotella ruminicola 23
  0.00	1	0	S	52227	                    Prevotella dentalis
  0.00	1	1	-	908937	                      Prevotella dentalis DSM 3688
  0.02	14	0	F	815	                Bacteroidaceae
  0.02	14	0	G	816	                  Bacteroides
  0.00	3	3	S	817	                    Bacteroides fragilis
  0.00	3	1	S	818	                    Bacteroides thetaiotaomicron
  0.00	2	2	-	226186	                      Bacteroides thetaiotaomicron VPI-5482
  0.00	2	2	S	28119	                    Bacteroides zoogleoformans
  0.00	2	0	S	357276	                    Bacteroides dorei
  0.00	2	2	-	997877	                      Bacteroides dorei CL03T12C01
  0.00	1	1	S	28116	                    Bacteroides ovatus
  0.00	1	1	S	371601	                    Bacteroides xylanisolvens
  0.00	1	0	S	376805	                    Bacteroides salanitronis
  0.00	1	1	-	667015	                      Bacteroides salanitronis DSM 18170
  0.00	1	1	S	1796613	                    Bacteroides caecimuris
  0.01	6	0	F	2005525	                Tannerellaceae
  0.01	5	0	G	195950	                  Tannerella
  0.00	3	2	S	28112	                    Tannerella forsythia
  0.00	1	1	-	1307832	                      Tannerella forsythia 3313
  0.00	2	2	S	712710	                    Tannerella sp. oral taxon HOT-286
  0.00	1	1	G	375288	                  Parabacteroides
  0.00	4	0	F	171551	                Porphyromonadaceae
  0.00	4	0	G	836	                  Porphyromonas
  0.00	3	2	S	837	                    Porphyromonas gingivalis
  0.00	1	1	-	242619	                      Porphyromonas gingivalis W83
  0.00	1	1	S	393921	                    Porphyromonas crevioricanis
  0.00	1	0	F	1853231	                Odoribacteraceae
  0.00	1	0	G	283168	                  Odoribacter
  0.00	1	1	S	28118	                    Odoribacter splanchnicus
  0.00	1	0	O	1970189	              Marinilabiliales
  0.00	1	0	F	1970190	                Salinivirgaceae
  0.00	1	0	G	1970191	                  Salinivirga
  0.00	1	1	S	1307839	                    Salinivirga cyanobacteriivorans
  0.04	37	0	C	117743	            Flavobacteriia
  0.04	37	0	O	200644	              Flavobacteriales
  0.04	35	1	F	49546	                Flavobacteriaceae
  0.02	18	0	G	1016	                  Capnocytophaga
  0.01	5	5	S	327575	                    Capnocytophaga leadbetteri
  0.00	4	4	S	1017	                    Capnocytophaga gingivalis
  0.00	4	4	S	45243	                    Capnocytophaga haemolytica
  0.00	3	3	S	209053	                    Capnocytophaga sp. ChDC OS43
  0.00	1	1	S	1019	                    Capnocytophaga sputigena
  0.00	1	1	S	1705617	                    Capnocytophaga sp. oral taxon 323
  0.00	4	0	G	237	                  Flavobacterium
  0.00	1	0	S	55197	                    Flavobacterium branchiophilum
  0.00	1	1	-	1034807	                      Flavobacterium branchiophilum FL-15
  0.00	1	1	S	1355330	                    Flavobacterium faecale
  0.00	1	1	S	2294119	                    Flavobacterium sp. CJ74
  0.00	1	1	S	2478552	                    Flavobacterium sp. 140616W15
  0.00	3	0	G	308865	                  Elizabethkingia
  0.00	2	2	S	238	                    Elizabethkingia meningoseptica
  0.00	1	1	S	1756149	                    Elizabethkingia bruuniana
  0.00	2	0	G	2058174	                  Antarcticibacterium
  0.00	1	1	S	2058175	                    Antarcticibacterium flavum
  0.00	1	1	S	2585771	                    Antarcticibacterium sp. PAMC 28998
  0.00	1	0	G	59732	                  Chryseobacterium
  0.00	1	1	S	2487065	                    Chryseobacterium sp. G0201
  0.00	1	1	G	76831	                  Myroides
  0.00	1	0	G	104267	                  Tenacibaculum
  0.00	1	1	S	669041	                    Tenacibaculum dicentrarchi
  0.00	1	0	G	111500	                  Muricauda
  0.00	1	0	S	111501	                    Muricauda ruestringensis
  0.00	1	1	-	886377	                      Muricauda ruestringensis DSM 13258
  0.00	1	0	G	252356	                  Maribacter
  0.00	1	1	S	1178778	                    Maribacter cobaltidurans
  0.00	1	0	G	290174	                  Aquimarina
  0.00	1	1	S	1714848	                    Aquimarina sp. AD1
  0.00	1	0	G	363408	                  Nonlabens
  0.00	1	1	S	2058134	                    Nonlabens sp. MB-3u-79
  0.00	1	0	F	39782	                Blattabacteriaceae
  0.00	1	0	G	34098	                  Blattabacterium
  0.00	1	0	S	1653831	                    Blattabacterium cuenoti
  0.00	1	1	-	1457030	                      Blattabacterium cuenoti STAT
  0.00	1	0	-	313602	                unclassified Flavobacteriales
  0.00	1	0	G	1940138	                  Candidatus Walczuchella
  0.00	1	1	S	1415657	                    Candidatus Walczuchella monophlebidarum
  0.00	4	0	C	768503	            Cytophagia
  0.00	4	0	O	768507	              Cytophagales
  0.00	3	0	F	563798	                Cyclobacteriaceae
  0.00	1	0	G	232244	                  Belliella
  0.00	1	0	S	232259	                    Belliella baltica
  0.00	1	1	-	866536	                      Belliella baltica DSM 15883
  0.00	1	0	G	246875	                  Algoriphagus
  0.00	1	1	S	1727163	                    Algoriphagus sp. M8-2
  0.00	1	0	G	390846	                  Echinicola
  0.00	1	1	S	1807691	                    Echinicola rosea
  0.00	1	0	F	1853232	                Hymenobacteraceae
  0.00	1	0	G	89966	                  Hymenobacter
  0.00	1	1	S	2319843	                    Hymenobacter sp. sh-6
  0.00	2	0	C	1853228	            Chitinophagia
  0.00	2	0	O	1853229	              Chitinophagales
  0.00	2	0	F	563835	                Chitinophagaceae
  0.00	1	0	G	79328	                  Chitinophaga
  0.00	1	1	S	79329	                    Chitinophaga pinensis
  0.00	1	0	G	1860196	                  Pseudobacter
  0.00	1	1	S	661488	                    Pseudobacter ginsenosidimutans
  0.00	1	0	C	117747	            Sphingobacteriia
  0.00	1	0	O	200666	              Sphingobacteriales
  0.00	1	0	F	84566	                Sphingobacteriaceae
  0.00	1	0	G	84567	                  Pedobacter
  0.00	1	1	S	2578106	                    Pedobacter sp. KBS0701
  0.02	18	0	P	32066	      Fusobacteria
  0.02	18	0	C	203490	        Fusobacteriia
  0.02	18	0	O	203491	          Fusobacteriales
  0.01	10	0	F	203492	            Fusobacteriaceae
  0.01	10	1	G	848	              Fusobacterium
  0.01	8	8	S	860	                Fusobacterium periodonticum
  0.00	1	0	S	851	                Fusobacterium nucleatum
  0.00	1	1	-	76857	                  Fusobacterium nucleatum subsp. polymorphum
  0.01	8	0	F	1129771	            Leptotrichiaceae
  0.01	8	0	G	32067	              Leptotrichia
  0.01	5	5	S	157687	                Leptotrichia wadei
  0.00	1	0	S	40542	                Leptotrichia buccalis
  0.00	1	1	-	523794	                  Leptotrichia buccalis C-1013-b
  0.00	1	1	S	109328	                Leptotrichia trevisanii
  0.00	1	1	S	157692	                Leptotrichia goodfellowii
  0.01	6	0	-	2323	      unclassified Bacteria
  0.01	6	0	-	1783234	        Bacteria candidate phyla
  0.01	5	2	P	95818	          Candidatus Saccharibacteria
  0.00	2	2	S	2572088	            TM7 phylum sp. oral taxon 957
  0.00	1	0	G	1331051	            Candidatus Saccharimonas
  0.00	1	1	S	1332188	              Candidatus Saccharimonas aalborgensis
  0.00	1	0	P	67810	          Candidatus Bipolaricaulota
  0.00	1	0	G	2250122	            Candidatus Bipolaricaulis
  0.00	1	1	S	2026885	              Candidatus Bipolaricaulis anaerobius
  0.01	5	0	-	1783257	      PVC group
  0.00	3	0	P	204428	        Chlamydiae
  0.00	3	0	C	204429	          Chlamydiia
  0.00	2	0	O	1963360	            Parachlamydiales
  0.00	2	0	F	92713	              Parachlamydiaceae
  0.00	1	0	G	83551	                Parachlamydia
  0.00	1	0	S	83552	                  Parachlamydia acanthamoebae
  0.00	1	1	-	765952	                    Parachlamydia acanthamoebae UV-7
  0.00	1	0	G	112987	                Neochlamydia
  0.00	1	1	S	1353976	                  Neochlamydia sp. S13
  0.00	1	0	O	51291	            Chlamydiales
  0.00	1	0	F	809	              Chlamydiaceae
  0.00	1	0	-	1113537	                Chlamydia/Chlamydophila group
  0.00	1	0	G	810	                  Chlamydia
  0.00	1	1	S	813	                    Chlamydia trachomatis
  0.00	1	0	P	74201	        Verrucomicrobia
  0.00	1	0	C	203494	          Verrucomicrobiae
  0.00	1	0	O	48461	            Verrucomicrobiales
  0.00	1	0	F	1647988	              Akkermansiaceae
  0.00	1	0	G	239934	                Akkermansia
  0.00	1	1	S	239935	                  Akkermansia muciniphila
  0.00	1	0	P	203682	        Planctomycetes
  0.00	1	0	C	203683	          Planctomycetia
  0.00	1	0	O	112	            Planctomycetales
  0.00	1	0	F	126	              Planctomycetaceae
  0.00	1	0	G	1936111	                Fuerstia
  0.00	1	1	S	1891926	                  Fuerstia marisgermanicae
  0.00	4	0	P	200918	      Thermotogae
  0.00	4	0	C	188708	        Thermotogae
  0.00	2	0	O	2419	          Thermotogales
  0.00	2	0	F	1643950	            Fervidobacteriaceae
  0.00	1	0	G	2420	              Thermosipho
  0.00	1	0	S	2421	                Thermosipho africanus
  0.00	1	1	-	484019	                  Thermosipho africanus TCF52B
  0.00	1	0	G	2422	              Fervidobacterium
  0.00	1	1	S	93466	                Fervidobacterium pennivorans
  0.00	1	0	O	1643946	          Kosmotogales
  0.00	1	0	F	1643948	            Kosmotogaceae
  0.00	1	0	G	651456	              Kosmotoga
  0.00	1	1	S	1330330	                Kosmotoga pacifica
  0.00	1	0	O	1643947	          Petrotogales
  0.00	1	0	F	1643949	            Petrotogaceae
  0.00	1	0	G	28236	              Petrotoga
  0.00	1	0	S	69499	                Petrotoga mobilis
  0.00	1	1	-	403833	                  Petrotoga mobilis SJ95
  0.00	4	0	P	203691	      Spirochaetes
  0.00	4	0	C	203692	        Spirochaetia
  0.00	3	0	O	136	          Spirochaetales
  0.00	3	0	F	137	            Spirochaetaceae
  0.00	2	0	G	157	              Treponema
  0.00	1	1	S	221027	                Treponema putidum
  0.00	1	1	S	1539298	                Treponema sp. OMZ 838
  0.00	1	0	G	399320	              Sphaerochaeta
  0.00	1	0	S	273376	                Sphaerochaeta coccoides
  0.00	1	1	-	760011	                  Sphaerochaeta coccoides DSM 17374
  0.00	1	0	O	1643686	          Brachyspirales
  0.00	1	0	F	143786	            Brachyspiraceae
  0.00	1	0	G	29521	              Brachyspira
  0.00	1	1	S	52584	                Brachyspira pilosicoli
  0.00	1	0	-	2498710	      Caldiserica/Cryosericota group
  0.00	1	0	P	67814	        Caldiserica
  0.00	1	0	C	693071	          Caldisericia
  0.00	1	0	O	693072	            Caldisericales
  0.00	1	0	F	693073	              Caldisericaceae
  0.00	1	0	G	693074	                Caldisericum
  0.00	1	0	S	693075	                  Caldisericum exile
  0.00	1	1	-	511051	                    Caldisericum exile AZM16c01
  0.00	4	0	D	2157	    Archaea
  0.00	4	0	P	28890	      Euryarchaeota
  0.00	3	0	-	2290931	        Stenosarchaea group
  0.00	2	0	C	224756	          Methanomicrobia
  0.00	1	0	O	2191	            Methanomicrobiales
  0.00	1	0	F	1198451	              Methanoregulaceae
  0.00	1	0	G	395331	                Methanoregula
  0.00	1	0	S	882104	                  Methanoregula formicica
  0.00	1	1	-	593750	                    Methanoregula formicica SMSP
  0.00	1	0	O	94695	            Methanosarcinales
  0.00	1	0	F	2206	              Methanosarcinaceae
  0.00	1	0	G	2207	                Methanosarcina
  0.00	1	1	S	1434100	                  Methanosarcina sp. MTP4
  0.00	1	0	C	183963	          Halobacteria
  0.00	1	0	O	1644060	            Natrialbales
  0.00	1	0	F	1644061	              Natrialbaceae
  0.00	1	0	G	387342	                Halopiger
  0.00	1	0	S	387343	                  Halopiger xanaduensis
  0.00	1	1	-	797210	                    Halopiger xanaduensis SH-6
  0.00	1	0	C	183968	        Thermococci
  0.00	1	0	O	2258	          Thermococcales
  0.00	1	0	F	2259	            Thermococcaceae
  0.00	1	0	G	2263	              Thermococcus
  0.00	1	1	S	1505907	                Thermococcus eurythermalis
  0.02	15	0	D	10239	  Viruses
  0.01	11	0	O	28883	    Caudovirales
  0.01	6	0	F	10744	      Podoviridae
  0.01	5	0	-	542836	        Picovirinae
  0.01	5	3	G	1982583	          Cepunavirus
  0.00	2	0	S	1982584	            Streptococcus virus Cp1
  0.00	2	2	-	10747	              Streptococcus phage Cp-1
  0.00	1	0	-	196895	        unclassified Podoviridae
  0.00	1	1	S	1406780	          Acinetobacter phage Presley
  0.00	4	0	F	10699	      Siphoviridae
  0.00	1	0	-	196894	        unclassified Siphoviridae
  0.00	1	1	S	1109711	          Nocardia phage NBR1
  0.00	1	0	G	1623304	        Moineauvirus
  0.00	1	1	S	90410	          Streptococcus virus DT1
  0.00	1	0	G	1921122	        Nonanavirus
  0.00	1	0	-	2315205	          unclassified Nonanavirus
  0.00	1	1	S	1969841	            Proteus phage VB_PmiS-Isfahan
  0.00	1	1	G	1982367	        Pepyhexavirus
  0.00	1	0	F	10662	      Myoviridae
  0.00	1	0	-	196896	        unclassified Myoviridae
  0.00	1	1	S	12402	          Streptococcus phage EJ-1
  0.00	2	0	O	548681	    Herpesvirales
  0.00	2	0	F	10292	      Herpesviridae
  0.00	2	0	-	10357	        Betaherpesvirinae
  0.00	2	0	G	40272	          Roseolovirus
  0.00	2	2	S	10372	            Human betaherpesvirus 7
  0.00	1	0	O	2169561	    Ortervirales
  0.00	1	0	F	11632	      Retroviridae
  0.00	1	0	-	35276	        unclassified Retroviridae
  0.00	1	0	-	206037	          Human endogenous retroviruses
  0.00	1	0	S	45617	            Human endogenous retrovirus K
  0.00	1	1	-	166122	              Human endogenous retrovirus K113
  0.00	1	0	-	2559587	    Riboviria
  0.00	1	0	P	2497569	      Negarnaviricota
  0.00	1	0	-	2497570	        Haploviricotina
  0.00	1	0	C	2497574	          Monjiviricetes
  0.00	1	0	O	11157	            Mononegavirales
  0.00	1	0	F	11270	              Rhabdoviridae
  0.00	1	0	G	11306	                Nucleorhabdovirus
  0.00	1	1	S	195059	                  Datura yellow vein nucleorhabdovirus
