 12.14	9163	9163	U	0	unclassified
 87.86	66296	32	-	1	root
 87.80	66251	0	-	131567	  cellular organisms
 60.64	45760	1	D	2759	    Eukaryota
 60.64	45758	0	-	33154	      Opisthokonta
 60.62	45741	0	K	33208	        Metazoa
 60.62	45741	0	-	6072	          Eumetazoa
 60.62	45741	0	-	33213	            Bilateria
 60.62	45741	0	-	33511	              Deuterostomia
 60.62	45741	0	P	7711	                Chordata
 60.62	45741	0	-	89593	                  Craniata
 60.62	45741	0	-	7742	                    Vertebrata
 60.62	45741	0	-	7776	                      Gnathostomata
 60.62	45741	0	-	117570	                        Teleostomi
 60.62	45741	0	-	117571	                          Euteleostomi
 60.62	45741	0	-	8287	                            Sarcopterygii
 60.62	45741	0	-	1338369	                              Dipnotetrapodomorpha
 60.62	45741	0	-	32523	                                Tetrapoda
 60.62	45741	0	-	32524	                                  Amniota
 60.62	45741	0	C	40674	                                    Mammalia
 60.62	45741	0	-	32525	                                      Theria
 60.62	45741	0	-	9347	                                        Eutheria
 60.62	45741	0	-	1437010	                                          Boreoeutheria
 60.62	45741	0	-	314146	                                            Euarchontoglires
 60.62	45741	0	O	9443	                                              Primates
 60.62	45741	0	-	376913	                                                Haplorrhini
 60.62	45741	0	-	314293	                                                  Simiiformes
 60.62	45741	0	-	9526	                                                    Catarrhini
 60.62	45741	0	-	314295	                                                      Hominoidea
 60.62	45741	0	F	9604	                                                        Hominidae
 60.62	45741	0	-	207598	                                                          Homininae
 60.62	45741	0	G	9605	                                                            Homo
 60.62	45741	45741	S	9606	                                                              Homo sapiens
  0.02	17	0	K	4751	        Fungi
  0.02	17	0	-	451864	          Dikarya
  0.02	15	1	P	4890	            Ascomycota
  0.02	13	0	-	716545	              saccharomyceta
  0.01	11	0	-	147538	                Pezizomycotina
  0.01	11	0	-	716546	                  leotiomyceta
  0.01	11	0	-	715989	                    sordariomyceta
  0.01	8	0	C	147550	                      Sordariomycetes
  0.01	4	0	-	222543	                        Hypocreomycetidae
  0.00	2	0	O	5125	                          Hypocreales
  0.00	2	0	F	110618	                            Nectriaceae
  0.00	2	1	G	5506	                              Fusarium
  0.00	1	0	S	569360	                                Fusarium sambucinum species complex
  0.00	1	1	S	56646	                                  Fusarium venenatum
  0.00	2	0	O	1028384	                          Glomerellales
  0.00	2	0	F	681950	                            Glomerellaceae
  0.00	2	0	G	5455	                              Colletotrichum
  0.00	2	0	S	80884	                                Colletotrichum higginsianum
  0.00	2	2	-	759273	                                  Colletotrichum higginsianum IMI 349063
  0.01	4	0	-	222544	                        Sordariomycetidae
  0.00	3	0	O	5139	                          Sordariales
  0.00	3	0	F	35718	                            Chaetomiaceae
  0.00	2	0	G	35719	                              Thielavia
  0.00	2	0	S	35720	                                Thielavia terrestris
  0.00	2	2	-	578455	                                  Thielavia terrestris NRRL 8126
  0.00	1	0	G	1920207	                              Thermothelomyces
  0.00	1	0	S	78579	                                Thermothelomyces thermophilus
  0.00	1	1	-	573729	                                  Thermothelomyces thermophilus ATCC 42464
  0.00	1	0	O	639021	                          Magnaporthales
  0.00	1	0	F	2528436	                            Pyriculariaceae
  0.00	1	0	G	48558	                              Pyricularia
  0.00	1	1	S	1578925	                                Pyricularia pennisetigena
  0.00	3	0	C	147548	                      Leotiomycetes
  0.00	3	0	O	5178	                        Helotiales
  0.00	3	0	F	28983	                          Sclerotiniaceae
  0.00	3	0	G	33196	                            Botrytis
  0.00	3	0	S	40559	                              Botrytis cinerea
  0.00	3	3	-	332648	                                Botrytis cinerea B05.10
  0.00	2	0	-	147537	                Saccharomycotina
  0.00	2	0	C	4891	                  Saccharomycetes
  0.00	2	0	O	4892	                    Saccharomycetales
  0.00	1	0	F	4893	                      Saccharomycetaceae
  0.00	1	0	G	71245	                        Kazachstania
  0.00	1	0	S	432096	                          Kazachstania africana
  0.00	1	1	-	1071382	                            Kazachstania africana CBS 2517
  0.00	1	0	F	34353	                      Dipodascaceae
  0.00	1	0	G	4951	                        Yarrowia
  0.00	1	0	S	4952	                          Yarrowia lipolytica
  0.00	1	1	-	284591	                            Yarrowia lipolytica CLIB122
  0.00	1	0	-	451866	              Taphrinomycotina
  0.00	1	0	C	147554	                Schizosaccharomycetes
  0.00	1	0	O	34346	                  Schizosaccharomycetales
  0.00	1	0	F	4894	                    Schizosaccharomycetaceae
  0.00	1	0	G	4895	                      Schizosaccharomyces
  0.00	1	1	S	4896	                        Schizosaccharomyces pombe
  0.00	2	0	P	5204	            Basidiomycota
  0.00	1	0	-	5302	              Agaricomycotina
  0.00	1	0	C	155616	                Tremellomycetes
  0.00	1	0	O	5234	                  Tremellales
  0.00	1	0	F	1884633	                    Cryptococcaceae
  0.00	1	0	G	5206	                      Cryptococcus
  0.00	1	0	S	1884637	                        Cryptococcus gattii species complex
  0.00	1	0	S	37769	                          Cryptococcus gattii VGI
  0.00	1	1	-	367775	                            Cryptococcus gattii WM276
  0.00	1	0	-	452284	              Ustilaginomycotina
  0.00	1	0	C	1538075	                Malasseziomycetes
  0.00	1	0	O	162474	                  Malasseziales
  0.00	1	0	F	742845	                    Malasseziaceae
  0.00	1	0	G	55193	                      Malassezia
  0.00	1	1	S	76775	                        Malassezia restricta
  0.00	1	0	-	33682	      Euglenozoa
  0.00	1	0	O	5653	        Kinetoplastida
  0.00	1	0	F	5654	          Trypanosomatidae
  0.00	1	0	-	1286322	            Leishmaniinae
  0.00	1	0	G	5658	              Leishmania
  0.00	1	0	-	38568	                Leishmania
  0.00	1	0	S	38581	                  Leishmania major species complex
  0.00	1	0	S	5664	                    Leishmania major
  0.00	1	1	-	347515	                      Leishmania major strain Friedlin
 27.14	20481	60	D	2	    Bacteria
 20.27	15293	28	P	1224	      Proteobacteria
 20.00	15091	56	C	1236	        Gammaproteobacteria
 19.73	14889	0	O	135625	          Pasteurellales
 19.73	14889	110	F	712	            Pasteurellaceae
 19.46	14683	1271	G	724	              Haemophilus
 17.72	13375	13087	S	727	                Haemophilus influenzae
  0.08	62	62	-	281310	                  Haemophilus influenzae 86-028NP
  0.05	35	35	-	1334187	                  Haemophilus influenzae KR494
  0.04	32	32	-	262728	                  Haemophilus influenzae R2866
  0.04	29	29	-	1232659	                  Haemophilus influenzae 2019
  0.03	26	26	-	1295140	                  Haemophilus influenzae CGSHiCZ412602
  0.03	25	25	-	262727	                  Haemophilus influenzae R2846
  0.03	24	24	-	862964	                  Haemophilus influenzae 10810
  0.03	22	22	-	71421	                  Haemophilus influenzae Rd KW20
  0.02	16	16	-	374930	                  Haemophilus influenzae PittEE
  0.02	14	14	-	866630	                  Haemophilus influenzae F3031
  0.00	3	3	-	935897	                  Haemophilus influenzae F3047
  0.02	12	9	S	729	                Haemophilus parainfluenzae
  0.00	3	3	-	862965	                  Haemophilus parainfluenzae T3T1
  0.01	11	11	S	726	                Haemophilus haemolyticus
  0.01	5	5	S	197575	                Haemophilus aegyptius
  0.01	4	4	S	712310	                Haemophilus sp. oral taxon 036
  0.00	3	3	S	730	                [Haemophilus] ducreyi
  0.00	2	2	S	249188	                Haemophilus pittmaniae
  0.09	69	0	G	416916	              Aggregatibacter
  0.07	56	0	S	739	                Aggregatibacter segnis
  0.07	56	56	-	888057	                  Aggregatibacter segnis ATCC 33393
  0.02	12	10	S	732	                Aggregatibacter aphrophilus
  0.00	2	2	-	985008	                  Aggregatibacter aphrophilus ATCC 33389
  0.00	1	1	S	714	                Aggregatibacter actinomycetemcomitans
  0.01	11	0	G	713	              Actinobacillus
  0.01	5	2	S	715	                Actinobacillus pleuropneumoniae
  0.00	3	3	-	754345	                  Actinobacillus pleuropneumoniae serovar 8
  0.01	4	4	S	189834	                Actinobacillus porcitonsillarum
  0.00	1	1	S	51161	                Actinobacillus delphinicola
  0.00	1	0	S	67854	                Actinobacillus succinogenes
  0.00	1	1	-	339671	                  Actinobacillus succinogenes 130Z
  0.01	7	1	G	75984	              Mannheimia
  0.01	5	4	S	75985	                Mannheimia haemolytica
  0.00	1	1	-	1222034	                  Mannheimia haemolytica USDA-ARS-USMARC-184
  0.00	1	1	S	1432056	                Mannheimia sp. USDA-ARS-USMARC-1261
  0.00	2	0	G	745	              Pasteurella
  0.00	2	2	S	747	                Pasteurella multocida
  0.00	2	0	G	292486	              Avibacterium
  0.00	2	2	S	728	                Avibacterium paragallinarum
  0.00	2	0	G	476528	              Bibersteinia
  0.00	2	1	S	47735	                Bibersteinia trehalosi
  0.00	1	1	-	1171377	                  Bibersteinia trehalosi USDA-ARS-USMARC-192
  0.00	2	0	-	1524964	              unclassified Pasteurellaceae
  0.00	2	0	S	310966	                [Pasteurella] aerogenes-[Pasteurella] mairii-[Actinobacillus] rossii complex
  0.00	2	2	S	749	                  [Pasteurella] aerogenes
  0.00	1	0	G	214906	              Histophilus
  0.00	1	1	S	731	                Histophilus somni
  0.06	47	3	O	91347	          Enterobacterales
  0.04	29	1	F	543	            Enterobacteriaceae
  0.01	8	3	G	547	              Enterobacter
  0.00	3	0	S	354276	                Enterobacter cloacae complex
  0.00	1	1	S	61645	                  Enterobacter asburiae
  0.00	1	1	S	158836	                  Enterobacter hormaechei
  0.00	1	1	S	1812935	                  Enterobacter roggenkampii
  0.00	2	2	S	1166130	                Enterobacter sp. R4-368
  0.01	6	1	G	570	              Klebsiella
  0.00	3	1	S	573	                Klebsiella pneumoniae
  0.00	2	2	-	72407	                  Klebsiella pneumoniae subsp. pneumoniae
  0.00	2	1	S	548	                Klebsiella aerogenes
  0.00	1	1	-	1028307	                  Klebsiella aerogenes KCTC 2190
  0.01	5	0	G	561	              Escherichia
  0.01	5	4	S	562	                Escherichia coli
  0.00	1	1	-	83333	                  Escherichia coli K-12
  0.00	3	2	G	544	              Citrobacter
  0.00	1	1	S	545	                Citrobacter koseri
  0.00	2	0	G	590	              Salmonella
  0.00	2	0	S	28901	                Salmonella enterica
  0.00	2	1	-	59201	                  Salmonella enterica subsp. enterica
  0.00	1	1	-	2579247	                    Salmonella enterica subsp. enterica serovar Rough O:-:-
  0.00	1	0	G	620	              Shigella
  0.00	1	0	S	623	                Shigella flexneri
  0.00	1	0	-	424718	                  Shigella flexneri 5a
  0.00	1	1	-	1086030	                    Shigella flexneri 5a str. M90T
  0.00	1	0	G	413496	              Cronobacter
  0.00	1	0	S	1163710	                Cronobacter condimenti
  0.00	1	1	-	1073999	                  Cronobacter condimenti 1330
  0.00	1	0	G	1330545	              Lelliottia
  0.00	1	1	S	2153385	                Lelliottia sp. WB101
  0.00	1	0	G	2055876	              Metakosakonia
  0.00	1	1	S	2487150	                Metakosakonia sp. MRY16-398
  0.01	5	0	F	1903409	            Erwiniaceae
  0.00	3	0	G	53335	              Pantoea
  0.00	3	3	S	1484158	                Pantoea sp. PSNIH1
  0.00	1	1	G	551	              Erwinia
  0.00	1	0	G	82986	              Tatumella
  0.00	1	1	S	82987	                Tatumella ptyseos
  0.01	5	1	F	1903414	            Morganellaceae
  0.00	2	0	G	626	              Xenorhabdus
  0.00	2	1	S	628	                Xenorhabdus nematophila
  0.00	1	1	-	1437823	                  Xenorhabdus nematophila AN6/1
  0.00	1	0	G	583	              Proteus
  0.00	1	1	S	584	                Proteus mirabilis
  0.00	1	0	G	586	              Providencia
  0.00	1	1	S	333962	                Providencia heimbachae
  0.00	3	0	F	1903411	            Yersiniaceae
  0.00	2	2	G	613	              Serratia
  0.00	1	1	G	34037	              Rahnella
  0.00	1	0	-	451511	            unclassified Enterobacterales
  0.00	1	0	G	702	              Plesiomonas
  0.00	1	1	S	703	                Plesiomonas shigelloides
  0.00	1	0	F	1903410	            Pectobacteriaceae
  0.00	1	1	G	204037	              Dickeya
  0.04	31	0	O	72274	          Pseudomonadales
  0.03	26	0	F	135621	            Pseudomonadaceae
  0.03	24	8	G	286	              Pseudomonas
  0.00	3	3	S	1649877	                Pseudomonas sp. CCOS 191
  0.00	2	0	S	136841	                Pseudomonas aeruginosa group
  0.00	1	1	S	287	                  Pseudomonas aeruginosa
  0.00	1	0	S	300	                  Pseudomonas mendocina
  0.00	1	1	-	1001585	                    Pseudomonas mendocina NK-01
  0.00	2	0	S	136843	                Pseudomonas fluorescens group
  0.00	1	1	S	47878	                  Pseudomonas azotoformans
  0.00	1	1	S	47883	                  Pseudomonas synxantha
  0.00	2	2	S	2005388	                Pseudomonas sp. RU47
  0.00	1	0	S	136842	                Pseudomonas chlororaphis group
  0.00	1	1	S	587753	                  Pseudomonas chlororaphis
  0.00	1	0	S	136845	                Pseudomonas putida group
  0.00	1	1	S	47885	                  Pseudomonas oryzihabitans
  0.00	1	0	S	136846	                Pseudomonas stutzeri group
  0.00	1	0	S	578833	                  Pseudomonas stutzeri subgroup
  0.00	1	1	S	316	                    Pseudomonas stutzeri
  0.00	1	1	S	157783	                Pseudomonas cremoricolorata
  0.00	1	1	S	244566	                Pseudomonas lurida
  0.00	1	1	S	1306993	                Pseudomonas soli
  0.00	1	1	S	1856685	                Pseudomonas sp. TCU-HL1
  0.00	2	0	-	351	              Azotobacter group
  0.00	2	0	G	352	                Azotobacter
  0.00	2	2	S	354	                  Azotobacter vinelandii
  0.01	5	0	F	468	            Moraxellaceae
  0.01	4	1	G	469	              Acinetobacter
  0.00	1	1	S	29430	                Acinetobacter haemolyticus
  0.00	1	0	S	202950	                Acinetobacter baylyi
  0.00	1	1	-	62977	                  Acinetobacter baylyi ADP1
  0.00	1	1	S	2004644	                Acinetobacter sp. WCHA45
  0.00	1	0	G	497	              Psychrobacter
  0.00	1	1	S	571800	                Psychrobacter sp. G
  0.03	25	0	O	135622	          Alteromonadales
  0.02	12	0	F	72275	            Alteromonadaceae
  0.01	7	0	G	226	              Alteromonas
  0.01	6	6	S	314275	                Alteromonas mediterranea
  0.00	1	1	S	2267264	                Alteromonas sp. RKMC-009
  0.00	3	0	G	2742	              Marinobacter
  0.00	3	3	S	490759	                Marinobacter sp. BSs20148
  0.00	1	0	G	288793	              Salinimonas
  0.00	1	1	S	2303538	                Salinimonas sediminis
  0.00	1	0	G	1751872	              Lacimicrobium
  0.00	1	1	S	1526571	                Lacimicrobium alkaliphilum
  0.01	9	0	F	267890	            Shewanellaceae
  0.01	9	0	G	22	              Shewanella
  0.00	2	2	S	93973	                Shewanella japonica
  0.00	2	2	S	238836	                Shewanella donghaensis
  0.00	2	2	S	2520507	                Shewanella sp. D4-2
  0.00	1	1	S	94122	                Shewanella sp. ANA-3
  0.00	1	0	S	192073	                Shewanella denitrificans
  0.00	1	1	-	318161	                  Shewanella denitrificans OS217
  0.00	1	1	S	2575361	                Shewanella sp. MEBiC00475
  0.00	3	0	F	267888	            Pseudoalteromonadaceae
  0.00	3	1	G	53246	              Pseudoalteromonas
  0.00	1	1	S	28109	                Pseudoalteromonas nigrifaciens
  0.00	1	0	S	394751	                Pseudoalteromonas arctica
  0.00	1	1	-	1117313	                  Pseudoalteromonas arctica A 37-1-2
  0.00	1	0	F	267894	            Psychromonadaceae
  0.00	1	0	G	67572	              Psychromonas
  0.00	1	1	S	314282	                Psychromonas sp. CNPT3
  0.01	9	0	O	135613	          Chromatiales
  0.00	3	0	F	1046	            Chromatiaceae
  0.00	2	0	G	1980513	              Candidatus Nitrosoglobus
  0.00	2	2	S	1630141	                Candidatus Nitrosoglobus terrae
  0.00	1	0	G	156885	              Thioflavicoccus
  0.00	1	0	S	80679	                Thioflavicoccus mobilis
  0.00	1	1	-	765912	                  Thioflavicoccus mobilis 8321
  0.00	3	0	F	1738654	            Woeseiaceae
  0.00	3	0	G	1738655	              Woeseia
  0.00	3	3	S	1548547	                Woeseia oceani
  0.00	2	0	F	449719	            Granulosicoccaceae
  0.00	2	0	G	437504	              Granulosicoccus
  0.00	2	0	S	437505	                Granulosicoccus antarcticus
  0.00	2	2	-	1192854	                  Granulosicoccus antarcticus IMCC3135
  0.00	1	0	-	451214	            unclassified Chromatiales
  0.00	1	0	G	1273155	              Thiohalobacter
  0.00	1	1	S	585455	                Thiohalobacter thiocyanaticus
  0.01	9	0	O	135623	          Vibrionales
  0.01	9	0	F	641	            Vibrionaceae
  0.01	6	0	G	662	              Vibrio
  0.00	2	2	S	672	                Vibrio vulnificus
  0.00	1	1	S	666	                Vibrio cholerae
  0.00	1	1	S	29494	                Vibrio furnissii
  0.00	1	1	S	190893	                Vibrio coralliilyticus
  0.00	1	1	S	553239	                Vibrio breoganii
  0.00	2	0	G	657	              Photobacterium
  0.00	1	0	S	38293	                Photobacterium damselae
  0.00	1	1	-	38294	                  Photobacterium damselae subsp. piscicida
  0.00	1	0	S	74109	                Photobacterium profundum
  0.00	1	1	-	298386	                  Photobacterium profundum SS9
  0.00	1	0	G	51366	              Salinivibrio
  0.00	1	1	S	2003370	                Salinivibrio sp. YCSC6
  0.01	8	0	O	135619	          Oceanospirillales
  0.00	3	0	F	28256	            Halomonadaceae
  0.00	3	0	G	2745	              Halomonas
  0.00	1	1	S	115561	                Halomonas hydrothermalis
  0.00	1	1	S	1178482	                Halomonas huangheensis
  0.00	1	1	S	1971364	                Halomonas sp. GT
  0.00	2	0	F	224372	            Alcanivoracaceae
  0.00	2	0	G	59753	              Alcanivorax
  0.00	1	1	S	1113728	                Alcanivorax sp. NBRC 101098
  0.00	1	0	S	1306787	                Alcanivorax pacificus
  0.00	1	1	-	391936	                  Alcanivorax pacificus W11-5
  0.00	1	0	F	135620	            Oceanospirillaceae
  0.00	1	0	G	188907	              Oleispira
  0.00	1	0	S	188908	                Oleispira antarctica
  0.00	1	1	-	698738	                  Oleispira antarctica RB-8
  0.00	1	0	F	224379	            Hahellaceae
  0.00	1	0	G	158481	              Hahella
  0.00	1	0	S	158327	                Hahella chejuensis
  0.00	1	1	-	349521	                  Hahella chejuensis KCTC 2396
  0.00	1	0	F	255527	            Saccharospirillaceae
  0.00	1	0	G	230494	              Reinekea
  0.00	1	1	S	1336806	                Reinekea forsetii
  0.01	7	0	O	135614	          Xanthomonadales
  0.01	6	0	F	32033	            Xanthomonadaceae
  0.00	3	0	G	40323	              Stenotrophomonas
  0.00	1	1	S	128780	                Stenotrophomonas acidaminiphila
  0.00	1	0	S	995085	                Stenotrophomonas maltophilia group
  0.00	1	1	S	40324	                  Stenotrophomonas maltophilia
  0.00	1	1	S	1793721	                Stenotrophomonas sp. KCTC 12332
  0.00	1	0	G	68	              Lysobacter
  0.00	1	1	S	435897	                Lysobacter capsici
  0.00	1	0	G	338	              Xanthomonas
  0.00	1	1	S	343	                Xanthomonas translucens
  0.00	1	0	G	2370	              Xylella
  0.00	1	1	S	1444770	                Xylella taiwanensis
  0.00	1	0	F	1775411	            Rhodanobacteraceae
  0.00	1	0	G	242605	              Luteibacter
  0.00	1	1	S	2589080	                Luteibacter pinisoli
  0.00	3	0	O	72273	          Thiotrichales
  0.00	2	0	F	34064	            Francisellaceae
  0.00	2	1	G	262	              Francisella
  0.00	1	1	S	1542390	                Francisella sp. CA97-1460
  0.00	1	0	F	135616	            Piscirickettsiaceae
  0.00	1	0	G	933	              Thiomicrospira
  0.00	1	0	S	147268	                Thiomicrospira cyclica
  0.00	1	1	-	717773	                  Thiomicrospira cyclica ALM1
  0.00	2	0	O	118969	          Legionellales
  0.00	2	0	F	444	            Legionellaceae
  0.00	2	0	G	445	              Legionella
  0.00	2	1	S	446	                Legionella pneumophila
  0.00	1	1	-	400673	                  Legionella pneumophila str. Corby
  0.00	2	0	O	135624	          Aeromonadales
  0.00	2	0	F	84642	            Aeromonadaceae
  0.00	2	0	G	642	              Aeromonas
  0.00	1	1	S	644	                Aeromonas hydrophila
  0.00	1	1	S	654	                Aeromonas veronii
  0.00	1	0	-	118884	          unclassified Gammaproteobacteria
  0.00	1	0	-	33811	            unclassified Gammaproteobacteria (miscellaneous)
  0.00	1	1	S	2070539	              Gammaproteobacteria bacterium ESL0073
  0.00	1	0	O	1692040	          Acidiferrobacterales
  0.00	1	0	F	1692041	            Acidiferrobacteraceae
  0.00	1	0	G	986106	              Acidiferrobacter
  0.00	1	1	S	1281578	                Acidiferrobacter sp. SPIII_3
  0.00	1	0	O	1706369	          Cellvibrionales
  0.00	1	0	F	1706371	            Cellvibrionaceae
  0.00	1	0	G	10	              Cellvibrio
  0.00	1	1	S	1987723	                Cellvibrio sp. PSBB006
  0.11	80	2	C	28216	        Betaproteobacteria
  0.06	44	0	O	80840	          Burkholderiales
  0.03	20	0	F	119060	            Burkholderiaceae
  0.02	12	1	G	32008	              Burkholderia
  0.01	8	0	S	87882	                Burkholderia cepacia complex
  0.00	3	3	S	101571	                  Burkholderia ubonensis
  0.00	2	2	S	95486	                  Burkholderia cenocepacia
  0.00	1	1	S	488729	                  Burkholderia metallica
  0.00	1	1	S	1503054	                  Burkholderia stagnalis
  0.00	1	1	S	1637862	                  Burkholderia sp. LA-2-3-30-S1-D2
  0.00	1	0	S	111527	                pseudomallei group
  0.00	1	1	S	57975	                  Burkholderia thailandensis
  0.00	1	1	S	1804984	                Burkholderia sp. OLGA172
  0.00	1	1	S	2571746	                Burkholderia sp. DHOD12
  0.01	4	0	G	106589	              Cupriavidus
  0.00	2	2	S	68895	                Cupriavidus basilensis
  0.00	1	1	S	96344	                Cupriavidus oxalaticus
  0.00	1	1	S	119219	                Cupriavidus metallidurans
  0.00	1	0	G	47670	              Lautropia
  0.00	1	1	S	47671	                Lautropia mirabilis
  0.00	1	0	G	48736	              Ralstonia
  0.00	1	1	S	305	                Ralstonia solanacearum
  0.00	1	0	G	93217	              Pandoraea
  0.00	1	1	S	573737	                Pandoraea oxalativorans
  0.00	1	0	G	1822464	              Paraburkholderia
  0.00	1	1	S	420953	                Paraburkholderia megapolitana
  0.01	11	0	F	506	            Alcaligenaceae
  0.01	4	0	G	222	              Achromobacter
  0.00	2	2	S	217204	                Achromobacter insolitus
  0.00	1	1	S	32002	                Achromobacter denitrificans
  0.00	1	1	S	217203	                Achromobacter spanius
  0.01	4	0	G	517	              Bordetella
  0.00	2	2	S	2163011	                Bordetella sp. HZ20
  0.00	1	1	S	463024	                Bordetella genomosp. 6
  0.00	1	1	S	1697043	                Bordetella sp. H567
  0.00	2	2	G	507	              Alcaligenes
  0.00	1	0	G	1472344	              Basilea
  0.00	1	0	S	1472345	                Basilea psittacipulmonis
  0.00	1	1	-	1072685	                  Basilea psittacipulmonis DSM 24701
  0.01	7	0	F	75682	            Oxalobacteraceae
  0.01	4	0	G	149698	              Massilia
  0.00	2	2	S	1678028	                Massilia sp. NR 4-1
  0.00	1	1	S	864828	                Massilia umbonata
  0.00	1	1	S	2072590	                Massilia armeniaca
  0.00	2	0	G	963	              Herbaspirillum
  0.00	1	1	S	80842	                Herbaspirillum rubrisubalbicans
  0.00	1	1	S	2014887	                Herbaspirillum robiniae
  0.00	1	0	G	202907	              Collimonas
  0.00	1	1	S	279058	                Collimonas arenae
  0.01	5	0	F	80864	            Comamonadaceae
  0.00	3	1	G	12916	              Acidovorax
  0.00	1	1	S	553814	                Acidovorax carolinensis
  0.00	1	0	S	721785	                Acidovorax ebreus
  0.00	1	1	-	535289	                  Acidovorax ebreus TPSY
  0.00	1	0	G	34072	              Variovorax
  0.00	1	1	S	2126319	                Variovorax sp. PMC12
  0.00	1	0	G	1649468	              Melaminivora
  0.00	1	1	S	2116657	                Melaminivora sp. SC2-7
  0.00	1	0	-	119065	            unclassified Burkholderiales
  0.00	1	0	-	224471	              Burkholderiales Genera incertae sedis
  0.00	1	0	G	93681	                Roseateles
  0.00	1	1	S	76731	                  Roseateles depolymerans
  0.04	28	0	O	206351	          Neisseriales
  0.03	25	0	F	481	            Neisseriaceae
  0.02	17	1	G	482	              Neisseria
  0.01	7	7	S	487	                Neisseria meningitidis
  0.00	3	3	S	484	                Neisseria flavescens
  0.00	3	3	S	28449	                Neisseria subflava
  0.00	1	0	S	486	                Neisseria lactamica
  0.00	1	1	-	489653	                  Neisseria lactamica 020-06
  0.00	1	1	S	488	                Neisseria mucosa
  0.00	1	1	S	1853278	                Neisseria sp. 10023
  0.01	8	0	G	538	              Eikenella
  0.01	8	8	S	539	                Eikenella corrodens
  0.00	3	0	F	1499392	            Chromobacteriaceae
  0.00	2	0	-	90153	              Chromobacterium group
  0.00	2	0	G	535	                Chromobacterium
  0.00	1	1	S	536	                  Chromobacterium violaceum
  0.00	1	1	S	2059672	                  Chromobacterium sp. ATCC 53434
  0.00	1	0	G	168470	              Laribacter
  0.00	1	1	S	168471	                Laribacter hongkongensis
  0.00	3	0	-	119066	          unclassified Betaproteobacteria
  0.00	1	0	G	33055	            Candidatus Kinetoplastibacterium
  0.00	1	0	S	994695	              Candidatus Kinetoplastibacterium galatii
  0.00	1	1	-	1208921	                Candidatus Kinetoplastibacterium galatii TCC219
  0.00	1	0	-	33809	            unclassified Betaproteobacteria (miscellaneous)
  0.00	1	1	S	543913	              beta proteobacterium CB
  0.00	1	0	G	327159	            Candidatus Accumulibacter
  0.00	1	0	S	327160	              Candidatus Accumulibacter phosphatis
  0.00	1	1	-	522306	                Candidatus Accumulibacter phosphatis clade IIA str. UW-1
  0.00	2	0	O	206389	          Rhodocyclales
  0.00	2	0	F	2008794	            Zoogloeaceae
  0.00	2	0	G	33057	              Thauera
  0.00	2	2	S	1134435	                Thauera humireducens
  0.00	1	0	O	32003	          Nitrosomonadales
  0.00	1	1	F	32011	            Methylophilaceae
  0.07	54	0	C	28211	        Alphaproteobacteria
  0.04	27	1	O	356	          Rhizobiales
  0.01	5	0	F	41294	            Bradyrhizobiaceae
  0.00	2	0	G	85413	              Bosea
  0.00	1	1	S	1842539	                Bosea sp. RAC05
  0.00	1	1	S	1867715	                Bosea sp. Tri-49
  0.00	1	0	G	374	              Bradyrhizobium
  0.00	1	1	S	1404367	                Bradyrhizobium sp. 3 85S1MB
  0.00	1	0	G	911	              Nitrobacter
  0.00	1	0	S	912	                Nitrobacter hamburgensis
  0.00	1	1	-	323097	                  Nitrobacter hamburgensis X14
  0.00	1	0	G	1073	              Rhodopseudomonas
  0.00	1	0	S	1076	                Rhodopseudomonas palustris
  0.00	1	1	-	316058	                  Rhodopseudomonas palustris HaA2
  0.01	5	0	F	119045	            Methylobacteriaceae
  0.00	2	1	G	407	              Methylobacterium
  0.00	1	0	S	114616	                Methylobacterium nodulans
  0.00	1	1	-	460265	                  Methylobacterium nodulans ORS 2060
  0.00	2	0	G	2282523	              Methylorubrum
  0.00	1	1	S	408	                Methylorubrum extorquens
  0.00	1	1	S	223967	                Methylorubrum populi
  0.00	1	0	G	186650	              Microvirga
  0.00	1	1	S	1882682	                Microvirga ossetica
  0.01	4	0	F	69277	            Phyllobacteriaceae
  0.00	2	0	G	68287	              Mesorhizobium
  0.00	1	0	S	71433	                Mesorhizobium amorphae
  0.00	1	1	-	1082933	                  Mesorhizobium amorphae CCNWGS0123
  0.00	1	1	S	2493673	                Mesorhizobium sp. M1B.F.Ca.ET.045.04.1.1
  0.00	1	0	G	28100	              Phyllobacterium
  0.00	1	1	S	1867719	                Phyllobacterium zundukense
  0.00	1	0	G	449972	              Chelativorans
  0.00	1	1	S	266779	                Chelativorans sp. BNC1
  0.01	4	0	F	82115	            Rhizobiaceae
  0.00	2	0	-	227290	              Rhizobium/Agrobacterium group
  0.00	2	1	G	379	                Rhizobium
  0.00	1	1	S	384	                  Rhizobium leguminosarum
  0.00	2	0	-	227292	              Sinorhizobium/Ensifer group
  0.00	2	0	G	28105	                Sinorhizobium
  0.00	2	2	S	382	                  Sinorhizobium meliloti
  0.00	2	0	F	255475	            Aurantimonadaceae
  0.00	2	2	G	293088	              Martelella
  0.00	2	0	F	335928	            Xanthobacteraceae
  0.00	2	0	G	556257	              Pseudolabrys
  0.00	2	2	S	2562284	                Pseudolabrys sp. FHR47
  0.00	1	0	F	45401	            Hyphomicrobiaceae
  0.00	1	0	G	46913	              Devosia
  0.00	1	1	S	2499144	                Devosia sp. 1566
  0.00	1	0	F	118882	            Brucellaceae
  0.00	1	0	G	528	              Ochrobactrum
  0.00	1	1	S	529	                Ochrobactrum anthropi
  0.00	1	0	F	655351	            Cohaesibacteraceae
  0.00	1	0	G	1406135	              Breoghania
  0.00	1	1	S	2304600	                Breoghania sp. L-A4
  0.00	1	0	F	2036754	            Chelatococcaceae
  0.00	1	0	G	28209	              Chelatococcus
  0.00	1	1	S	444444	                Chelatococcus daeguensis
  0.02	12	0	O	204455	          Rhodobacterales
  0.01	11	1	F	31989	            Rhodobacteraceae
  0.00	3	0	G	1060	              Rhodobacter
  0.00	2	1	S	1063	                Rhodobacter sphaeroides
  0.00	1	1	-	349101	                  Rhodobacter sphaeroides ATCC 17029
  0.00	1	1	S	1850250	                Rhodobacter sp. LPB0142
  0.00	2	0	G	302485	              Phaeobacter
  0.00	2	2	S	1844006	                Phaeobacter porticola
  0.00	1	1	G	265	              Paracoccus
  0.00	1	0	G	60136	              Sulfitobacter
  0.00	1	1	S	1389004	                Sulfitobacter sp. SK011
  0.00	1	0	G	252301	              Oceanicola
  0.00	1	1	S	2587163	                Oceanicola sp. D3
  0.00	1	0	G	436357	              Thalassococcus
  0.00	1	1	S	2017482	                Thalassococcus sp. S3
  0.00	1	0	G	478070	              Labrenzia
  0.00	1	1	S	2590016	                Labrenzia sp. PHM005
  0.00	1	0	F	69657	            Hyphomonadaceae
  0.00	1	0	G	85	              Hyphomonas
  0.00	1	0	S	81032	                Hyphomonas neptunium
  0.00	1	1	-	228405	                  Hyphomonas neptunium ATCC 15444
  0.01	6	0	O	204441	          Rhodospirillales
  0.01	4	0	F	433	            Acetobacteraceae
  0.00	1	0	G	93	              Stella
  0.00	1	1	S	94	                Stella humosa
  0.00	1	0	G	441	              Gluconobacter
  0.00	1	1	S	442	                Gluconobacter oxydans
  0.00	1	0	G	89583	              Gluconacetobacter
  0.00	1	0	S	33996	                Gluconacetobacter diazotrophicus
  0.00	1	1	-	272568	                  Gluconacetobacter diazotrophicus PA1 5
  0.00	1	0	G	1434011	              Komagataeibacter
  0.00	1	0	S	28448	                Komagataeibacter xylinus
  0.00	1	1	-	1296990	                  Komagataeibacter xylinus E25
  0.00	2	0	F	41295	            Rhodospirillaceae
  0.00	1	0	G	191	              Azospirillum
  0.00	1	1	S	652764	                Azospirillum sp. TSH100
  0.00	1	0	G	2478349	              Indioceanicola
  0.00	1	1	S	2220096	                Indioceanicola profundi
  0.01	5	0	O	204457	          Sphingomonadales
  0.00	3	0	F	335929	            Erythrobacteraceae
  0.00	2	0	G	1111	              Porphyrobacter
  0.00	2	2	S	1896196	                Porphyrobacter sp. LM 6
  0.00	1	0	G	361177	              Altererythrobacter
  0.00	1	1	S	1267766	                Altererythrobacter atlanticus
  0.00	2	0	F	41297	            Sphingomonadaceae
  0.00	1	0	G	13687	              Sphingomonas
  0.00	1	1	S	1390395	                Sphingomonas sp. LK11
  0.00	1	1	G	165697	              Sphingopyxis
  0.00	2	0	O	766	          Rickettsiales
  0.00	2	0	-	210592	            unclassified Rickettsiales
  0.00	2	0	-	1699067	              unclassified Rickettsiales (miscellaneous)
  0.00	2	2	S	2486578	                Rickettsiales endosymbiont of Stachyamoeba lipophora
  0.00	2	0	O	204458	          Caulobacterales
  0.00	2	0	F	76892	            Caulobacteraceae
  0.00	2	1	G	41275	              Brevundimonas
  0.00	1	1	S	2561924	                Brevundimonas sp. MF30-B
  0.05	40	0	-	68525	        delta/epsilon subdivisions
  0.03	25	0	C	29547	          Epsilonproteobacteria
  0.03	25	0	O	213849	            Campylobacterales
  0.03	20	0	F	72294	              Campylobacteraceae
  0.02	18	0	G	194	                Campylobacter
  0.01	9	9	S	824	                  Campylobacter gracilis
  0.01	5	4	S	199	                  Campylobacter concisus
  0.00	1	1	-	360104	                    Campylobacter concisus 13826
  0.00	3	0	S	200	                  Campylobacter curvus
  0.00	3	3	-	360105	                    Campylobacter curvus 525.92
  0.00	1	1	S	204	                  Campylobacter showae
  0.00	2	0	-	2321108	                Arcobacter group
  0.00	2	0	G	28196	                  Arcobacter
  0.00	1	0	S	708186	                    Arcobacter trophiarum
  0.00	1	1	-	1032241	                      Arcobacter trophiarum LMG 25534
  0.00	1	0	S	1278212	                    Arcobacter suis
  0.00	1	1	-	663365	                      Arcobacter suis CECT 7833
  0.01	5	0	F	72293	              Helicobacteraceae
  0.01	4	0	G	209	                Helicobacter
  0.00	2	0	S	32025	                  Helicobacter hepaticus
  0.00	2	2	-	235279	                    Helicobacter hepaticus ATCC 51449
  0.00	1	1	S	210	                  Helicobacter pylori
  0.00	1	0	S	138563	                  Helicobacter cetorum
  0.00	1	1	-	182217	                    Helicobacter cetorum MIT 00-7128
  0.00	1	0	G	202746	                Sulfurimonas
  0.00	1	0	S	39766	                  Sulfurimonas denitrificans
  0.00	1	1	-	326298	                    Sulfurimonas denitrificans DSM 1251
  0.02	15	0	C	28221	          Deltaproteobacteria
  0.01	5	0	O	29	            Myxococcales
  0.01	4	0	-	80811	              Cystobacterineae
  0.01	4	0	F	31	                Myxococcaceae
  0.01	4	0	G	32	                  Myxococcus
  0.00	2	2	S	34	                    Myxococcus xanthus
  0.00	1	0	S	35	                    Myxococcus macrosporus
  0.00	1	1	-	1189310	                      Myxococcus macrosporus DSM 14697
  0.00	1	0	S	83455	                    Myxococcus stipitatus
  0.00	1	1	-	1278073	                      Myxococcus stipitatus DSM 14675
  0.00	1	0	-	80812	              Sorangiineae
  0.00	1	0	F	49	                Polyangiaceae
  0.00	1	0	G	39643	                  Sorangium
  0.00	1	1	S	56	                    Sorangium cellulosum
  0.01	5	0	O	213115	            Desulfovibrionales
  0.01	5	0	F	194924	              Desulfovibrionaceae
  0.01	5	0	G	872	                Desulfovibrio
  0.00	2	0	S	876	                  Desulfovibrio desulfuricans
  0.00	1	1	-	525146	                    Desulfovibrio desulfuricans ATCC 27774
  0.00	1	1	-	641491	                    Desulfovibrio desulfuricans ND132
  0.00	1	0	S	881	                  Desulfovibrio vulgaris
  0.00	1	1	-	882	                    Desulfovibrio vulgaris str. Hildenborough
  0.00	1	1	S	44742	                  Desulfovibrio fairfieldensis
  0.00	1	0	S	184917	                  Desulfovibrio magneticus
  0.00	1	1	-	573370	                    Desulfovibrio magneticus RS-1
  0.00	3	0	O	213118	            Desulfobacterales
  0.00	2	0	F	213121	              Desulfobulbaceae
  0.00	1	0	G	893	                Desulfobulbus
  0.00	1	1	S	1986146	                  Desulfobulbus oralis
  0.00	1	0	G	427922	                Desulfurivibrio
  0.00	1	0	S	427923	                  Desulfurivibrio alkaliphilus
  0.00	1	1	-	589865	                    Desulfurivibrio alkaliphilus AHT 2
  0.00	1	0	F	213119	              Desulfobacteraceae
  0.00	1	0	G	218207	                Desulfatibacillum
  0.00	1	1	S	218208	                  Desulfatibacillum aliphaticivorans
  0.00	1	0	O	69541	            Desulfuromonadales
  0.00	1	0	F	213422	              Geobacteraceae
  0.00	1	0	G	28231	                Geobacter
  0.00	1	1	S	443143	                  Geobacter sp. M18
  0.00	1	0	O	213113	            Desulfurellales
  0.00	1	0	F	117942	              Desulfurellaceae
  0.00	1	0	G	33001	                Desulfurella
  0.00	1	0	S	33002	                  Desulfurella acetivorans
  0.00	1	1	-	694431	                    Desulfurella acetivorans A63
  5.27	3980	0	-	1783272	      Terrabacteria group
  2.66	2010	3	P	1239	        Firmicutes
  2.10	1585	1	C	91061	          Bacilli
  2.04	1538	0	O	186826	            Lactobacillales
  2.00	1506	1	F	1300	              Streptococcaceae
  1.99	1503	107	G	1301	                Streptococcus
  0.84	632	160	S	1318	                  Streptococcus parasanguinis
  0.34	257	257	-	760570	                    Streptococcus parasanguinis ATCC 15912
  0.28	215	215	-	1114965	                    Streptococcus parasanguinis FW213
  0.25	189	70	S	1303	                  Streptococcus oralis
  0.06	42	42	-	655813	                    Streptococcus oralis ATCC 35037
  0.05	38	38	-	1077464	                    Streptococcus oralis subsp. tigurinus
  0.03	22	22	-	927666	                    Streptococcus oralis Uo5
  0.02	17	17	-	1458253	                    Streptococcus oralis subsp. dentisani
  0.15	116	48	S	28037	                  Streptococcus mitis
  0.07	53	53	-	246201	                    Streptococcus mitis NCTC 12261
  0.02	15	15	-	365659	                    Streptococcus mitis B6
  0.10	79	64	S	1304	                  Streptococcus salivarius
  0.01	8	8	-	1048332	                    Streptococcus salivarius CCHSS3
  0.01	7	7	-	347253	                    Streptococcus salivarius JIM8777
  0.07	56	53	S	1313	                  Streptococcus pneumoniae
  0.00	2	2	-	488222	                    Streptococcus pneumoniae JJA
  0.00	1	1	-	869309	                    Streptococcus pneumoniae SPNA45
  0.05	37	37	S	113107	                  Streptococcus australis
  0.04	29	29	S	1302	                  Streptococcus gordonii
  0.03	24	24	S	78535	                  Streptococcus viridans
  0.03	23	22	S	1308	                  Streptococcus thermophilus
  0.00	1	1	-	264199	                    Streptococcus thermophilus LMG 18311
  0.03	23	23	S	2576376	                  Streptococcus sp. 1643
  0.03	21	21	S	1759399	                  Streptococcus sp. A12
  0.02	17	17	S	1343	                  Streptococcus vestibularis
  0.02	16	16	S	1902136	                  Streptococcus sp. NPS 308
  0.02	16	16	S	2382163	                  Streptococcus sp. JS71
  0.02	15	15	S	1433513	                  Streptococcus sp. ChDC B345
  0.02	13	13	S	1839799	                  Streptococcus sp. FDAARGOS_192
  0.01	11	0	S	671232	                  Streptococcus anginosus group
  0.01	5	3	S	1338	                    Streptococcus intermedius
  0.00	2	2	-	862966	                      Streptococcus intermedius C270
  0.01	4	4	S	76860	                    Streptococcus constellatus
  0.00	2	2	S	1328	                    Streptococcus anginosus
  0.01	10	10	S	712633	                  Streptococcus sp. oral taxon 431
  0.01	10	10	S	1156433	                  Streptococcus sp. I-P16
  0.01	9	0	S	257758	                  Streptococcus pseudopneumoniae
  0.01	9	9	-	1054460	                    Streptococcus pseudopneumoniae IS7493
  0.01	8	8	S	1335	                  Streptococcus equinus
  0.01	7	7	S	1156431	                  Streptococcus sp. I-G2
  0.01	6	3	S	45634	                  Streptococcus cristatus
  0.00	3	3	-	889201	                    Streptococcus cristatus ATCC 51100
  0.01	5	5	S	1305	                  Streptococcus sanguinis
  0.01	4	4	S	33040	                  Streptococcus milleri
  0.00	3	3	S	1340	                  Streptococcus porcinus
  0.00	3	0	S	119603	                  Streptococcus dysgalactiae group
  0.00	2	0	S	1334	                    Streptococcus dysgalactiae
  0.00	2	0	-	119602	                      Streptococcus dysgalactiae subsp. equisimilis
  0.00	2	2	-	617121	                        Streptococcus dysgalactiae subsp. equisimilis RE378
  0.00	1	0	S	1336	                    Streptococcus equi
  0.00	1	1	-	40041	                      Streptococcus equi subsp. zooepidemicus
  0.00	2	2	S	1307	                  Streptococcus suis
  0.00	2	2	S	315405	                  Streptococcus gallolyticus
  0.00	2	2	S	400065	                  Streptococcus merionis
  0.00	2	2	S	2490633	                  Streptococcus sp. KCOM 2412
  0.00	1	1	S	1311	                  Streptococcus agalactiae
  0.00	1	1	S	1314	                  Streptococcus pyogenes
  0.00	1	1	S	1348	                  Streptococcus parauberis
  0.00	1	1	S	150055	                  Streptococcus lutetiensis
  0.00	1	1	S	1825069	                  Streptococcus marmotae
  0.00	1	1	S	1888195	                  Streptococcus himalayensis
  0.00	2	1	G	1357	                Lactococcus
  0.00	1	1	S	2419773	                  Lactococcus sp. 1JSPR-7
  0.02	16	0	F	33958	              Lactobacillaceae
  0.02	15	0	G	1578	                Lactobacillus
  0.00	3	3	S	60520	                  Lactobacillus paraplantarum
  0.00	2	1	S	1610	                  Lactobacillus coryniformis
  0.00	1	0	-	115541	                    Lactobacillus coryniformis subsp. coryniformis
  0.00	1	1	-	913848	                      Lactobacillus coryniformis subsp. coryniformis KCTC 3167 = DSM 20001
  0.00	1	1	S	1579	                  Lactobacillus acidophilus
  0.00	1	0	S	1612	                  Lactobacillus farciminis
  0.00	1	1	-	936140	                    Lactobacillus farciminis KCTC 3681 = DSM 20184
  0.00	1	1	S	1622	                  Lactobacillus murinus
  0.00	1	0	S	1623	                  Lactobacillus ruminis
  0.00	1	1	-	1069534	                    Lactobacillus ruminis ATCC 27782
  0.00	1	1	S	33959	                  Lactobacillus johnsonii
  0.00	1	1	S	47715	                  Lactobacillus rhamnosus
  0.00	1	1	S	47770	                  Lactobacillus crispatus
  0.00	1	1	S	375175	                  Lactobacillus backii
  0.00	1	0	S	655183	                  Lactobacillus casei group
  0.00	1	1	S	1597	                    Lactobacillus paracasei
  0.00	1	1	S	1303590	                  Lactobacillus bombi
  0.00	1	0	G	1253	                Pediococcus
  0.00	1	1	S	187452	                  Pediococcus claussenii
  0.01	10	0	F	81852	              Enterococcaceae
  0.01	7	1	G	1350	                Enterococcus
  0.00	3	3	S	2420313	                  Enterococcus sp. FDAARGOS_553
  0.00	1	1	S	1352	                  Enterococcus faecium
  0.00	1	1	S	417368	                  Enterococcus thailandicus
  0.00	1	1	S	2005703	                  Enterococcus wangshanyuanii
  0.00	2	1	G	2737	                Vagococcus
  0.00	1	1	S	2571750	                  Vagococcus sp. MN-17
  0.00	1	0	G	33969	                Melissococcus
  0.00	1	1	S	33970	                  Melissococcus plutonius
  0.00	3	0	F	186828	              Carnobacteriaceae
  0.00	1	1	G	2747	                Carnobacterium
  0.00	1	0	G	191769	                Marinilactibacillus
  0.00	1	1	S	1911586	                  Marinilactibacillus sp. 15R
  0.00	1	1	G	1470540	                Jeotgalibaca
  0.00	2	0	F	186827	              Aerococcaceae
  0.00	1	0	G	1375	                Aerococcus
  0.00	1	1	S	51665	                  Aerococcus urinaeequi
  0.00	1	0	-	881649	                unclassified Aerococcaceae
  0.00	1	1	S	2036206	                  Aerococcaceae bacterium ZY16052
  0.00	1	0	F	81850	              Leuconostocaceae
  0.00	1	0	G	1243	                Leuconostoc
  0.00	1	1	S	1252	                  Leuconostoc carnosum
  0.06	46	0	O	1385	            Bacillales
  0.01	11	1	F	186817	              Bacillaceae
  0.01	6	2	G	1386	                Bacillus
  0.00	1	0	S	1413	                  Bacillus cellulosilyticus
  0.00	1	1	-	649639	                    Bacillus cellulosilyticus DSM 2522
  0.00	1	1	S	86665	                  Bacillus halodurans
  0.00	1	1	S	189381	                  Bacillus marisflavi
  0.00	1	1	S	352858	                  Bacillus sp. Y1
  0.00	1	0	G	29331	                Amphibacillus
  0.00	1	0	S	1449	                  Amphibacillus xylanus
  0.00	1	1	-	698758	                    Amphibacillus xylanus NBRC 15112
  0.00	1	1	G	129337	                Geobacillus
  0.00	1	0	G	150247	                Anoxybacillus
  0.00	1	1	S	1490057	                  Anoxybacillus sp. B7M1
  0.00	1	0	G	400634	                Lysinibacillus
  0.00	1	1	S	1421	                  Lysinibacillus sphaericus
  0.01	11	0	-	539002	              Bacillales incertae sedis
  0.01	10	0	-	539738	                Bacillales Family XI. Incertae Sedis
  0.01	10	1	G	1378	                  Gemella
  0.01	7	7	S	1379	                    Gemella haemolysans
  0.00	2	2	S	29391	                    Gemella morbillorum
  0.00	1	0	-	539742	                Bacillales Family XII. Incertae Sedis
  0.00	1	0	G	33986	                  Exiguobacterium
  0.00	1	1	S	340146	                    Exiguobacterium mexicanum
  0.01	10	0	F	186822	              Paenibacillaceae
  0.01	9	2	G	44249	                Paenibacillus
  0.00	3	1	S	61624	                  Paenibacillus mucilaginosus
  0.00	1	1	-	997761	                    Paenibacillus mucilaginosus K02
  0.00	1	1	-	1036673	                    Paenibacillus mucilaginosus KNP414
  0.00	1	0	S	1406	                  Paenibacillus polymyxa
  0.00	1	1	-	349520	                    Paenibacillus polymyxa E681
  0.00	1	1	S	1338368	                  Paenibacillus lentus
  0.00	1	1	S	1566358	                  Paenibacillus sp. IHBB 10380
  0.00	1	1	S	1616788	                  Paenibacillus bovis
  0.00	1	0	G	55080	                Brevibacillus
  0.00	1	1	S	1465	                  Brevibacillus laterosporus
  0.01	8	0	F	90964	              Staphylococcaceae
  0.01	7	0	G	1279	                Staphylococcus
  0.00	2	2	S	1296	                  Staphylococcus sciuri
  0.00	1	1	S	1282	                  Staphylococcus epidermidis
  0.00	1	1	S	29382	                  Staphylococcus cohnii
  0.00	1	1	S	29388	                  Staphylococcus capitis
  0.00	1	1	S	46126	                  Staphylococcus chromogenes
  0.00	1	1	S	1654388	                  Staphylococcus schweitzeri
  0.00	1	0	G	2005363	                Auricoccus
  0.00	1	1	S	1849491	                  Auricoccus indicus
  0.01	5	0	F	186818	              Planococcaceae
  0.01	4	0	G	1569	                Sporosarcina
  0.00	2	2	S	1476	                  Sporosarcina psychrophila
  0.00	2	2	S	1571	                  Sporosarcina ureae
  0.00	1	0	G	1372	                Planococcus
  0.00	1	0	S	161360	                  Planococcus antarcticus
  0.00	1	1	-	1185653	                    Planococcus antarcticus DSM 14505
  0.00	1	0	F	186823	              Alicyclobacillaceae
  0.00	1	0	G	29330	                Alicyclobacillus
  0.00	1	1	S	405212	                  Alicyclobacillus acidocaldarius
  0.47	353	2	C	909932	          Negativicutes
  0.44	330	0	O	1843489	            Veillonellales
  0.44	330	0	F	31977	              Veillonellaceae
  0.42	314	12	G	29465	                Veillonella
  0.26	197	197	S	29466	                  Veillonella parvula
  0.11	84	84	S	39778	                  Veillonella dispar
  0.03	21	21	S	248315	                  Veillonella rodentium
  0.02	16	0	G	39948	                Dialister
  0.02	16	16	S	39950	                  Dialister pneumosintes
  0.03	21	0	O	909929	            Selenomonadales
  0.03	20	0	F	1843491	              Selenomonadaceae
  0.03	20	0	G	970	                Selenomonas
  0.03	19	0	S	69823	                  Selenomonas sputigena
  0.03	19	19	-	546271	                    Selenomonas sputigena ATCC 35185
  0.00	1	1	S	1884263	                  Selenomonas sp. oral taxon 920
  0.00	1	0	F	1843490	              Sporomusaceae
  0.00	1	0	G	365348	                Pelosinus
  0.00	1	1	S	484770	                  Pelosinus sp. UFO1
  0.05	35	0	C	186801	          Clostridia
  0.05	34	1	O	186802	            Clostridiales
  0.01	8	0	F	31979	              Clostridiaceae
  0.01	5	0	G	1485	                Clostridium
  0.00	1	1	S	1502	                  Clostridium perfringens
  0.00	1	1	S	1509	                  Clostridium sporogenes
  0.00	1	1	S	1561	                  Clostridium baratii
  0.00	1	1	S	36745	                  Clostridium saccharoperbutylacetonicum
  0.00	1	1	S	394958	                  Clostridium taeniosporum
  0.00	1	0	G	114627	                Alkaliphilus
  0.00	1	0	S	461876	                  Alkaliphilus oremlandii
  0.00	1	1	-	350688	                    Alkaliphilus oremlandii OhILAs
  0.00	1	0	-	189971	                unclassified Clostridiaceae
  0.00	1	1	S	2082193	                  Clostridiaceae bacterium 14S0207
  0.00	1	0	G	390805	                Geosporobacter
  0.00	1	1	S	1424294	                  Geosporobacter ferrireducens
  0.01	7	0	F	186803	              Lachnospiraceae
  0.00	3	0	G	1164882	                Lachnoanaerobaculum
  0.00	3	3	S	617123	                  Lachnoanaerobaculum umeaense
  0.00	1	0	G	830	                Butyrivibrio
  0.00	1	0	S	43305	                  Butyrivibrio proteoclasticus
  0.00	1	1	-	515622	                    Butyrivibrio proteoclasticus B316
  0.00	1	0	-	186928	                unclassified Lachnospiraceae
  0.00	1	0	S	39491	                  [Eubacterium] rectale
  0.00	1	1	-	515619	                    [Eubacterium] rectale ATCC 33656
  0.00	1	0	G	572511	                Blautia
  0.00	1	1	S	2479767	                  Blautia sp. SC05B48
  0.00	1	0	G	1506553	                Lachnoclostridium
  0.00	1	0	S	84030	                  [Clostridium] saccharolyticum
  0.00	1	1	-	610130	                    [Clostridium] saccharolyticum WM1
  0.01	5	0	F	186804	              Peptostreptococcaceae
  0.00	2	0	G	44259	                Filifactor
  0.00	2	0	S	143361	                  Filifactor alocis
  0.00	2	2	-	546269	                    Filifactor alocis ATCC 35896
  0.00	2	0	G	1870884	                Clostridioides
  0.00	2	2	S	1496	                  Clostridioides difficile
  0.00	1	0	G	1849828	                Paeniclostridium
  0.00	1	1	S	1505	                  Paeniclostridium sordellii
  0.01	4	0	-	538999	              Clostridiales incertae sedis
  0.01	4	0	F	543314	                Clostridiales Family XIII. Incertae Sedis
  0.00	3	0	G	86331	                  Mogibacterium
  0.00	3	3	S	114527	                    Mogibacterium diversum
  0.00	1	0	S	143393	                  [Eubacterium] sulci
  0.00	1	1	-	888727	                    Eubacterium sulci ATCC 35585
  0.01	4	0	F	2304686	              Hungateiclostridiaceae
  0.00	2	0	G	2304692	                Hungateiclostridium
  0.00	1	0	S	1515	                  Hungateiclostridium thermocellum
  0.00	1	1	-	203119	                    Hungateiclostridium thermocellum ATCC 27405
  0.00	1	0	S	288965	                  Hungateiclostridium clariflavum
  0.00	1	1	-	720554	                    Hungateiclostridium clariflavum DSM 19732
  0.00	1	0	G	236752	                Fastidiosipila
  0.00	1	1	S	236753	                  Fastidiosipila sanguinis
  0.00	1	0	G	1508657	                Ruminiclostridium
  0.00	1	0	S	1521	                  Ruminiclostridium cellulolyticum
  0.00	1	1	-	394503	                    Ruminiclostridium cellulolyticum H10
  0.00	2	0	F	186807	              Peptococcaceae
  0.00	1	0	G	1562	                Desulfotomaculum
  0.00	1	0	S	1564	                  Desulfotomaculum ruminis
  0.00	1	1	-	696281	                    Desulfotomaculum ruminis DSM 2154
  0.00	1	0	G	36853	                Desulfitobacterium
  0.00	1	0	S	142877	                  Desulfitobacterium metallireducens
  0.00	1	1	-	871968	                    Desulfitobacterium metallireducens DSM 15288
  0.00	2	0	F	541000	              Ruminococcaceae
  0.00	1	0	G	1263	                Ruminococcus
  0.00	1	1	S	1160721	                  Ruminococcus bicirculans
  0.00	1	0	G	216851	                Faecalibacterium
  0.00	1	1	S	853	                  Faecalibacterium prausnitzii
  0.00	1	0	F	186806	              Eubacteriaceae
  0.00	1	0	G	1730	                Eubacterium
  0.00	1	0	S	39485	                  [Eubacterium] eligens
  0.00	1	1	-	515620	                    [Eubacterium] eligens ATCC 27750
  0.00	1	0	O	53433	            Halanaerobiales
  0.00	1	0	F	53434	              Halobacteroidaceae
  0.00	1	0	G	42417	                Halobacteroides
  0.00	1	0	S	42422	                  Halobacteroides halobius
  0.00	1	1	-	748449	                    Halobacteroides halobius DSM 5150
  0.04	31	0	C	1737404	          Tissierellia
  0.04	30	0	O	1737405	            Tissierellales
  0.04	30	0	F	1570339	              Peptoniphilaceae
  0.04	28	0	G	543311	                Parvimonas
  0.04	28	28	S	33033	                  Parvimonas micra
  0.00	2	0	G	150022	                Finegoldia
  0.00	2	0	S	1260	                  Finegoldia magna
  0.00	2	2	-	334413	                    Finegoldia magna ATCC 29328
  0.00	1	0	-	1737407	            unclassified Tissierellia
  0.00	1	0	G	1582879	              Ezakiella
  0.00	1	1	S	1852374	                Ezakiella massiliensis
  0.00	3	0	C	526524	          Erysipelotrichia
  0.00	3	0	O	526525	            Erysipelotrichales
  0.00	3	0	F	128827	              Erysipelotrichaceae
  0.00	1	1	G	1647	                Erysipelothrix
  0.00	1	0	-	433334	                unclassified Erysipelotrichaceae
  0.00	1	0	-	544447	                  unclassified Erysipelotrichaceae (miscellaneous)
  0.00	1	1	S	1834207	                    Erysipelotrichaceae bacterium I46
  0.00	1	0	G	1729679	                Faecalibaculum
  0.00	1	1	S	1702221	                  Faecalibaculum rodentium
  2.58	1944	0	P	201174	        Actinobacteria
  2.54	1917	26	C	1760	          Actinobacteria
  1.90	1433	0	O	85006	            Micrococcales
  1.82	1370	3	F	1268	              Micrococcaceae
  1.76	1330	6	G	32207	                Rothia
  1.68	1269	965	S	43675	                  Rothia mucilaginosa
  0.40	304	304	-	680646	                    Rothia mucilaginosa DY-18
  0.07	52	26	S	2047	                  Rothia dentocariosa
  0.03	26	26	-	762948	                    Rothia dentocariosa ATCC 17931
  0.00	3	3	S	172042	                  Rothia aeria
  0.03	23	0	G	1663	                Arthrobacter
  0.01	5	5	S	1652545	                  Arthrobacter sp. YC-RL1
  0.00	3	3	S	1357915	                  Arthrobacter sp. QXT-31
  0.00	3	3	S	1806905	                  Arthrobacter sp. ZXY-2
  0.00	3	3	S	2211210	                  Arthrobacter sp. DCT-5
  0.00	2	2	S	656366	                  Arthrobacter alpinus
  0.00	2	2	S	1494608	                  Arthrobacter sp. PAMC 25486
  0.00	1	1	S	290399	                  Arthrobacter sp. FB24
  0.00	1	1	S	1771959	                  Arthrobacter sp. ATCC 21022
  0.00	1	1	S	2020486	                  Arthrobacter sp. YN
  0.00	1	1	S	2575374	                  Arthrobacter sp. 24S4-2
  0.00	1	1	S	2600159	                  Arthrobacter sp. UKPF54-2
  0.01	8	1	G	57493	                Kocuria
  0.00	3	3	S	1275	                  Kocuria rosea
  0.00	2	2	S	446860	                  Kocuria flava
  0.00	1	1	S	71999	                  Kocuria palustris
  0.00	1	1	S	72000	                  Kocuria rhizophila
  0.00	2	0	G	1742993	                Pseudarthrobacter
  0.00	1	0	S	85085	                  Pseudarthrobacter chlorophenolicus
  0.00	1	1	-	452863	                    Pseudarthrobacter chlorophenolicus A6
  0.00	1	1	S	121292	                  Pseudarthrobacter sulfonivorans
  0.00	1	0	G	1269	                Micrococcus
  0.00	1	1	S	1270	                  Micrococcus luteus
  0.00	1	0	G	1742989	                Glutamicibacter
  0.00	1	0	S	256701	                  Glutamicibacter arilaitensis
  0.00	1	1	-	861360	                    Glutamicibacter arilaitensis Re117
  0.00	1	0	G	1742992	                Paenarthrobacter
  0.00	1	0	S	43663	                  Paenarthrobacter aurescens
  0.00	1	1	-	290340	                    Paenarthrobacter aurescens TC1
  0.00	1	0	G	2078575	                Psychromicrobium
  0.00	1	1	S	1618207	                  Psychromicrobium lacuslunae
  0.03	24	2	F	85023	              Microbacteriaceae
  0.01	8	2	G	33882	                Microbacterium
  0.00	1	0	S	2033	                  Microbacterium testaceum
  0.00	1	1	-	979556	                    Microbacterium testaceum StLB037
  0.00	1	1	S	36805	                  Microbacterium aurum
  0.00	1	1	S	82380	                  Microbacterium oxydans
  0.00	1	1	S	904291	                  Microbacterium sediminis
  0.00	1	1	S	1072463	                  Microbacterium lemovicicum
  0.00	1	1	S	2268461	                  Microbacterium sp. ABRD_28
  0.00	2	0	G	1573	                Clavibacter
  0.00	2	0	S	28447	                  Clavibacter michiganensis
  0.00	2	2	-	31964	                    Clavibacter michiganensis subsp. sepedonicus
  0.00	2	0	G	2034	                Curtobacterium
  0.00	1	1	S	69373	                  Curtobacterium pusillum
  0.00	1	1	S	1905847	                  Curtobacterium sp. BH-2-1-1
  0.00	2	0	G	33877	                Agromyces
  0.00	1	1	S	453304	                  Agromyces aureus
  0.00	1	1	S	2498704	                  Agromyces sp. LHK192
  0.00	2	0	G	1195526	                Gryllotalpicola
  0.00	2	2	S	2419771	                  Gryllotalpicola sp. 2DFW10M-5
  0.00	1	0	G	33886	                Rathayibacter
  0.00	1	1	S	33887	                  Rathayibacter rathayi
  0.00	1	0	G	55968	                Leucobacter
  0.00	1	1	S	1784719	                  Leucobacter triazinivorans
  0.00	1	0	G	69578	                Cryobacterium
  0.00	1	1	S	1978566	                  Cryobacterium sp. LW097
  0.00	1	0	G	110932	                Leifsonia
  0.00	1	0	S	1575	                  Leifsonia xyli
  0.00	1	0	-	59736	                    Leifsonia xyli subsp. xyli
  0.00	1	1	-	281090	                      Leifsonia xyli subsp. xyli str. CTCB07
  0.00	1	0	G	427753	                Humibacter
  0.00	1	1	S	2599293	                  Humibacter sp. WJ7-1
  0.00	1	0	G	1434018	                Lysinimonas
  0.00	1	1	S	2419774	                  Lysinimonas sp. 2DFWR-13
  0.01	7	0	F	85020	              Dermabacteraceae
  0.01	6	0	G	43668	                Brachybacterium
  0.00	2	2	S	2017484	                  Brachybacterium sp. VM2412
  0.00	1	0	S	43669	                  Brachybacterium faecium
  0.00	1	1	-	446465	                    Brachybacterium faecium DSM 4810
  0.00	1	1	S	556288	                  Brachybacterium saurashtrense
  0.00	1	1	S	1903186	                  Brachybacterium sp. P6-10-X1
  0.00	1	1	S	2571029	                  Brachybacterium sp. SGAir0954
  0.00	1	0	G	36739	                Dermabacter
  0.00	1	1	S	1630135	                  Dermabacter vaginalis
  0.01	7	0	-	577468	              unclassified Micrococcales
  0.01	7	0	G	2038	                Tropheryma
  0.01	7	7	S	2039	                  Tropheryma whipplei
  0.01	6	0	F	85021	              Intrasporangiaceae
  0.00	2	0	G	53457	                Janibacter
  0.00	2	2	S	857417	                  Janibacter indicus
  0.00	2	0	G	125287	                Ornithinimicrobium
  0.00	1	1	S	2283195	                  Ornithinimicrobium sp. AMA3305
  0.00	1	1	S	2508882	                  Ornithinimicrobium sp. HY006
  0.00	1	0	G	265976	                Serinicoccus
  0.00	1	1	S	1758689	                  Serinicoccus sp. JLT9
  0.00	1	0	G	267408	                Arsenicicoccus
  0.00	1	1	S	1658671	                  Arsenicicoccus sp. oral taxon 190
  0.01	6	0	F	145357	              Dermacoccaceae
  0.01	4	0	G	57495	                Dermacoccus
  0.01	4	4	S	1274	                  Dermacoccus nishinomiyaensis
  0.00	2	0	G	57499	                Kytococcus
  0.00	2	0	S	1276	                  Kytococcus sedentarius
  0.00	2	2	-	478801	                    Kytococcus sedentarius DSM 20547
  0.01	5	0	F	85019	              Brevibacteriaceae
  0.01	5	0	G	1696	                Brevibacterium
  0.00	3	3	S	273384	                  Brevibacterium aurantiacum
  0.00	1	1	S	1703	                  Brevibacterium linens
  0.00	1	1	S	2575923	                  Brevibacterium sp. CS2
  0.00	3	0	F	85017	              Promicromonosporaceae
  0.00	2	0	G	254250	                Isoptericola
  0.00	2	0	S	372663	                  Isoptericola dokdonensis
  0.00	2	2	-	1300344	                    Isoptericola dokdonensis DS-3
  0.00	1	0	G	289244	                Xylanimicrobium
  0.00	1	1	S	2509457	                  Xylanimicrobium sp. FW10M-9
  0.00	2	0	F	85016	              Cellulomonadaceae
  0.00	2	0	G	1707	                Cellulomonas
  0.00	1	1	S	1708	                  Cellulomonas fimi
  0.00	1	1	S	2003551	                  Cellulomonas sp. PSBB021
  0.00	2	0	F	85022	              Jonesiaceae
  0.00	2	0	G	43673	                Jonesia
  0.00	2	2	S	43674	                  Jonesia denitrificans
  0.00	1	0	F	125316	              Beutenbergiaceae
  0.00	1	0	G	947525	                Miniimonas
  0.00	1	1	S	2171623	                  Miniimonas sp. S16
  0.43	323	0	O	2037	            Actinomycetales
  0.43	323	1	F	2049	              Actinomycetaceae
  0.24	181	29	G	1654	                Actinomyces
  0.08	63	63	S	544580	                  Actinomyces oris
  0.06	49	49	S	1655	                  Actinomyces naeslundii
  0.02	17	0	S	706438	                  Actinomyces sp. oral taxon 171
  0.02	17	17	-	706439	                    Actinomyces sp. oral taxon 171 str. F0337
  0.01	7	7	S	1656	                  Actinomyces viscosus
  0.01	4	4	S	712122	                  Actinomyces sp. oral taxon 414
  0.01	4	4	S	1852377	                  Actinomyces pacaensis
  0.01	4	4	S	2081702	                  Actinomyces sp. oral taxon 897
  0.00	2	2	S	52774	                  Actinomyces slackii
  0.00	2	2	S	2057800	                  Actinomyces sp. 410
  0.18	138	0	G	2529408	                Schaalia
  0.17	129	129	S	1660	                  Schaalia odontolytica
  0.01	7	7	S	52773	                  Schaalia meyeri
  0.00	2	0	S	181487	                  Schaalia cardiffensis
  0.00	2	2	-	888050	                    Schaalia cardiffensis F0333
  0.00	2	0	G	1522056	                Flaviflexus
  0.00	1	1	S	1282737	                  Flaviflexus salsibiostraticola
  0.00	1	1	S	2496867	                  Flaviflexus sp. H23T48
  0.00	1	0	G	76833	                Actinobaculum
  0.00	1	1	S	2495645	                  Actinobaculum sp. 313
  0.05	41	2	O	85007	            Corynebacteriales
  0.02	16	0	F	1653	              Corynebacteriaceae
  0.02	16	2	G	1716	                Corynebacterium
  0.00	3	3	S	43768	                  Corynebacterium matruchotii
  0.00	2	2	S	1717	                  Corynebacterium diphtheriae
  0.00	1	1	S	1719	                  Corynebacterium pseudotuberculosis
  0.00	1	1	S	43770	                  Corynebacterium striatum
  0.00	1	0	S	152794	                  Corynebacterium efficiens
  0.00	1	1	-	196164	                    Corynebacterium efficiens YS-314
  0.00	1	1	S	187491	                  Corynebacterium glaucum
  0.00	1	0	S	203263	                  Corynebacterium aquilae
  0.00	1	1	-	1431546	                    Corynebacterium aquilae DSM 44791
  0.00	1	0	S	258224	                  Corynebacterium resistens
  0.00	1	1	-	662755	                    Corynebacterium resistens DSM 45100
  0.00	1	0	S	1032851	                  Corynebacterium nuruki
  0.00	1	1	-	863239	                    Corynebacterium nuruki S6-4
  0.00	1	1	S	2079535	                  Corynebacterium sp. 2184
  0.00	1	1	S	2599641	                  Corynebacterium sp. sy039
  0.01	10	0	F	85025	              Nocardiaceae
  0.01	5	0	G	1817	                Nocardia
  0.00	3	0	S	37329	                  Nocardia farcinica
  0.00	3	3	-	247156	                    Nocardia farcinica IFM 10152
  0.00	1	1	S	1823	                  Nocardia otitidiscaviarum
  0.00	1	1	S	2213200	                  Nocardia sp. Y48
  0.01	5	0	G	1827	                Rhodococcus
  0.00	2	2	S	1990687	                  Rhodococcus sp. S2-17
  0.00	1	1	S	37919	                  Rhodococcus opacus
  0.00	1	1	S	103816	                  Rhodococcus pyridinivorans
  0.00	1	1	S	1033922	                  Rhodococcus sp. WB1
  0.01	9	4	F	1762	              Mycobacteriaceae
  0.00	2	0	G	1763	                Mycobacterium
  0.00	1	1	S	1920667	                  Mycobacterium sp. WY10
  0.00	1	0	S	2249310	                  Mycobacterium simiae complex
  0.00	1	1	S	722731	                    Mycobacterium shigaense
  0.00	2	0	G	1866885	                Mycolicibacterium
  0.00	1	1	S	1792	                  Mycolicibacterium chitae
  0.00	1	0	S	1810	                  Mycolicibacterium vaccae
  0.00	1	1	-	1354275	                    Mycolicibacterium vaccae 95051
  0.00	1	0	G	1073531	                Mycolicibacter
  0.00	1	1	S	875328	                  Mycolicibacter sinensis
  0.00	2	0	F	85026	              Gordoniaceae
  0.00	2	0	G	2053	                Gordonia
  0.00	1	1	S	36822	                  Gordonia rubripertincta
  0.00	1	1	S	1136941	                  Gordonia phthalatica
  0.00	1	0	F	85028	              Tsukamurellaceae
  0.00	1	0	G	2060	                Tsukamurella
  0.00	1	1	S	57704	                  Tsukamurella tyrosinosolvens
  0.00	1	0	F	85029	              Dietziaceae
  0.00	1	0	G	37914	                Dietzia
  0.00	1	1	S	712270	                  Dietzia sp. oral taxon 368
  0.05	38	0	O	85011	            Streptomycetales
  0.05	38	0	F	2062	              Streptomycetaceae
  0.04	33	10	G	1883	                Streptomyces
  0.00	2	2	S	1912	                  Streptomyces hygroscopicus
  0.00	2	0	S	629295	                  Streptomyces griseus group
  0.00	2	0	S	1482566	                    Streptomyces bacillaris subgroup
  0.00	2	2	S	68179	                      Streptomyces bacillaris
  0.00	1	0	S	1916	                  Streptomyces lividans
  0.00	1	1	-	457428	                    Streptomyces lividans TK24
  0.00	1	1	S	1940	                  Streptomyces albireticuli
  0.00	1	1	S	47763	                  Streptomyces lydicus
  0.00	1	1	S	67267	                  Streptomyces alboflavus
  0.00	1	1	S	68209	                  Streptomyces globosus
  0.00	1	0	S	68246	                  Streptomyces olivoreticuli
  0.00	1	1	-	284034	                    Streptomyces olivoreticuli subsp. olivoreticuli
  0.00	1	1	S	68270	                  Streptomyces spectabilis
  0.00	1	1	S	146923	                  Streptomyces parvulus
  0.00	1	1	S	193462	                  Streptomyces niveus
  0.00	1	1	S	362257	                  Streptomyces vietnamensis
  0.00	1	0	S	379067	                  Streptomyces bingchenggensis
  0.00	1	1	-	749414	                    Streptomyces bingchenggensis BCW-1
  0.00	1	1	S	862751	                  Streptomyces sp. SirexAA-E
  0.00	1	0	S	1038928	                  Streptomyces xinghaiensis
  0.00	1	1	-	1038929	                    Streptomyces xinghaiensis S187
  0.00	1	1	S	1437453	                  Streptomyces leeuwenhoekii
  0.00	1	1	S	1535768	                  Streptomyces lunaelactis
  0.00	1	1	S	1837283	                  Streptomyces sp. S8
  0.00	1	1	S	2005885	                  Streptomyces sp. S063
  0.00	1	1	S	2203204	                  Streptomyces sp. WAC 01438
  0.00	1	1	S	2599401	                  Streptomyces sp. SSL-25
  0.01	4	0	G	2063	                Kitasatospora
  0.00	2	2	S	68173	                  Kitasatospora albolonga
  0.00	1	1	S	1894	                  Kitasatospora aureofaciens
  0.00	1	0	S	2066	                  Kitasatospora setae
  0.00	1	1	-	452652	                    Kitasatospora setae KM-6054
  0.00	1	0	G	228398	                Streptacidiphilus
  0.00	1	1	S	2126346	                  Streptacidiphilus sp. DSM 106435
  0.02	17	0	O	85004	            Bifidobacteriales
  0.02	17	1	F	31953	              Bifidobacteriaceae
  0.02	15	4	G	1678	                Bifidobacterium
  0.01	8	8	S	1689	                  Bifidobacterium dentium
  0.00	2	2	S	28025	                  Bifidobacterium animalis
  0.00	1	0	S	33905	                  Bifidobacterium thermophilum
  0.00	1	1	-	1254439	                    Bifidobacterium thermophilum RBL67
  0.00	1	0	G	196081	                Scardovia
  0.00	1	0	S	78259	                  Scardovia inopinata
  0.00	1	1	-	1150468	                    Scardovia inopinata JCM 12537
  0.02	16	0	O	85009	            Propionibacteriales
  0.02	14	0	F	31957	              Propionibacteriaceae
  0.01	5	0	G	1912216	                Cutibacterium
  0.01	5	5	S	1747	                  Cutibacterium acnes
  0.01	4	0	G	1743	                Propionibacterium
  0.00	3	2	S	1744	                  Propionibacterium freudenreichii
  0.00	1	1	-	66712	                    Propionibacterium freudenreichii subsp. freudenreichii
  0.00	1	1	S	556499	                  Propionibacterium acidifaciens
  0.00	2	0	G	72763	                Tessaracoccus
  0.00	1	1	S	1332264	                  Tessaracoccus aquimaris
  0.00	1	1	S	2161816	                  Tessaracoccus timonensis
  0.00	2	0	G	1912215	                Acidipropionibacterium
  0.00	1	1	S	1748	                  Acidipropionibacterium acidipropionici
  0.00	1	1	S	2057246	                  Acidipropionibacterium virtanenii
  0.00	1	0	G	1912217	                Pseudopropionibacterium
  0.00	1	1	S	1750	                  Pseudopropionibacterium propionicum
  0.00	2	0	F	85015	              Nocardioidaceae
  0.00	2	0	G	1839	                Nocardioides
  0.00	1	1	S	402297	                  Nocardioides daphniae
  0.00	1	1	S	449461	                  Nocardioides humi
  0.01	11	0	O	85010	            Pseudonocardiales
  0.01	11	0	F	2070	              Pseudonocardiaceae
  0.01	4	0	G	1813	                Amycolatopsis
  0.00	2	0	S	1814	                  Amycolatopsis methanolica
  0.00	2	2	-	1068978	                    Amycolatopsis methanolica 239
  0.00	1	1	S	31958	                  Amycolatopsis orientalis
  0.00	1	1	S	1896961	                  Amycolatopsis sp. AA4
  0.00	3	0	G	43356	                Kutzneria
  0.00	3	0	S	43357	                  Kutzneria albida
  0.00	3	3	-	1449976	                    Kutzneria albida DSM 43870
  0.00	2	1	G	65496	                Actinoalloteichus
  0.00	1	1	S	340345	                  Actinoalloteichus hymeniacidonis
  0.00	1	0	G	1851	                Saccharomonospora
  0.00	1	0	S	1852	                  Saccharomonospora viridis
  0.00	1	1	-	471857	                    Saccharomonospora viridis DSM 43017
  0.00	1	0	G	674734	                Alloactinosynnema
  0.00	1	1	S	1653480	                  Alloactinosynnema sp. L-07
  0.01	4	0	O	414714	            Catenulisporales
  0.01	4	0	F	414877	              Catenulisporaceae
  0.01	4	0	G	414878	                Catenulispora
  0.01	4	0	S	304895	                  Catenulispora acidiphila
  0.01	4	4	-	479433	                    Catenulispora acidiphila DSM 44928
  0.00	3	0	O	85012	            Streptosporangiales
  0.00	2	0	F	83676	              Nocardiopsaceae
  0.00	1	0	G	2013	                Nocardiopsis
  0.00	1	1	S	2014	                  Nocardiopsis dassonvillei
  0.00	1	0	G	104204	                Streptomonospora
  0.00	1	1	S	2498135	                  Streptomonospora sp. M2
  0.00	1	0	F	2012	              Thermomonosporaceae
  0.00	1	0	G	1988	                Actinomadura
  0.00	1	1	S	1411117	                  Actinomadura amylolytica
  0.00	2	0	O	85008	            Micromonosporales
  0.00	2	1	F	28056	              Micromonosporaceae
  0.00	1	0	G	1873	                Micromonospora
  0.00	1	1	S	2583243	                  Micromonospora sp. HM134
  0.00	1	0	O	85013	            Frankiales
  0.00	1	0	F	74712	              Frankiaceae
  0.00	1	0	G	1854	                Frankia
  0.00	1	1	S	298653	                  Frankia sp. EAN1pec
  0.00	1	0	O	622450	            Actinopolysporales
  0.00	1	0	F	622451	              Actinopolysporaceae
  0.00	1	0	G	1849	                Actinopolyspora
  0.00	1	1	S	414996	                  Actinopolyspora erythraea
  0.00	1	0	O	2039638	            Candidatus Nanopelagicales
  0.00	1	0	F	2162846	              Candidatus Nanopelagicaceae
  0.00	1	0	G	622681	                Candidatus Planktophila
  0.00	1	1	S	1884914	                  Candidatus Planktophila dulcis
  0.04	27	1	C	84998	          Coriobacteriia
  0.03	23	0	O	84999	            Coriobacteriales
  0.03	22	0	F	1643824	              Atopobiaceae
  0.02	17	0	G	1380	                Atopobium
  0.02	17	0	S	1382	                  Atopobium parvulum
  0.02	17	17	-	521095	                    Atopobium parvulum DSM 20469
  0.01	4	0	G	133925	                Olsenella
  0.00	3	0	S	133926	                  Olsenella uli
  0.00	3	3	-	633147	                    Olsenella uli DSM 7084
  0.00	1	1	S	712411	                  Olsenella sp. oral taxon 807
  0.00	1	0	G	2082587	                Parolsenella
  0.00	1	1	S	2003188	                  Parolsenella catena
  0.00	1	0	F	84107	              Coriobacteriaceae
  0.00	1	0	G	102106	                Collinsella
  0.00	1	1	S	74426	                  Collinsella aerofaciens
  0.00	3	0	O	1643822	            Eggerthellales
  0.00	3	0	F	1643826	              Eggerthellaceae
  0.00	2	0	G	84111	                Eggerthella
  0.00	2	1	S	84112	                  Eggerthella lenta
  0.00	1	1	-	479437	                    Eggerthella lenta DSM 2243
  0.00	1	0	G	79603	                Denitrobacterium
  0.00	1	1	S	79604	                  Denitrobacterium detoxificans
  0.02	12	0	-	1798711	        Cyanobacteria/Melainabacteria group
  0.02	12	0	P	1117	          Cyanobacteria
  0.01	5	0	O	1890424	            Synechococcales
  0.00	3	0	F	1890438	              Leptolyngbyaceae
  0.00	3	0	G	47251	                Leptolyngbya
  0.00	1	0	S	1184	                  Leptolyngbya boryana
  0.00	1	1	-	1973484	                    Leptolyngbya boryana NIES-2135
  0.00	1	1	S	1080068	                  Leptolyngbya sp. O-77
  0.00	1	1	S	1752064	                  Leptolyngbya sp. NIES-3755
  0.00	1	0	F	1890428	              Merismopediaceae
  0.00	1	0	G	1142	                Synechocystis
  0.00	1	1	S	1147	                  Synechocystis sp. PCC 6714
  0.00	1	0	F	1890436	              Pseudanabaenaceae
  0.00	1	0	G	1152	                Pseudanabaena
  0.00	1	1	S	685565	                  Pseudanabaena sp. ABRG5-3
  0.00	3	0	O	1161	            Nostocales
  0.00	2	0	F	1162	              Nostocaceae
  0.00	1	0	G	1177	                Nostoc
  0.00	1	1	S	1261031	                  Nostoc sp. 'Peltigera membranacea cyanobiont' N6
  0.00	1	0	G	264688	                Trichormus
  0.00	1	0	S	264691	                  Trichormus variabilis
  0.00	1	1	-	240292	                    Trichormus variabilis ATCC 29413
  0.00	1	0	F	1185	              Rivulariaceae
  0.00	1	0	G	1186	                Calothrix
  0.00	1	1	S	1337936	                  Calothrix sp. 336/3
  0.00	3	0	-	1301283	            Oscillatoriophycideae
  0.00	3	0	O	1150	              Oscillatoriales
  0.00	2	0	F	1892254	                Oscillatoriaceae
  0.00	2	0	G	1158	                  Oscillatoria
  0.00	2	0	S	482564	                    Oscillatoria nigro-viridis
  0.00	2	2	-	179408	                      Oscillatoria nigro-viridis PCC 7112
  0.00	1	0	F	1892252	                Microcoleaceae
  0.00	1	0	G	44471	                  Microcoleus
  0.00	1	1	S	1173027	                    Microcoleus sp. PCC 7113
  0.00	1	0	C	307596	            Gloeobacteria
  0.00	1	0	O	307595	              Gloeobacterales
  0.00	1	0	F	1890422	                Gloeobacteraceae
  0.00	1	0	G	33071	                  Gloeobacter
  0.00	1	0	S	33072	                    Gloeobacter violaceus
  0.00	1	1	-	251221	                      Gloeobacter violaceus PCC 7421
  0.01	7	0	P	200795	        Chloroflexi
  0.01	4	0	C	301297	          Dehalococcoidia
  0.01	4	0	O	1202465	            Dehalococcoidales
  0.01	4	0	F	1202464	              Dehalococcoidaceae
  0.01	4	0	G	61434	                Dehalococcoides
  0.01	4	0	S	61435	                  Dehalococcoides mccartyi
  0.01	4	4	-	633145	                    Dehalococcoides mccartyi GT
  0.00	2	0	C	189775	          Thermomicrobia
  0.00	2	0	-	85000	            Sphaerobacteridae
  0.00	2	0	O	85001	              Sphaerobacterales
  0.00	2	0	-	255728	                Sphaerobacterineae
  0.00	2	0	F	85002	                  Sphaerobacteraceae
  0.00	2	0	G	2056	                    Sphaerobacter
  0.00	2	0	S	2057	                      Sphaerobacter thermophilus
  0.00	2	2	-	479434	                        Sphaerobacter thermophilus DSM 20745
  0.00	1	0	C	32061	          Chloroflexia
  0.00	1	0	O	32064	            Chloroflexales
  0.00	1	0	-	1508594	              Chloroflexineae
  0.00	1	0	F	1106	                Chloroflexaceae
  0.00	1	0	G	1107	                  Chloroflexus
  0.00	1	1	S	1108	                    Chloroflexus aurantiacus
  0.01	4	0	P	544448	        Tenericutes
  0.01	4	0	C	31969	          Mollicutes
  0.00	2	0	O	2085	            Mycoplasmatales
  0.00	2	0	F	2092	              Mycoplasmataceae
  0.00	2	0	G	2093	                Mycoplasma
  0.00	1	1	S	2112	                  Mycoplasma bovigenitalium
  0.00	1	0	S	28227	                  Mycoplasma penetrans
  0.00	1	1	-	272633	                    Mycoplasma penetrans HF-2
  0.00	2	0	O	186328	            Entomoplasmatales
  0.00	2	0	F	2131	              Spiroplasmataceae
  0.00	2	0	G	2132	                Spiroplasma
  0.00	1	1	S	216931	                  Spiroplasma alleghenense
  0.00	1	1	S	216942	                  Spiroplasma litorale
  0.00	3	0	P	1297	        Deinococcus-Thermus
  0.00	3	0	C	188787	          Deinococci
  0.00	3	0	O	118964	            Deinococcales
  0.00	3	0	F	183710	              Deinococcaceae
  0.00	3	0	G	1298	                Deinococcus
  0.00	1	0	S	55148	                  Deinococcus proteolyticus
  0.00	1	1	-	693977	                    Deinococcus proteolyticus MRP
  0.00	1	0	S	432329	                  Deinococcus peraridilitoris
  0.00	1	1	-	937777	                    Deinococcus peraridilitoris DSM 19664
  0.00	1	1	S	2489213	                  Deinococcus sp. S14-83
  1.39	1047	0	-	1783270	      FCB group
  1.39	1046	0	-	68336	        Bacteroidetes/Chlorobi group
  1.38	1045	2	P	976	          Bacteroidetes
  1.29	974	1	C	200643	            Bacteroidia
  1.29	972	12	O	171549	              Bacteroidales
  0.67	504	1	F	171552	                Prevotellaceae
  0.66	499	16	G	838	                  Prevotella
  0.22	164	159	S	28131	                    Prevotella intermedia
  0.01	5	5	-	1122984	                      Prevotella intermedia ATCC 25611 = DSM 20706
  0.18	139	139	S	28135	                    Prevotella oris
  0.08	58	58	S	28132	                    Prevotella melaninogenica
  0.05	35	35	S	1177574	                    Prevotella jejuni
  0.04	29	9	S	28129	                    Prevotella denticola
  0.03	20	20	-	767031	                      Prevotella denticola F0289
  0.03	25	25	S	76123	                    Prevotella enoeca
  0.02	16	0	S	589436	                    Prevotella fusca
  0.02	16	16	-	1236517	                      Prevotella fusca JCM 17724
  0.01	8	1	S	52227	                    Prevotella dentalis
  0.01	7	7	-	908937	                      Prevotella dentalis DSM 3688
  0.01	5	0	S	839	                    Prevotella ruminicola
  0.01	5	5	-	264731	                      Prevotella ruminicola 23
  0.01	4	0	S	652716	                    Prevotella sp. oral taxon 299
  0.01	4	4	-	575614	                      Prevotella sp. oral taxon 299 str. F0039
  0.01	4	0	G	577309	                  Paraprevotella
  0.01	4	0	S	454155	                    Paraprevotella xylaniphila
  0.01	4	4	-	762982	                      Paraprevotella xylaniphila YIT 11841
  0.40	300	0	F	171551	                Porphyromonadaceae
  0.40	300	0	G	836	                  Porphyromonas
  0.34	255	243	S	837	                    Porphyromonas gingivalis
  0.01	7	7	-	1403336	                      Porphyromonas gingivalis AJW4
  0.00	3	3	-	1403338	                      Porphyromonas gingivalis A7A1-28
  0.00	2	2	-	1030843	                      Porphyromonas gingivalis TDC60
  0.06	44	0	S	28123	                    Porphyromonas asaccharolytica
  0.06	44	44	-	879243	                      Porphyromonas asaccharolytica DSM 20707
  0.00	1	1	S	36874	                    Porphyromonas cangingivalis
  0.16	120	0	F	2005525	                Tannerellaceae
  0.16	119	0	G	195950	                  Tannerella
  0.16	118	63	S	28112	                    Tannerella forsythia
  0.03	21	21	-	203275	                      Tannerella forsythia 92A2
  0.02	18	18	-	1307832	                      Tannerella forsythia 3313
  0.02	16	16	-	1307833	                      Tannerella forsythia KS16
  0.00	1	1	S	712710	                    Tannerella sp. oral taxon HOT-286
  0.00	1	0	G	375288	                  Parabacteroides
  0.00	1	1	S	823	                    Parabacteroides distasonis
  0.03	22	0	F	815	                Bacteroidaceae
  0.03	22	9	G	816	                  Bacteroides
  0.01	5	5	S	28113	                    Bacteroides heparinolyticus
  0.00	3	0	S	357276	                    Bacteroides dorei
  0.00	3	3	-	997877	                      Bacteroides dorei CL03T12C01
  0.00	2	2	S	2528203	                    Bacteroides sp. A1C1
  0.00	1	1	S	817	                    Bacteroides fragilis
  0.00	1	1	S	28116	                    Bacteroides ovatus
  0.00	1	1	S	329854	                    Bacteroides intestinalis
  0.01	6	0	F	171550	                Rikenellaceae
  0.01	6	3	G	239759	                  Alistipes
  0.00	2	2	S	2585119	                    Alistipes sp. 5CPEGH6
  0.00	1	1	S	2585118	                    Alistipes sp. 5CBH24
  0.00	3	0	F	2005473	                Muribaculaceae
  0.00	3	0	G	2518495	                  Duncaniella
  0.00	3	3	S	2576606	                    Duncaniella sp. B8
  0.00	1	0	-	333046	                unclassified Bacteroidales
  0.00	1	0	G	511434	                  Candidatus Azobacteroides
  0.00	1	0	S	511435	                    Candidatus Azobacteroides pseudotrichonymphae
  0.00	1	1	-	511995	                      Candidatus Azobacteroides pseudotrichonymphae genomovar. CFP2
  0.00	1	0	F	1853231	                Odoribacteraceae
  0.00	1	0	G	574697	                  Butyricimonas
  0.00	1	1	S	2093856	                    Butyricimonas faecalis
  0.00	1	0	F	2005519	                Barnesiellaceae
  0.00	1	0	G	397864	                  Barnesiella
  0.00	1	0	S	397865	                    Barnesiella viscericola
  0.00	1	1	-	880074	                      Barnesiella viscericola DSM 18177
  0.00	1	0	F	2005520	                Dysgonamonadaceae
  0.00	1	0	G	294702	                  Proteiniphilum
  0.00	1	1	S	1642647	                    Proteiniphilum saccharofermentans
  0.00	1	0	F	2005523	                Paludibacteraceae
  0.00	1	0	G	346096	                  Paludibacter
  0.00	1	0	S	185300	                    Paludibacter propionicigenes
  0.00	1	1	-	694427	                      Paludibacter propionicigenes WB4
  0.00	1	0	O	1970189	              Marinilabiliales
  0.00	1	0	F	1970190	                Salinivirgaceae
  0.00	1	0	G	1970191	                  Salinivirga
  0.00	1	1	S	1307839	                    Salinivirga cyanobacteriivorans
  0.07	54	0	C	117743	            Flavobacteriia
  0.07	54	0	O	200644	              Flavobacteriales
  0.07	54	1	F	49546	                Flavobacteriaceae
  0.04	28	1	G	1016	                  Capnocytophaga
  0.03	21	21	S	327575	                    Capnocytophaga leadbetteri
  0.00	2	2	S	1316593	                    Capnocytophaga sp. oral taxon 864
  0.00	1	0	S	1018	                    Capnocytophaga ochracea
  0.00	1	1	-	521097	                      Capnocytophaga ochracea DSM 7271
  0.00	1	1	S	1019	                    Capnocytophaga sputigena
  0.00	1	1	S	28188	                    Capnocytophaga canimorsus
  0.00	1	1	S	1316596	                    Capnocytophaga sp. oral taxon 878
  0.01	6	1	G	59732	                  Chryseobacterium
  0.00	2	2	S	2487073	                    Chryseobacterium sp. H3001
  0.00	1	1	S	253	                    Chryseobacterium indologenes
  0.00	1	1	S	254	                    Chryseobacterium indoltheticum
  0.00	1	1	S	1241978	                    Chryseobacterium bernardetii
  0.00	3	0	G	237	                  Flavobacterium
  0.00	1	1	S	996	                    Flavobacterium columnare
  0.00	1	1	S	2249356	                    Flavobacterium sp. HYN0086
  0.00	1	1	S	2547394	                    Flavobacterium sp. GS13
  0.00	2	0	G	28250	                  Ornithobacterium
  0.00	2	2	S	28251	                    Ornithobacterium rhinotracheale
  0.00	2	0	G	225842	                  Formosa
  0.00	2	2	S	2594004	                    Formosa sp. PS13
  0.00	2	0	G	292691	                  Gramella
  0.00	1	0	S	1486245	                    Gramella flava
  0.00	1	1	-	1229726	                      Gramella flava JLT2011
  0.00	1	1	S	2126553	                    Gramella sp. SH35
  0.00	1	0	G	1013	                  Weeksella
  0.00	1	1	S	1014	                    Weeksella virosa
  0.00	1	0	G	34084	                  Riemerella
  0.00	1	1	S	34085	                    Riemerella anatipestifer
  0.00	1	0	G	52959	                  Polaribacter
  0.00	1	1	S	2058137	                    Polaribacter sp. ALD11
  0.00	1	0	G	104267	                  Tenacibaculum
  0.00	1	1	S	669041	                    Tenacibaculum dicentrarchi
  0.00	1	1	G	308865	                  Elizabethkingia
  0.00	1	0	G	336276	                  Olleya
  0.00	1	1	S	2058135	                    Olleya sp. Bg11-27
  0.00	1	0	G	389486	                  Sediminicola
  0.00	1	1	S	1453352	                    Sediminicola sp. YIK13
  0.00	1	0	G	393005	                  Tamlana
  0.00	1	1	S	2069432	                    Tamlana sp. UJ94
  0.00	1	0	G	1287916	                  Euzebyella
  0.00	1	1	S	1761453	                    Euzebyella marina
  0.00	1	0	G	2049301	                  Changchengzhania
  0.00	1	1	S	2049305	                    Changchengzhania lutea
  0.01	9	0	C	768503	            Cytophagia
  0.01	9	0	O	768507	              Cytophagales
  0.01	5	0	F	1853232	                Hymenobacteraceae
  0.01	4	1	G	89966	                  Hymenobacter
  0.00	1	1	S	1411621	                    Hymenobacter sedentarius
  0.00	1	1	S	2496028	                    Hymenobacter sp. 17J36-26
  0.00	1	1	S	2502781	                    Hymenobacter sp. 17J68-5
  0.00	1	0	G	1379908	                  Rufibacter
  0.00	1	1	S	1379909	                    Rufibacter sp. DG15C
  0.00	2	0	F	563798	                Cyclobacteriaceae
  0.00	1	0	G	68288	                  Cyclobacterium
  0.00	1	0	S	104	                    Cyclobacterium marinum
  0.00	1	1	-	880070	                      Cyclobacterium marinum DSM 745
  0.00	1	0	G	390846	                  Echinicola
  0.00	1	1	S	1795355	                    Echinicola strongylocentroti
  0.00	1	0	F	89373	                Cytophagaceae
  0.00	1	0	G	2173039	                  Arcticibacterium
  0.00	1	1	S	1784714	                    Arcticibacterium luteifluviistationis
  0.00	1	0	F	1501348	                Amoebophilaceae
  0.00	1	0	G	273135	                  Candidatus Cardinium
  0.00	1	1	S	650378	                    Cardinium endosymbiont of Sogatella furcifera
  0.01	5	0	C	117747	            Sphingobacteriia
  0.01	5	0	O	200666	              Sphingobacteriales
  0.01	5	0	F	84566	                Sphingobacteriaceae
  0.00	3	1	G	28453	                  Sphingobacterium
  0.00	1	1	S	259	                    Sphingobacterium thalpophilum
  0.00	1	1	S	1010	                    Sphingobacterium mizutaii
  0.00	2	0	G	84567	                  Pedobacter
  0.00	1	1	S	1727164	                    Pedobacter sp. PACM 27299
  0.00	1	1	S	2578106	                    Pedobacter sp. KBS0701
  0.00	1	0	C	1853228	            Chitinophagia
  0.00	1	0	O	1853229	              Chitinophagales
  0.00	1	0	F	563835	                Chitinophagaceae
  0.00	1	0	G	649460	                  Filimonas
  0.00	1	1	S	477680	                    Filimonas lacunae
  0.00	1	0	P	1936987	          Balneolaeota
  0.00	1	0	-	2489366	            unclassified Balneolaeota
  0.00	1	0	G	2489367	              Candidatus Cyclonatronum
  0.00	1	1	S	1457365	                Candidatus Cyclonatronum proteinivorum
  0.00	1	0	P	65842	        Fibrobacteres
  0.00	1	0	C	204430	          Fibrobacteria
  0.00	1	0	O	218872	            Fibrobacterales
  0.00	1	0	F	204431	              Fibrobacteraceae
  0.00	1	0	G	832	                Fibrobacter
  0.00	1	1	S	833	                  Fibrobacter succinogenes
  0.08	60	0	P	203691	      Spirochaetes
  0.08	60	0	C	203692	        Spirochaetia
  0.08	58	0	O	136	          Spirochaetales
  0.08	57	0	F	137	            Spirochaetaceae
  0.08	57	0	G	157	              Treponema
  0.05	38	0	S	158	                Treponema denticola
  0.05	38	38	-	243275	                  Treponema denticola ATCC 35405
  0.02	15	15	S	1539298	                Treponema sp. OMZ 838
  0.01	4	4	S	221027	                Treponema putidum
  0.00	1	0	F	1643685	            Borreliaceae
  0.00	1	0	G	138	              Borrelia
  0.00	1	0	S	44449	                Borrelia recurrentis
  0.00	1	1	-	412418	                  Borrelia recurrentis A1
  0.00	1	0	O	1643686	          Brachyspirales
  0.00	1	0	F	143786	            Brachyspiraceae
  0.00	1	0	G	29521	              Brachyspira
  0.00	1	0	S	159	                Brachyspira hyodysenteriae
  0.00	1	1	-	565034	                  Brachyspira hyodysenteriae WA1
  0.00	1	0	O	1643688	          Leptospirales
  0.00	1	0	F	170	            Leptospiraceae
  0.00	1	0	G	171	              Leptospira
  0.00	1	1	S	28184	                Leptospira weilii
  0.03	20	0	P	32066	      Fusobacteria
  0.03	20	0	C	203490	        Fusobacteriia
  0.03	20	1	O	203491	          Fusobacteriales
  0.02	18	0	F	203492	            Fusobacteriaceae
  0.02	18	2	G	848	              Fusobacterium
  0.02	14	9	S	851	                Fusobacterium nucleatum
  0.00	3	1	-	76859	                  Fusobacterium nucleatum subsp. animalis
  0.00	2	2	-	457405	                    Fusobacterium nucleatum subsp. animalis 7_1
  0.00	2	1	-	155615	                  Fusobacterium nucleatum subsp. vincentii
  0.00	1	1	-	469602	                    Fusobacterium nucleatum subsp. vincentii 3_1_27
  0.00	1	1	S	860	                Fusobacterium periodonticum
  0.00	1	1	S	1583098	                Fusobacterium hwasookii
  0.00	1	0	F	1129771	            Leptotrichiaceae
  0.00	1	0	G	168808	              Sneathia
  0.00	1	1	S	187101	                Sneathia amnii
  0.01	7	0	-	2323	      unclassified Bacteria
  0.01	7	0	-	1783234	        Bacteria candidate phyla
  0.01	7	4	P	95818	          Candidatus Saccharibacteria
  0.00	2	2	S	713059	            TM7 phylum sp. oral taxon 488
  0.00	1	1	S	2572088	            TM7 phylum sp. oral taxon 957
  0.01	7	0	-	1783257	      PVC group
  0.01	4	0	P	203682	        Planctomycetes
  0.00	3	0	-	473814	          unclassified Planctomycetes
  0.00	1	1	S	1930274	            Planctomycetes bacterium FF011L
  0.00	1	1	S	2527962	            Planctomycetes bacterium K2D
  0.00	1	1	S	2528029	            Planctomycetes bacterium Pan153
  0.00	1	0	C	203683	          Planctomycetia
  0.00	1	0	O	112	            Planctomycetales
  0.00	1	0	F	1914233	              Gemmataceae
  0.00	1	0	G	113	                Gemmata
  0.00	1	1	S	114	                  Gemmata obscuriglobus
  0.00	2	0	P	74201	        Verrucomicrobia
  0.00	2	0	C	203494	          Verrucomicrobiae
  0.00	2	0	O	48461	            Verrucomicrobiales
  0.00	2	0	F	1647988	              Akkermansiaceae
  0.00	2	0	G	239934	                Akkermansia
  0.00	1	1	S	239935	                  Akkermansia muciniphila
  0.00	1	1	S	1679444	                  Akkermansia glycaniphila
  0.00	1	0	P	204428	        Chlamydiae
  0.00	1	0	C	204429	          Chlamydiia
  0.00	1	0	O	1963360	            Parachlamydiales
  0.00	1	0	F	92712	              Simkaniaceae
  0.00	1	0	G	34093	                Simkania
  0.00	1	0	S	83561	                  Simkania negevensis
  0.00	1	1	-	331113	                    Simkania negevensis Z
  0.00	3	0	P	200783	      Aquificae
  0.00	3	0	C	187857	        Aquificae
  0.00	2	0	O	32069	          Aquificales
  0.00	1	0	F	64898	            Aquificaceae
  0.00	1	0	G	75905	              Thermocrinis
  0.00	1	1	S	75906	                Thermocrinis ruber
  0.00	1	0	F	224027	            Hydrogenothermaceae
  0.00	1	0	G	182899	              Persephonella
  0.00	1	0	S	309805	                Persephonella marina
  0.00	1	1	-	123214	                  Persephonella marina EX-H1
  0.00	1	0	O	1485951	          Desulfurobacteriales
  0.00	1	0	F	558314	            Desulfurobacteriaceae
  0.00	1	0	G	171868	              Thermovibrio
  0.00	1	0	S	228745	                Thermovibrio ammonificans
  0.00	1	1	-	648996	                  Thermovibrio ammonificans HB-1
  0.00	2	0	P	57723	      Acidobacteria
  0.00	2	0	C	204432	        Acidobacteriia
  0.00	2	0	O	204433	          Acidobacteriales
  0.00	2	0	F	204434	            Acidobacteriaceae
  0.00	1	0	G	392733	              Terriglobus
  0.00	1	0	S	392734	                Terriglobus roseus
  0.00	1	1	-	926566	                  Terriglobus roseus DSM 18391
  0.00	1	0	G	658061	              Candidatus Koribacter
  0.00	1	0	S	658062	                Candidatus Koribacter versatilis
  0.00	1	1	-	204669	                  Candidatus Koribacter versatilis Ellin345
  0.00	2	0	P	200918	      Thermotogae
  0.00	2	0	C	188708	        Thermotogae
  0.00	1	0	O	2419	          Thermotogales
  0.00	1	0	F	188709	            Thermotogaceae
  0.00	1	1	G	2335	              Thermotoga
  0.00	1	0	O	1643946	          Kosmotogales
  0.00	1	0	F	1643948	            Kosmotogaceae
  0.00	1	0	G	1184396	              Mesotoga
  0.00	1	0	S	1184387	                Mesotoga prima
  0.00	1	1	-	660470	                  Mesotoga prima MesG1.Ag.4.2
  0.01	10	0	D	2157	    Archaea
  0.01	9	0	P	28890	      Euryarchaeota
  0.01	4	0	-	2290931	        Stenosarchaea group
  0.00	3	0	C	183963	          Halobacteria
  0.00	2	0	O	1644055	            Haloferacales
  0.00	2	0	F	1644056	              Haloferacaceae
  0.00	1	0	G	60846	                Halogeometricum
  0.00	1	0	S	60847	                  Halogeometricum borinquense
  0.00	1	1	-	469382	                    Halogeometricum borinquense DSM 11551
  0.00	1	1	G	376170	                Haloplanus
  0.00	1	0	O	1644060	            Natrialbales
  0.00	1	0	F	1644061	              Natrialbaceae
  0.00	1	0	G	134813	                Natronorubrum
  0.00	1	1	S	61858	                  Natronorubrum bangense
  0.00	1	0	C	224756	          Methanomicrobia
  0.00	1	0	O	94695	            Methanosarcinales
  0.00	1	0	F	2206	              Methanosarcinaceae
  0.00	1	0	G	2225	                Methanococcoides
  0.00	1	0	S	29291	                  Methanococcoides burtonii
  0.00	1	1	-	259564	                    Methanococcoides burtonii DSM 6242
  0.00	3	0	C	183968	        Thermococci
  0.00	3	0	O	2258	          Thermococcales
  0.00	3	0	F	2259	            Thermococcaceae
  0.00	2	0	G	2260	              Pyrococcus
  0.00	1	1	S	1183377	                Pyrococcus sp. ST04
  0.00	1	1	S	1609559	                Pyrococcus kukulkanii
  0.00	1	0	G	2263	              Thermococcus
  0.00	1	1	S	1505907	                Thermococcus eurythermalis
  0.00	2	0	-	2283794	        Methanomada group
  0.00	1	0	C	183925	          Methanobacteria
  0.00	1	0	O	2158	            Methanobacteriales
  0.00	1	0	F	2159	              Methanobacteriaceae
  0.00	1	1	G	2160	                Methanobacterium
  0.00	1	0	C	183939	          Methanococci
  0.00	1	0	O	2182	            Methanococcales
  0.00	1	0	F	196117	              Methanocaldococcaceae
  0.00	1	0	G	196118	                Methanocaldococcus
  0.00	1	1	S	1301915	                  Methanocaldococcus bathoardescens
  0.00	1	0	-	1783275	      TACK group
  0.00	1	0	P	651137	        Thaumarchaeota
  0.00	1	0	O	31932	          Nitrosopumilales
  0.00	1	0	F	338190	            Nitrosopumilaceae
  0.00	1	0	G	338191	              Nitrosopumilus
  0.00	1	1	S	2508726	                Candidatus Nitrosopumilus sp. SW
  0.02	13	0	D	10239	  Viruses
  0.01	9	0	O	28883	    Caudovirales
  0.01	7	2	F	10662	      Myoviridae
  0.01	5	0	-	196896	        unclassified Myoviridae
  0.00	3	3	S	1079998	          Synechococcus phage ACG-2014c
  0.00	2	2	S	12402	          Streptococcus phage EJ-1
  0.00	2	0	F	10699	      Siphoviridae
  0.00	1	0	G	1982251	        Pahexavirus
  0.00	1	0	S	1982264	          Propionibacterium virus P1.1
  0.00	1	1	-	1229792	            Propionibacterium phage P1.1
  0.00	1	0	G	1982367	        Pepyhexavirus
  0.00	1	0	S	1982368	          Rhodococcus virus Pepy6
  0.00	1	1	-	691965	            Rhodococcus phage ReqiPepy6
  0.00	2	0	O	548681	    Herpesvirales
  0.00	2	0	F	10292	      Herpesviridae
  0.00	2	0	-	10374	        Gammaherpesvirinae
  0.00	2	0	G	10375	          Lymphocryptovirus
  0.00	2	2	S	10376	            Human gammaherpesvirus 4
  0.00	1	0	F	10240	    Poxviridae
  0.00	1	0	-	10241	      Chordopoxvirinae
  0.00	1	0	G	10242	        Orthopoxvirus
  0.00	1	1	S	12643	          Ectromelia virus
  0.00	1	0	O	2169561	    Ortervirales
  0.00	1	0	F	11632	      Retroviridae
  0.00	1	0	-	35276	        unclassified Retroviridae
  0.00	1	0	-	206037	          Human endogenous retroviruses
  0.00	1	0	S	45617	            Human endogenous retrovirus K
  0.00	1	1	-	166122	              Human endogenous retrovirus K113
