run	sample	platform	file	format	type	num_seqs	sum_len	min_len	avg_len	max_len	Q1	Q2	Q3	sum_gap	N50	Q20(%)	Q30(%)
OX2387_BRC_Resp_TH	SA279_DC	Illumina	r1.fq	FASTQ	DNA	348261	58882329	5	169.1	301	81.0	154.0	278.0	0	252	90.03	80.38
OX2387_BRC_Resp_TH	SA279_DC	Illumina	r2.fq	FASTQ	DNA	348261	61743482	5	177.3	301	83.0	163.0	300.0	0	300	78.00	64.16
