run	sample	platform	file	format	type	num_seqs	sum_len	min_len	avg_len	max_len	Q1	Q2	Q3	sum_gap	N50	Q20(%)	Q30(%)
OX2387_BRC_Resp_TH	SA288_DC	Illumina	r1.fq	FASTQ	DNA	87107	14012345	5	160.9	301	65.0	139.0	297.0	0	270	74.03	57.35
OX2387_BRC_Resp_TH	SA288_DC	Illumina	r2.fq	FASTQ	DNA	87107	16087203	6	184.7	301	71.0	181.0	301.0	0	301	56.56	37.38
