run	sample	platform	file	format	type	num_seqs	sum_len	min_len	avg_len	max_len	Q1	Q2	Q3	sum_gap	N50	Q20(%)	Q30(%)
OX2333_BRC_Resp_TH	Neg_cntrl	Illumina	r1.fq	FASTQ	DNA	25120	1997970	6	79.5	301	40.0	59.0	92.0	0	93	82.04	71.57
OX2333_BRC_Resp_TH	Neg_cntrl	Illumina	r2.fq	FASTQ	DNA	25120	1948171	6	77.6	301	42.0	61.0	106.0	0	97	71.90	60.27
