sample_ID	guuid	barcode	human bases	hunam reads	bacterial bases	bacterial reads	viral bases	viral reads	total bases	total reads
BRC_TH_NP_2	5bd8865b5f87b086d76759d1	BC01	147667546	84351	638527	211	31221	9	150410847	91009
BRC_TH_NP_2	5bd8865b5f87b086d76759d1	none	1122839658	480339	16762316	3375	2123391	369	1409608388	896002
BRC_TH_NP_2	5bd8865b5f87b086d76759d1	BC76	4200	4	0	0	0	0	15023	8
BRC_TH_NP_2	5bd8865b5f87b086d76759d1	BC04	1090734783	530409	1971927	513	64462	25	1102186611	550933
BRC_TH_NP_2	5bd8865b5f87b086d76759d1	BC06	466693449	405968	38199788	6718	156400	29	513200913	434765
BRC_TH_NP_2	5bd8865b5f87b086d76759d1	BC02	1648672693	692996	15257891	2644	504718	203	1681199660	730586
BRC_TH_NP_2	5bd8865b5f87b086d76759d1	nobarcode	0	0	0	0	0	0	0	0
BRC_TH_NP_2	5bd8865b5f87b086d76759d1	BC07	1650284836	602466	2479944	449	148279	48	1662897650	624443
BRC_TH_NP_2	5bd8865b5f87b086d76759d1	BC03	3628831	1564	4147	3	0	0	3823650	1876
BRC_TH_NP_2	5bd8865b5f87b086d76759d1	BC05	1271615288	535233	14730380	2822	83916	28	1293796735	556950
