%!PS-Adobe-3.0 EPSF-3.0
%%Title: figs/breadthVSdepth_update20211001.eps
%%Creator: matplotlib version 3.1.2, http://matplotlib.org/
%%CreationDate: Thu Jan  6 16:03:35 2022
%%Orientation: portrait
%%BoundingBox: 75.6 223.20000000000002 536.4 568.8
%%EndComments
%%BeginProlog
/mpldict 8 dict def
mpldict begin
/m { moveto } bind def
/l { lineto } bind def
/r { rlineto } bind def
/c { curveto } bind def
/cl { closepath } bind def
/box {
m
1 index 0 r
0 exch r
neg 0 r
cl
} bind def
/clipbox {
box
clip
newpath
} bind def
%!PS-Adobe-3.0 Resource-Font
%%Title: DejaVu Sans
%%Copyright: Copyright (c) 2003 by Bitstream, Inc. All Rights Reserved. Copyright (c) 2006 by Tavmjong Bah. All Rights Reserved. DejaVu changes are in public domain 
%%Creator: Converted from TrueType to type 3 by PPR
25 dict begin
/_d{bind def}bind def
/_m{moveto}_d
/_l{lineto}_d
/_cl{closepath eofill}_d
/_c{curveto}_d
/_sc{7 -1 roll{setcachedevice}{pop pop pop pop pop pop}ifelse}_d
/_e{exec}_d
/FontName /DejaVuSans def
/PaintType 0 def
/FontMatrix[.001 0 0 .001 0 0]def
/FontBBox[-1021 -463 1793 1232]def
/FontType 3 def
/Encoding [ /space /percent /parenleft /parenright /period /zero /one /two /four /six /eight /A /B /C /H /M /N /O /S /T /a /b /c /d /e /f /g /h /i /l /m /n /o /p /q /r /t /u /v /x /z ] def
/FontInfo 10 dict dup begin
/FamilyName (DejaVu Sans) def
/FullName (DejaVu Sans) def
/Notice (Copyright (c) 2003 by Bitstream, Inc. All Rights Reserved. Copyright (c) 2006 by Tavmjong Bah. All Rights Reserved. DejaVu changes are in public domain ) def
/Weight (Book) def
/Version (Version 2.35) def
/ItalicAngle 0.0 def
/isFixedPitch false def
/UnderlinePosition -130 def
/UnderlineThickness 90 def
end readonly def
/CharStrings 42 dict dup begin
/.notdef 0 def
/space{318 0 0 0 0 0 _sc
}_d
/percent{{950 0 55 -13 895 742 _sc
727 321 _m
699 321 676 309 660 285 _c
644 261 636 227 636 184 _c
636 142 644 108 660 84 _c
676 60 699 48 727 48 _c
755 48 777 60 793 84 _c
809 108 817 142 817 184 _c
817 226 809 260 793 284 _c
777 308 755 321 727 321 _c
727 383 _m
778 383 819 365 849 329 _c
879 293 895 244 895 184 _c
895 123 879 75 849 40 _c
819 4 778 -13 727 -13 _c
}_e{675 -13 633 4 603 40 _c
573 75 558 123 558 184 _c
558 245 573 293 603 329 _c
633 365 675 383 727 383 _c
223 680 _m
195 680 173 667 157 643 _c
141 619 133 586 133 544 _c
133 500 141 467 157 443 _c
173 419 195 407 223 407 _c
251 407 274 419 290 443 _c
306 467 314 500 314 544 _c
314 586 305 619 289 643 _c
273 667 251 680 223 680 _c
664 742 _m
742 742 _l
286 -13 _l
}_e{208 -13 _l
664 742 _l
223 742 _m
274 742 315 724 346 688 _c
376 652 392 604 392 544 _c
392 482 376 434 346 398 _c
316 362 275 345 223 345 _c
171 345 130 362 100 398 _c
70 434 55 482 55 544 _c
55 604 70 652 100 688 _c
130 724 171 742 223 742 _c
_cl}_e}_d
/parenleft{390 0 86 -131 310 759 _sc
310 759 _m
266 683 234 609 213 536 _c
191 463 181 389 181 314 _c
181 238 191 164 213 91 _c
234 17 266 -56 310 -131 _c
232 -131 _l
183 -54 146 20 122 94 _c
98 168 86 241 86 314 _c
86 386 98 459 122 533 _c
146 607 182 682 232 759 _c
310 759 _l
_cl}_d
/parenright{390 0 80 -131 304 759 _sc
80 759 _m
158 759 _l
206 682 243 607 267 533 _c
291 459 304 386 304 314 _c
304 241 291 168 267 94 _c
243 20 206 -54 158 -131 _c
80 -131 _l
123 -56 155 17 177 91 _c
198 164 209 238 209 314 _c
209 389 198 463 177 536 _c
155 609 123 683 80 759 _c
_cl}_d
/period{318 0 107 0 210 124 _sc
107 124 _m
210 124 _l
210 0 _l
107 0 _l
107 124 _l
_cl}_d
/zero{636 0 66 -13 570 742 _sc
318 664 _m
267 664 229 639 203 589 _c
177 539 165 464 165 364 _c
165 264 177 189 203 139 _c
229 89 267 64 318 64 _c
369 64 407 89 433 139 _c
458 189 471 264 471 364 _c
471 464 458 539 433 589 _c
407 639 369 664 318 664 _c
318 742 _m
399 742 461 709 505 645 _c
548 580 570 486 570 364 _c
570 241 548 147 505 83 _c
461 19 399 -13 318 -13 _c
236 -13 173 19 130 83 _c
87 147 66 241 66 364 _c
66 486 87 580 130 645 _c
173 709 236 742 318 742 _c
_cl}_d
/one{636 0 110 0 544 729 _sc
124 83 _m
285 83 _l
285 639 _l
110 604 _l
110 694 _l
284 729 _l
383 729 _l
383 83 _l
544 83 _l
544 0 _l
124 0 _l
124 83 _l
_cl}_d
/two{{636 0 73 0 536 742 _sc
192 83 _m
536 83 _l
536 0 _l
73 0 _l
73 83 _l
110 121 161 173 226 239 _c
290 304 331 346 348 365 _c
380 400 402 430 414 455 _c
426 479 433 504 433 528 _c
433 566 419 598 392 622 _c
365 646 330 659 286 659 _c
255 659 222 653 188 643 _c
154 632 117 616 78 594 _c
78 694 _l
118 710 155 722 189 730 _c
223 738 255 742 284 742 _c
}_e{359 742 419 723 464 685 _c
509 647 532 597 532 534 _c
532 504 526 475 515 449 _c
504 422 484 390 454 354 _c
446 344 420 317 376 272 _c
332 227 271 164 192 83 _c
_cl}_e}_d
/four{636 0 49 0 580 729 _sc
378 643 _m
129 254 _l
378 254 _l
378 643 _l
352 729 _m
476 729 _l
476 254 _l
580 254 _l
580 172 _l
476 172 _l
476 0 _l
378 0 _l
378 172 _l
49 172 _l
49 267 _l
352 729 _l
_cl}_d
/six{{636 0 70 -13 573 742 _sc
330 404 _m
286 404 251 388 225 358 _c
199 328 186 286 186 234 _c
186 181 199 139 225 109 _c
251 79 286 64 330 64 _c
374 64 409 79 435 109 _c
461 139 474 181 474 234 _c
474 286 461 328 435 358 _c
409 388 374 404 330 404 _c
526 713 _m
526 623 _l
501 635 476 644 451 650 _c
425 656 400 659 376 659 _c
310 659 260 637 226 593 _c
}_e{192 549 172 482 168 394 _c
187 422 211 444 240 459 _c
269 474 301 482 336 482 _c
409 482 467 459 509 415 _c
551 371 573 310 573 234 _c
573 159 550 99 506 54 _c
462 9 403 -13 330 -13 _c
246 -13 181 19 137 83 _c
92 147 70 241 70 364 _c
70 479 97 571 152 639 _c
206 707 280 742 372 742 _c
396 742 421 739 447 735 _c
472 730 498 723 526 713 _c
_cl}_e}_d
/eight{{636 0 68 -13 568 742 _sc
318 346 _m
271 346 234 333 207 308 _c
180 283 167 249 167 205 _c
167 161 180 126 207 101 _c
234 76 271 64 318 64 _c
364 64 401 76 428 102 _c
455 127 469 161 469 205 _c
469 249 455 283 429 308 _c
402 333 365 346 318 346 _c
219 388 _m
177 398 144 418 120 447 _c
96 476 85 511 85 553 _c
85 611 105 657 147 691 _c
188 725 245 742 318 742 _c
}_e{390 742 447 725 489 691 _c
530 657 551 611 551 553 _c
551 511 539 476 515 447 _c
491 418 459 398 417 388 _c
464 377 501 355 528 323 _c
554 291 568 251 568 205 _c
568 134 546 80 503 43 _c
459 5 398 -13 318 -13 _c
237 -13 175 5 132 43 _c
89 80 68 134 68 205 _c
68 251 81 291 108 323 _c
134 355 171 377 219 388 _c
183 544 _m
183 506 194 476 218 455 _c
}_e{242 434 275 424 318 424 _c
360 424 393 434 417 455 _c
441 476 453 506 453 544 _c
453 582 441 611 417 632 _c
393 653 360 664 318 664 _c
275 664 242 653 218 632 _c
194 611 183 582 183 544 _c
_cl}_e}_d
/A{684 0 8 0 676 729 _sc
342 632 _m
208 269 _l
476 269 _l
342 632 _l
286 729 _m
398 729 _l
676 0 _l
573 0 _l
507 187 _l
178 187 _l
112 0 _l
8 0 _l
286 729 _l
_cl}_d
/B{{686 0 98 0 615 729 _sc
197 348 _m
197 81 _l
355 81 _l
408 81 447 92 473 114 _c
498 136 511 169 511 215 _c
511 260 498 293 473 315 _c
447 337 408 348 355 348 _c
197 348 _l
197 648 _m
197 428 _l
343 428 _l
391 428 426 437 450 455 _c
474 473 486 500 486 538 _c
486 574 474 602 450 620 _c
426 638 391 648 343 648 _c
197 648 _l
98 729 _m
350 729 _l
}_e{425 729 483 713 524 682 _c
564 650 585 606 585 549 _c
585 504 574 468 553 442 _c
532 416 502 399 462 393 _c
510 382 548 360 575 327 _c
601 294 615 253 615 204 _c
615 138 592 88 548 53 _c
504 17 441 0 360 0 _c
98 0 _l
98 729 _l
_cl}_e}_d
/C{{698 0 56 -13 644 742 _sc
644 673 _m
644 569 _l
610 599 575 622 537 638 _c
499 653 460 661 418 661 _c
334 661 270 635 226 584 _c
182 533 160 460 160 364 _c
160 268 182 194 226 143 _c
270 92 334 67 418 67 _c
460 67 499 74 537 90 _c
575 105 610 128 644 159 _c
644 56 _l
609 32 572 15 534 4 _c
496 -7 455 -13 412 -13 _c
302 -13 215 20 151 87 _c
}_e{87 154 56 246 56 364 _c
56 481 87 573 151 641 _c
215 708 302 742 412 742 _c
456 742 497 736 535 725 _c
573 713 610 696 644 673 _c
_cl}_e}_d
/H{752 0 98 0 654 729 _sc
98 729 _m
197 729 _l
197 430 _l
555 430 _l
555 729 _l
654 729 _l
654 0 _l
555 0 _l
555 347 _l
197 347 _l
197 0 _l
98 0 _l
98 729 _l
_cl}_d
/M{863 0 98 0 765 729 _sc
98 729 _m
245 729 _l
431 233 _l
618 729 _l
765 729 _l
765 0 _l
669 0 _l
669 640 _l
481 140 _l
382 140 _l
194 640 _l
194 0 _l
98 0 _l
98 729 _l
_cl}_d
/N{748 0 98 0 650 729 _sc
98 729 _m
231 729 _l
554 119 _l
554 729 _l
650 729 _l
650 0 _l
517 0 _l
194 610 _l
194 0 _l
98 0 _l
98 729 _l
_cl}_d
/O{787 0 56 -13 731 742 _sc
394 662 _m
322 662 265 635 223 582 _c
181 528 160 456 160 364 _c
160 272 181 199 223 146 _c
265 92 322 66 394 66 _c
465 66 522 92 564 146 _c
606 199 627 272 627 364 _c
627 456 606 528 564 582 _c
522 635 465 662 394 662 _c
394 742 _m
496 742 577 707 639 639 _c
700 571 731 479 731 364 _c
731 248 700 157 639 89 _c
577 21 496 -13 394 -13 _c
291 -13 209 21 148 89 _c
86 157 56 248 56 364 _c
56 479 86 571 148 639 _c
209 707 291 742 394 742 _c
_cl}_d
/S{{635 0 66 -13 579 742 _sc
535 705 _m
535 609 _l
497 627 462 640 429 649 _c
395 657 363 662 333 662 _c
279 662 237 651 208 631 _c
179 610 165 580 165 542 _c
165 510 174 485 194 469 _c
213 452 250 439 304 429 _c
364 417 _l
437 403 491 378 526 343 _c
561 307 579 260 579 201 _c
579 130 555 77 508 41 _c
460 5 391 -13 300 -13 _c
265 -13 228 -9 189 -2 _c
}_e{150 5 110 16 69 32 _c
69 134 _l
109 111 148 94 186 83 _c
224 71 262 66 300 66 _c
356 66 399 77 430 99 _c
460 121 476 152 476 194 _c
476 230 465 258 443 278 _c
421 298 385 313 335 323 _c
275 335 _l
201 349 148 372 115 404 _c
82 435 66 478 66 534 _c
66 598 88 649 134 686 _c
179 723 242 742 322 742 _c
356 742 390 739 426 733 _c
461 727 497 717 535 705 _c
}_e{_cl}_e}_d
/T{611 0 -2 0 614 729 _sc
-2 729 _m
614 729 _l
614 646 _l
355 646 _l
355 0 _l
256 0 _l
256 646 _l
-2 646 _l
-2 729 _l
_cl}_d
/a{{613 0 60 -13 522 560 _sc
343 275 _m
270 275 220 266 192 250 _c
164 233 150 205 150 165 _c
150 133 160 107 181 89 _c
202 70 231 61 267 61 _c
317 61 357 78 387 114 _c
417 149 432 196 432 255 _c
432 275 _l
343 275 _l
522 312 _m
522 0 _l
432 0 _l
432 83 _l
411 49 385 25 355 10 _c
325 -5 287 -13 243 -13 _c
187 -13 142 2 109 33 _c
76 64 60 106 60 159 _c
}_e{60 220 80 266 122 298 _c
163 329 224 345 306 345 _c
432 345 _l
432 354 _l
432 395 418 427 391 450 _c
364 472 326 484 277 484 _c
245 484 215 480 185 472 _c
155 464 127 453 100 439 _c
100 522 _l
132 534 164 544 195 550 _c
226 556 256 560 286 560 _c
365 560 424 539 463 498 _c
502 457 522 395 522 312 _c
_cl}_e}_d
/b{{635 0 91 -13 580 760 _sc
487 273 _m
487 339 473 390 446 428 _c
418 466 381 485 334 485 _c
286 485 249 466 222 428 _c
194 390 181 339 181 273 _c
181 207 194 155 222 117 _c
249 79 286 61 334 61 _c
381 61 418 79 446 117 _c
473 155 487 207 487 273 _c
181 464 _m
199 496 223 520 252 536 _c
281 552 316 560 356 560 _c
422 560 476 533 518 481 _c
559 428 580 359 580 273 _c
}_e{580 187 559 117 518 65 _c
476 13 422 -13 356 -13 _c
316 -13 281 -5 252 10 _c
223 25 199 49 181 82 _c
181 0 _l
91 0 _l
91 760 _l
181 760 _l
181 464 _l
_cl}_e}_d
/c{{550 0 55 -13 488 560 _sc
488 526 _m
488 442 _l
462 456 437 466 411 473 _c
385 480 360 484 334 484 _c
276 484 230 465 198 428 _c
166 391 150 339 150 273 _c
150 206 166 154 198 117 _c
230 80 276 62 334 62 _c
360 62 385 65 411 72 _c
437 79 462 90 488 104 _c
488 21 _l
462 9 436 0 410 -5 _c
383 -10 354 -13 324 -13 _c
242 -13 176 12 128 64 _c
}_e{79 115 55 185 55 273 _c
55 362 79 432 128 483 _c
177 534 244 560 330 560 _c
358 560 385 557 411 551 _c
437 545 463 537 488 526 _c
_cl}_e}_d
/d{{635 0 55 -13 544 760 _sc
454 464 _m
454 760 _l
544 760 _l
544 0 _l
454 0 _l
454 82 _l
435 49 411 25 382 10 _c
353 -5 319 -13 279 -13 _c
213 -13 159 13 117 65 _c
75 117 55 187 55 273 _c
55 359 75 428 117 481 _c
159 533 213 560 279 560 _c
319 560 353 552 382 536 _c
411 520 435 496 454 464 _c
148 273 _m
148 207 161 155 188 117 _c
215 79 253 61 301 61 _c
}_e{348 61 385 79 413 117 _c
440 155 454 207 454 273 _c
454 339 440 390 413 428 _c
385 466 348 485 301 485 _c
253 485 215 466 188 428 _c
161 390 148 339 148 273 _c
_cl}_e}_d
/e{{615 0 55 -13 562 560 _sc
562 296 _m
562 252 _l
149 252 _l
153 190 171 142 205 110 _c
238 78 284 62 344 62 _c
378 62 412 66 444 74 _c
476 82 509 95 541 113 _c
541 28 _l
509 14 476 3 442 -3 _c
408 -9 373 -13 339 -13 _c
251 -13 182 12 131 62 _c
80 112 55 181 55 268 _c
55 357 79 428 127 481 _c
175 533 241 560 323 560 _c
397 560 455 536 498 489 _c
}_e{540 441 562 377 562 296 _c
472 322 _m
471 371 457 410 431 440 _c
404 469 368 484 324 484 _c
274 484 234 469 204 441 _c
174 413 156 373 152 322 _c
472 322 _l
_cl}_e}_d
/f{352 0 23 0 371 760 _sc
371 760 _m
371 685 _l
285 685 _l
253 685 230 678 218 665 _c
205 652 199 629 199 595 _c
199 547 _l
347 547 _l
347 477 _l
199 477 _l
199 0 _l
109 0 _l
109 477 _l
23 477 _l
23 547 _l
109 547 _l
109 585 _l
109 645 123 690 151 718 _c
179 746 224 760 286 760 _c
371 760 _l
_cl}_d
/g{{635 0 55 -207 544 560 _sc
454 280 _m
454 344 440 395 414 431 _c
387 467 349 485 301 485 _c
253 485 215 467 188 431 _c
161 395 148 344 148 280 _c
148 215 161 165 188 129 _c
215 93 253 75 301 75 _c
349 75 387 93 414 129 _c
440 165 454 215 454 280 _c
544 68 _m
544 -24 523 -93 482 -139 _c
440 -184 377 -207 292 -207 _c
260 -207 231 -204 203 -200 _c
175 -195 147 -188 121 -178 _c
}_e{121 -91 _l
147 -105 173 -115 199 -122 _c
225 -129 251 -133 278 -133 _c
336 -133 380 -117 410 -87 _c
439 -56 454 -10 454 52 _c
454 96 _l
435 64 411 40 382 24 _c
353 8 319 0 279 0 _c
211 0 157 25 116 76 _c
75 127 55 195 55 280 _c
55 364 75 432 116 483 _c
157 534 211 560 279 560 _c
319 560 353 552 382 536 _c
411 520 435 496 454 464 _c
454 547 _l
544 547 _l
}_e{544 68 _l
_cl}_e}_d
/h{634 0 91 0 549 760 _sc
549 330 _m
549 0 _l
459 0 _l
459 327 _l
459 379 448 417 428 443 _c
408 469 378 482 338 482 _c
289 482 251 466 223 435 _c
195 404 181 362 181 309 _c
181 0 _l
91 0 _l
91 760 _l
181 760 _l
181 462 _l
202 494 227 519 257 535 _c
286 551 320 560 358 560 _c
420 560 468 540 500 501 _c
532 462 549 405 549 330 _c
_cl}_d
/i{278 0 94 0 184 760 _sc
94 547 _m
184 547 _l
184 0 _l
94 0 _l
94 547 _l
94 760 _m
184 760 _l
184 646 _l
94 646 _l
94 760 _l
_cl}_d
/l{278 0 94 0 184 760 _sc
94 760 _m
184 760 _l
184 0 _l
94 0 _l
94 760 _l
_cl}_d
/m{{974 0 91 0 889 560 _sc
520 442 _m
542 482 569 511 600 531 _c
631 550 668 560 711 560 _c
767 560 811 540 842 500 _c
873 460 889 403 889 330 _c
889 0 _l
799 0 _l
799 327 _l
799 379 789 418 771 444 _c
752 469 724 482 686 482 _c
639 482 602 466 575 435 _c
548 404 535 362 535 309 _c
535 0 _l
445 0 _l
445 327 _l
445 379 435 418 417 444 _c
398 469 369 482 331 482 _c
}_e{285 482 248 466 221 435 _c
194 404 181 362 181 309 _c
181 0 _l
91 0 _l
91 547 _l
181 547 _l
181 462 _l
201 495 226 520 255 536 _c
283 552 317 560 357 560 _c
397 560 430 550 458 530 _c
486 510 506 480 520 442 _c
_cl}_e}_d
/n{634 0 91 0 549 560 _sc
549 330 _m
549 0 _l
459 0 _l
459 327 _l
459 379 448 417 428 443 _c
408 469 378 482 338 482 _c
289 482 251 466 223 435 _c
195 404 181 362 181 309 _c
181 0 _l
91 0 _l
91 547 _l
181 547 _l
181 462 _l
202 494 227 519 257 535 _c
286 551 320 560 358 560 _c
420 560 468 540 500 501 _c
532 462 549 405 549 330 _c
_cl}_d
/o{612 0 55 -13 557 560 _sc
306 484 _m
258 484 220 465 192 427 _c
164 389 150 338 150 273 _c
150 207 163 156 191 118 _c
219 80 257 62 306 62 _c
354 62 392 80 420 118 _c
448 156 462 207 462 273 _c
462 337 448 389 420 427 _c
392 465 354 484 306 484 _c
306 560 _m
384 560 445 534 490 484 _c
534 433 557 363 557 273 _c
557 183 534 113 490 63 _c
445 12 384 -13 306 -13 _c
227 -13 165 12 121 63 _c
77 113 55 183 55 273 _c
55 363 77 433 121 484 _c
165 534 227 560 306 560 _c
_cl}_d
/p{{635 0 91 -207 580 560 _sc
181 82 _m
181 -207 _l
91 -207 _l
91 547 _l
181 547 _l
181 464 _l
199 496 223 520 252 536 _c
281 552 316 560 356 560 _c
422 560 476 533 518 481 _c
559 428 580 359 580 273 _c
580 187 559 117 518 65 _c
476 13 422 -13 356 -13 _c
316 -13 281 -5 252 10 _c
223 25 199 49 181 82 _c
487 273 _m
487 339 473 390 446 428 _c
418 466 381 485 334 485 _c
}_e{286 485 249 466 222 428 _c
194 390 181 339 181 273 _c
181 207 194 155 222 117 _c
249 79 286 61 334 61 _c
381 61 418 79 446 117 _c
473 155 487 207 487 273 _c
_cl}_e}_d
/q{{635 0 55 -207 544 560 _sc
148 273 _m
148 207 161 155 188 117 _c
215 79 253 61 301 61 _c
348 61 385 79 413 117 _c
440 155 454 207 454 273 _c
454 339 440 390 413 428 _c
385 466 348 485 301 485 _c
253 485 215 466 188 428 _c
161 390 148 339 148 273 _c
454 82 _m
435 49 411 25 382 10 _c
353 -5 319 -13 279 -13 _c
213 -13 159 13 117 65 _c
75 117 55 187 55 273 _c
}_e{55 359 75 428 117 481 _c
159 533 213 560 279 560 _c
319 560 353 552 382 536 _c
411 520 435 496 454 464 _c
454 547 _l
544 547 _l
544 -207 _l
454 -207 _l
454 82 _l
_cl}_e}_d
/r{411 0 91 0 411 560 _sc
411 463 _m
401 469 390 473 378 476 _c
366 478 353 480 339 480 _c
288 480 249 463 222 430 _c
194 397 181 350 181 288 _c
181 0 _l
91 0 _l
91 547 _l
181 547 _l
181 462 _l
199 495 224 520 254 536 _c
284 552 321 560 365 560 _c
371 560 378 559 386 559 _c
393 558 401 557 411 555 _c
411 463 _l
_cl}_d
/t{392 0 27 0 368 702 _sc
183 702 _m
183 547 _l
368 547 _l
368 477 _l
183 477 _l
183 180 _l
183 135 189 106 201 94 _c
213 81 238 75 276 75 _c
368 75 _l
368 0 _l
276 0 _l
206 0 158 13 132 39 _c
106 65 93 112 93 180 _c
93 477 _l
27 477 _l
27 547 _l
93 547 _l
93 702 _l
183 702 _l
_cl}_d
/u{634 0 85 -13 543 560 _sc
85 216 _m
85 547 _l
175 547 _l
175 219 _l
175 167 185 129 205 103 _c
225 77 255 64 296 64 _c
344 64 383 79 411 110 _c
439 141 453 183 453 237 _c
453 547 _l
543 547 _l
543 0 _l
453 0 _l
453 84 _l
431 50 405 26 377 10 _c
348 -5 315 -13 277 -13 _c
214 -13 166 6 134 45 _c
101 83 85 140 85 216 _c
311 560 _m
311 560 _l
_cl}_d
/v{592 0 30 0 562 547 _sc
30 547 _m
125 547 _l
296 88 _l
467 547 _l
562 547 _l
357 0 _l
235 0 _l
30 547 _l
_cl}_d
/x{592 0 29 0 559 547 _sc
549 547 _m
351 281 _l
559 0 _l
453 0 _l
294 215 _l
135 0 _l
29 0 _l
241 286 _l
47 547 _l
153 547 _l
298 352 _l
443 547 _l
549 547 _l
_cl}_d
/z{525 0 43 0 482 547 _sc
55 547 _m
482 547 _l
482 465 _l
144 72 _l
482 72 _l
482 0 _l
43 0 _l
43 82 _l
381 475 _l
55 475 _l
55 547 _l
_cl}_d
end readonly def

/BuildGlyph
 {exch begin
 CharStrings exch
 2 copy known not{pop /.notdef}if
 true 3 1 roll get exec
 end}_d

/BuildChar {
 1 index /Encoding get exch get
 1 index /BuildGlyph get exec
}_d

FontName currentdict end definefont pop
end
%%EndProlog
mpldict begin
75.6 223.2 translate
460.8 345.6 0 0 clipbox
gsave
0 0 m
460.8 0 l
460.8 345.6 l
0 345.6 l
cl
1.000 setgray
fill
grestore
gsave
57.6 38.016 m
414.72 38.016 l
414.72 304.128 l
57.6 304.128 l
cl
0.918 0.918 0.949 setrgbcolor
fill
grestore
0.800 setlinewidth
1 setlinejoin
1 setlinecap
[] 0 setdash
1.000 setgray
gsave
357.1 266.1 57.6 38.02 clipbox
73.846229 38.016 m
73.846229 304.128 l
stroke
grestore
0.150 setgray
/DejaVuSans findfont
10.000 scalefont
setfont
gsave
70.666542 23.422250 translate
0.000000 rotate
0.000000 0.000000 m /zero glyphshow
grestore
1.000 setgray
gsave
357.1 266.1 57.6 38.02 clipbox
118.271459 38.016 m
118.271459 304.128 l
stroke
grestore
0.150 setgray
gsave
111.912084 23.422250 translate
0.000000 rotate
0.000000 0.000000 m /two glyphshow
6.362305 0.000000 m /zero glyphshow
grestore
1.000 setgray
gsave
357.1 266.1 57.6 38.02 clipbox
162.69669 38.016 m
162.69669 304.128 l
stroke
grestore
0.150 setgray
gsave
156.337315 23.422250 translate
0.000000 rotate
0.000000 0.000000 m /four glyphshow
6.362305 0.000000 m /zero glyphshow
grestore
1.000 setgray
gsave
357.1 266.1 57.6 38.02 clipbox
207.12192 38.016 m
207.12192 304.128 l
stroke
grestore
0.150 setgray
gsave
200.762545 23.422250 translate
0.000000 rotate
0.000000 0.000000 m /six glyphshow
6.362305 0.000000 m /zero glyphshow
grestore
1.000 setgray
gsave
357.1 266.1 57.6 38.02 clipbox
251.547151 38.016 m
251.547151 304.128 l
stroke
grestore
0.150 setgray
gsave
245.187776 23.422250 translate
0.000000 rotate
0.000000 0.000000 m /eight glyphshow
6.362305 0.000000 m /zero glyphshow
grestore
1.000 setgray
gsave
357.1 266.1 57.6 38.02 clipbox
295.972381 38.016 m
295.972381 304.128 l
stroke
grestore
0.150 setgray
gsave
286.433319 23.422250 translate
0.000000 rotate
0.000000 0.000000 m /one glyphshow
6.362305 0.000000 m /zero glyphshow
12.724609 0.000000 m /zero glyphshow
grestore
1.000 setgray
gsave
357.1 266.1 57.6 38.02 clipbox
340.397612 38.016 m
340.397612 304.128 l
stroke
grestore
0.150 setgray
gsave
330.858549 23.422250 translate
0.000000 rotate
0.000000 0.000000 m /one glyphshow
6.362305 0.000000 m /two glyphshow
12.724609 0.000000 m /zero glyphshow
grestore
1.000 setgray
gsave
357.1 266.1 57.6 38.02 clipbox
384.822842 38.016 m
384.822842 304.128 l
stroke
grestore
0.150 setgray
gsave
375.283780 23.422250 translate
0.000000 rotate
0.000000 0.000000 m /one glyphshow
6.362305 0.000000 m /four glyphshow
12.724609 0.000000 m /zero glyphshow
grestore
gsave
129.550625 9.750375 translate
0.000000 rotate
0.000000 0.000000 m /A glyphshow
6.840820 0.000000 m /v glyphshow
12.758789 0.000000 m /e glyphshow
18.911133 0.000000 m /r glyphshow
23.022461 0.000000 m /a glyphshow
29.150391 0.000000 m /g glyphshow
35.498047 0.000000 m /e glyphshow
41.650391 0.000000 m /space glyphshow
44.829102 0.000000 m /d glyphshow
51.176758 0.000000 m /e glyphshow
57.329102 0.000000 m /p glyphshow
63.676758 0.000000 m /t glyphshow
67.597656 0.000000 m /h glyphshow
73.935547 0.000000 m /space glyphshow
77.114258 0.000000 m /o glyphshow
83.232422 0.000000 m /f glyphshow
86.752930 0.000000 m /space glyphshow
89.931641 0.000000 m /g glyphshow
96.279297 0.000000 m /e glyphshow
102.431641 0.000000 m /n glyphshow
108.769531 0.000000 m /o glyphshow
114.887695 0.000000 m /m glyphshow
124.628906 0.000000 m /e glyphshow
130.781250 0.000000 m /space glyphshow
133.959961 0.000000 m /c glyphshow
139.458008 0.000000 m /o glyphshow
145.576172 0.000000 m /v glyphshow
151.494141 0.000000 m /e glyphshow
157.646484 0.000000 m /r glyphshow
161.757812 0.000000 m /e glyphshow
167.910156 0.000000 m /d glyphshow
174.257812 0.000000 m /space glyphshow
177.436523 0.000000 m /parenleft glyphshow
181.337891 0.000000 m /x glyphshow
187.255859 0.000000 m /space glyphshow
190.434570 0.000000 m /f glyphshow
193.955078 0.000000 m /o glyphshow
200.073242 0.000000 m /l glyphshow
202.851562 0.000000 m /d glyphshow
209.199219 0.000000 m /parenright glyphshow
grestore
1.000 setgray
gsave
357.1 266.1 57.6 38.02 clipbox
57.6 49.992004 m
414.72 49.992004 l
stroke
grestore
0.150 setgray
gsave
44.240625 46.195129 translate
0.000000 rotate
0.000000 0.000000 m /zero glyphshow
grestore
1.000 setgray
gsave
357.1 266.1 57.6 38.02 clipbox
57.6 100.326503 m
414.72 100.326503 l
stroke
grestore
0.150 setgray
gsave
37.881250 96.529628 translate
0.000000 rotate
0.000000 0.000000 m /two glyphshow
6.362305 0.000000 m /zero glyphshow
grestore
1.000 setgray
gsave
357.1 266.1 57.6 38.02 clipbox
57.6 150.661002 m
414.72 150.661002 l
stroke
grestore
0.150 setgray
gsave
37.881250 146.864127 translate
0.000000 rotate
0.000000 0.000000 m /four glyphshow
6.362305 0.000000 m /zero glyphshow
grestore
1.000 setgray
gsave
357.1 266.1 57.6 38.02 clipbox
57.6 200.995501 m
414.72 200.995501 l
stroke
grestore
0.150 setgray
gsave
37.881250 197.198626 translate
0.000000 rotate
0.000000 0.000000 m /six glyphshow
6.362305 0.000000 m /zero glyphshow
grestore
1.000 setgray
gsave
357.1 266.1 57.6 38.02 clipbox
57.6 251.33 m
414.72 251.33 l
stroke
grestore
0.150 setgray
gsave
37.881250 247.533125 translate
0.000000 rotate
0.000000 0.000000 m /eight glyphshow
6.362305 0.000000 m /zero glyphshow
grestore
1.000 setgray
gsave
357.1 266.1 57.6 38.02 clipbox
57.6 301.664498 m
414.72 301.664498 l
stroke
grestore
0.150 setgray
gsave
31.521875 297.867623 translate
0.000000 rotate
0.000000 0.000000 m /one glyphshow
6.362305 0.000000 m /zero glyphshow
12.724609 0.000000 m /zero glyphshow
grestore
gsave
25.443750 90.697000 translate
90.000000 rotate
0.000000 0.000000 m /B glyphshow
6.860352 0.000000 m /r glyphshow
10.971680 0.000000 m /e glyphshow
17.124023 0.000000 m /a glyphshow
23.251953 0.000000 m /d glyphshow
29.599609 0.000000 m /t glyphshow
33.520508 0.000000 m /h glyphshow
39.858398 0.000000 m /space glyphshow
43.037109 0.000000 m /o glyphshow
49.155273 0.000000 m /f glyphshow
52.675781 0.000000 m /space glyphshow
55.854492 0.000000 m /g glyphshow
62.202148 0.000000 m /e glyphshow
68.354492 0.000000 m /n glyphshow
74.692383 0.000000 m /o glyphshow
80.810547 0.000000 m /m glyphshow
90.551758 0.000000 m /e glyphshow
96.704102 0.000000 m /space glyphshow
99.882812 0.000000 m /c glyphshow
105.380859 0.000000 m /o glyphshow
111.499023 0.000000 m /v glyphshow
117.416992 0.000000 m /e glyphshow
123.569336 0.000000 m /r glyphshow
127.680664 0.000000 m /e glyphshow
133.833008 0.000000 m /d glyphshow
140.180664 0.000000 m /space glyphshow
143.359375 0.000000 m /parenleft glyphshow
147.260742 0.000000 m /percent glyphshow
156.762695 0.000000 m /parenright glyphshow
grestore
/p0_0 {
newpath
translate
0 -3 m
0.795609 -3 1.55874 -2.683901 2.12132 -2.12132 c
2.683901 -1.55874 3 -0.795609 3 0 c
3 0.795609 2.683901 1.55874 2.12132 2.12132 c
1.55874 2.683901 0.795609 3 0 3 c
-0.795609 3 -1.55874 2.683901 -2.12132 2.12132 c
-2.683901 1.55874 -3 0.795609 -3 0 c
-3 -0.795609 -2.683901 -1.55874 -2.12132 -2.12132 c
-1.55874 -2.683901 -0.795609 -3 0 -3 c
cl

} bind def
0.480 setlinewidth
0 setlinecap
1.000 setgray
gsave
357.1 266.1 57.6 38.02 clipbox
73.8524 50.3711 p0_0
gsave
0.122 0.467 0.706 setrgbcolor
fill
grestore
stroke
grestore
gsave
357.1 266.1 57.6 38.02 clipbox
73.8702 51.3731 p0_0
gsave
0.122 0.467 0.706 setrgbcolor
fill
grestore
stroke
grestore
gsave
357.1 266.1 57.6 38.02 clipbox
73.8591 50.8837 p0_0
gsave
0.122 0.467 0.706 setrgbcolor
fill
grestore
stroke
grestore
gsave
357.1 266.1 57.6 38.02 clipbox
73.8492 50.2098 p0_0
gsave
0.122 0.467 0.706 setrgbcolor
fill
grestore
stroke
grestore
gsave
357.1 266.1 57.6 38.02 clipbox
73.8556 50.6287 p0_0
gsave
0.122 0.467 0.706 setrgbcolor
fill
grestore
stroke
grestore
gsave
357.1 266.1 57.6 38.02 clipbox
73.8715 52.5897 p0_0
gsave
0.122 0.467 0.706 setrgbcolor
fill
grestore
stroke
grestore
gsave
357.1 266.1 57.6 38.02 clipbox
84.0149 225.288 p0_0
gsave
0.122 0.467 0.706 setrgbcolor
fill
grestore
stroke
grestore
gsave
357.1 266.1 57.6 38.02 clipbox
73.9479 56.957 p0_0
gsave
0.122 0.467 0.706 setrgbcolor
fill
grestore
stroke
grestore
gsave
357.1 266.1 57.6 38.02 clipbox
73.9567 59.745 p0_0
gsave
0.122 0.467 0.706 setrgbcolor
fill
grestore
stroke
grestore
gsave
357.1 266.1 57.6 38.02 clipbox
73.9451 58.0845 p0_0
gsave
0.122 0.467 0.706 setrgbcolor
fill
grestore
stroke
grestore
gsave
357.1 266.1 57.6 38.02 clipbox
73.8701 52.2833 p0_0
gsave
0.122 0.467 0.706 setrgbcolor
fill
grestore
stroke
grestore
gsave
357.1 266.1 57.6 38.02 clipbox
104.448 250.096 p0_0
gsave
0.122 0.467 0.706 setrgbcolor
fill
grestore
stroke
grestore
gsave
357.1 266.1 57.6 38.02 clipbox
73.8692 52.4886 p0_0
gsave
0.122 0.467 0.706 setrgbcolor
fill
grestore
stroke
grestore
gsave
357.1 266.1 57.6 38.02 clipbox
73.9045 53.9613 p0_0
gsave
0.122 0.467 0.706 setrgbcolor
fill
grestore
stroke
grestore
gsave
357.1 266.1 57.6 38.02 clipbox
73.8491 50.1562 p0_0
gsave
0.122 0.467 0.706 setrgbcolor
fill
grestore
stroke
grestore
gsave
357.1 266.1 57.6 38.02 clipbox
73.9152 54.9346 p0_0
gsave
0.122 0.467 0.706 setrgbcolor
fill
grestore
stroke
grestore
gsave
357.1 266.1 57.6 38.02 clipbox
74.0893 63.9515 p0_0
gsave
0.122 0.467 0.706 setrgbcolor
fill
grestore
stroke
grestore
gsave
357.1 266.1 57.6 38.02 clipbox
77.5611 179.165 p0_0
gsave
0.122 0.467 0.706 setrgbcolor
fill
grestore
stroke
grestore
gsave
357.1 266.1 57.6 38.02 clipbox
73.8475 50.1367 p0_0
gsave
0.122 0.467 0.706 setrgbcolor
fill
grestore
stroke
grestore
gsave
357.1 266.1 57.6 38.02 clipbox
77.1924 169.625 p0_0
gsave
0.122 0.467 0.706 setrgbcolor
fill
grestore
stroke
grestore
gsave
357.1 266.1 57.6 38.02 clipbox
77.4804 168.268 p0_0
gsave
0.122 0.467 0.706 setrgbcolor
fill
grestore
stroke
grestore
gsave
357.1 266.1 57.6 38.02 clipbox
73.8776 53.0895 p0_0
gsave
0.122 0.467 0.706 setrgbcolor
fill
grestore
stroke
grestore
gsave
357.1 266.1 57.6 38.02 clipbox
75.4615 123.821 p0_0
gsave
0.122 0.467 0.706 setrgbcolor
fill
grestore
stroke
grestore
gsave
357.1 266.1 57.6 38.02 clipbox
74.2201 75.8342 p0_0
gsave
0.122 0.467 0.706 setrgbcolor
fill
grestore
stroke
grestore
gsave
357.1 266.1 57.6 38.02 clipbox
75.699 134.171 p0_0
gsave
0.122 0.467 0.706 setrgbcolor
fill
grestore
stroke
grestore
gsave
357.1 266.1 57.6 38.02 clipbox
398.472 277.644 p0_0
gsave
0.122 0.467 0.706 setrgbcolor
fill
grestore
stroke
grestore
gsave
357.1 266.1 57.6 38.02 clipbox
73.8669 52.144 p0_0
gsave
0.122 0.467 0.706 setrgbcolor
fill
grestore
stroke
grestore
gsave
357.1 266.1 57.6 38.02 clipbox
73.8564 50.8109 p0_0
gsave
0.122 0.467 0.706 setrgbcolor
fill
grestore
stroke
grestore
gsave
357.1 266.1 57.6 38.02 clipbox
73.8516 50.5104 p0_0
gsave
0.122 0.467 0.706 setrgbcolor
fill
grestore
stroke
grestore
gsave
357.1 266.1 57.6 38.02 clipbox
134.741 258.207 p0_0
gsave
0.122 0.467 0.706 setrgbcolor
fill
grestore
stroke
grestore
gsave
357.1 266.1 57.6 38.02 clipbox
74.6575 103.961 p0_0
gsave
0.122 0.467 0.706 setrgbcolor
fill
grestore
stroke
grestore
gsave
357.1 266.1 57.6 38.02 clipbox
73.8574 51.1381 p0_0
gsave
0.122 0.467 0.706 setrgbcolor
fill
grestore
stroke
grestore
gsave
357.1 266.1 57.6 38.02 clipbox
73.9184 54.7124 p0_0
gsave
0.122 0.467 0.706 setrgbcolor
fill
grestore
stroke
grestore
gsave
357.1 266.1 57.6 38.02 clipbox
73.8506 50.3947 p0_0
gsave
0.122 0.467 0.706 setrgbcolor
fill
grestore
stroke
grestore
gsave
357.1 266.1 57.6 38.02 clipbox
76.1823 147.129 p0_0
gsave
0.122 0.467 0.706 setrgbcolor
fill
grestore
stroke
grestore
gsave
357.1 266.1 57.6 38.02 clipbox
73.8488 50.1772 p0_0
gsave
0.122 0.467 0.706 setrgbcolor
fill
grestore
stroke
grestore
gsave
357.1 266.1 57.6 38.02 clipbox
73.8825 53.0866 p0_0
gsave
0.122 0.467 0.706 setrgbcolor
fill
grestore
stroke
grestore
gsave
357.1 266.1 57.6 38.02 clipbox
73.8541 50.5964 p0_0
gsave
0.122 0.467 0.706 setrgbcolor
fill
grestore
stroke
grestore
gsave
357.1 266.1 57.6 38.02 clipbox
73.8575 50.637 p0_0
gsave
0.122 0.467 0.706 setrgbcolor
fill
grestore
stroke
grestore
gsave
357.1 266.1 57.6 38.02 clipbox
73.8504 50.3451 p0_0
gsave
0.122 0.467 0.706 setrgbcolor
fill
grestore
stroke
grestore
gsave
357.1 266.1 57.6 38.02 clipbox
85.0494 226.069 p0_0
gsave
0.122 0.467 0.706 setrgbcolor
fill
grestore
stroke
grestore
gsave
357.1 266.1 57.6 38.02 clipbox
73.8484 50.1345 p0_0
gsave
0.122 0.467 0.706 setrgbcolor
fill
grestore
stroke
grestore
gsave
357.1 266.1 57.6 38.02 clipbox
73.8739 53.0663 p0_0
gsave
0.122 0.467 0.706 setrgbcolor
fill
grestore
stroke
grestore
gsave
357.1 266.1 57.6 38.02 clipbox
73.8505 50.4651 p0_0
gsave
0.122 0.467 0.706 setrgbcolor
fill
grestore
stroke
grestore
gsave
357.1 266.1 57.6 38.02 clipbox
273.237 275.33 p0_0
gsave
0.122 0.467 0.706 setrgbcolor
fill
grestore
stroke
grestore
gsave
357.1 266.1 57.6 38.02 clipbox
73.8648 51.0605 p0_0
gsave
0.122 0.467 0.706 setrgbcolor
fill
grestore
stroke
grestore
gsave
357.1 266.1 57.6 38.02 clipbox
73.8479 50.183 p0_0
gsave
0.122 0.467 0.706 setrgbcolor
fill
grestore
stroke
grestore
gsave
357.1 266.1 57.6 38.02 clipbox
76.3765 75.0116 p0_0
gsave
1.000 0.498 0.055 setrgbcolor
fill
grestore
stroke
grestore
gsave
357.1 266.1 57.6 38.02 clipbox
79.5288 235.407 p0_0
gsave
1.000 0.498 0.055 setrgbcolor
fill
grestore
stroke
grestore
gsave
357.1 266.1 57.6 38.02 clipbox
86.8474 280.754 p0_0
gsave
1.000 0.498 0.055 setrgbcolor
fill
grestore
stroke
grestore
gsave
357.1 266.1 57.6 38.02 clipbox
77.8824 191.29 p0_0
gsave
1.000 0.498 0.055 setrgbcolor
fill
grestore
stroke
grestore
gsave
357.1 266.1 57.6 38.02 clipbox
80.8746 255.027 p0_0
gsave
1.000 0.498 0.055 setrgbcolor
fill
grestore
stroke
grestore
gsave
357.1 266.1 57.6 38.02 clipbox
231.063 292.01 p0_0
gsave
1.000 0.498 0.055 setrgbcolor
fill
grestore
stroke
grestore
gsave
357.1 266.1 57.6 38.02 clipbox
106.085 288.534 p0_0
gsave
1.000 0.498 0.055 setrgbcolor
fill
grestore
stroke
grestore
gsave
357.1 266.1 57.6 38.02 clipbox
76.0675 51.1862 p0_0
gsave
1.000 0.498 0.055 setrgbcolor
fill
grestore
stroke
grestore
gsave
357.1 266.1 57.6 38.02 clipbox
76.0675 50.9911 p0_0
gsave
1.000 0.498 0.055 setrgbcolor
fill
grestore
stroke
grestore
gsave
357.1 266.1 57.6 38.02 clipbox
76.0675 52.5569 p0_0
gsave
1.000 0.498 0.055 setrgbcolor
fill
grestore
stroke
grestore
gsave
357.1 266.1 57.6 38.02 clipbox
76.1621 51.6027 p0_0
gsave
1.000 0.498 0.055 setrgbcolor
fill
grestore
stroke
grestore
gsave
357.1 266.1 57.6 38.02 clipbox
76.0675 51.3304 p0_0
gsave
1.000 0.498 0.055 setrgbcolor
fill
grestore
stroke
grestore
gsave
357.1 266.1 57.6 38.02 clipbox
76.8402 55.7681 p0_0
gsave
1.000 0.498 0.055 setrgbcolor
fill
grestore
stroke
grestore
gsave
357.1 266.1 57.6 38.02 clipbox
78.1146 50.4937 p0_0
gsave
1.000 0.498 0.055 setrgbcolor
fill
grestore
stroke
grestore
gsave
357.1 266.1 57.6 38.02 clipbox
76.1874 54.989 p0_0
gsave
1.000 0.498 0.055 setrgbcolor
fill
grestore
stroke
grestore
gsave
357.1 266.1 57.6 38.02 clipbox
76.1406 52.5741 p0_0
gsave
1.000 0.498 0.055 setrgbcolor
fill
grestore
stroke
grestore
gsave
357.1 266.1 57.6 38.02 clipbox
76.16 57.4279 p0_0
gsave
1.000 0.498 0.055 setrgbcolor
fill
grestore
stroke
grestore
gsave
357.1 266.1 57.6 38.02 clipbox
76.0675 50.2256 p0_0
gsave
1.000 0.498 0.055 setrgbcolor
fill
grestore
stroke
grestore
gsave
357.1 266.1 57.6 38.02 clipbox
76.1709 51.6012 p0_0
gsave
1.000 0.498 0.055 setrgbcolor
fill
grestore
stroke
grestore
gsave
357.1 266.1 57.6 38.02 clipbox
76.0675 51.5452 p0_0
gsave
1.000 0.498 0.055 setrgbcolor
fill
grestore
stroke
grestore
gsave
357.1 266.1 57.6 38.02 clipbox
76.0675 52.6616 p0_0
gsave
1.000 0.498 0.055 setrgbcolor
fill
grestore
stroke
grestore
gsave
357.1 266.1 57.6 38.02 clipbox
76.0675 50.1909 p0_0
gsave
1.000 0.498 0.055 setrgbcolor
fill
grestore
stroke
grestore
gsave
357.1 266.1 57.6 38.02 clipbox
381.805 288.424 p0_0
gsave
1.000 0.498 0.055 setrgbcolor
fill
grestore
stroke
grestore
gsave
357.1 266.1 57.6 38.02 clipbox
90.5793 287.735 p0_0
gsave
1.000 0.498 0.055 setrgbcolor
fill
grestore
stroke
grestore
gsave
357.1 266.1 57.6 38.02 clipbox
83.3626 277.124 p0_0
gsave
1.000 0.498 0.055 setrgbcolor
fill
grestore
stroke
grestore
gsave
357.1 266.1 57.6 38.02 clipbox
86.0252 280.96 p0_0
gsave
1.000 0.498 0.055 setrgbcolor
fill
grestore
stroke
grestore
gsave
357.1 266.1 57.6 38.02 clipbox
81.8338 274.178 p0_0
gsave
1.000 0.498 0.055 setrgbcolor
fill
grestore
stroke
grestore
gsave
357.1 266.1 57.6 38.02 clipbox
76.0675 50.5792 p0_0
gsave
1.000 0.498 0.055 setrgbcolor
fill
grestore
stroke
grestore
gsave
357.1 266.1 57.6 38.02 clipbox
76.0675 50.5671 p0_0
gsave
1.000 0.498 0.055 setrgbcolor
fill
grestore
stroke
grestore
gsave
357.1 266.1 57.6 38.02 clipbox
76.0675 51.5135 p0_0
gsave
1.000 0.498 0.055 setrgbcolor
fill
grestore
stroke
grestore
gsave
357.1 266.1 57.6 38.02 clipbox
101.291 286.65 p0_0
gsave
1.000 0.498 0.055 setrgbcolor
fill
grestore
stroke
grestore
1.000 setlinewidth
0.122 0.467 0.706 setrgbcolor
gsave
357.1 266.1 57.6 38.02 clipbox
/o {
gsave
newpath
translate
1.0 setlinewidth
1 setlinejoin
0 setlinecap
0 -3 m
0.795609 -3 1.55874 -2.683901 2.12132 -2.12132 c
2.683901 -1.55874 3 -0.795609 3 0 c
3 0.795609 2.683901 1.55874 2.12132 2.12132 c
1.55874 2.683901 0.795609 3 0 3 c
-0.795609 3 -1.55874 2.683901 -2.12132 2.12132 c
-2.683901 1.55874 -3 0.795609 -3 0 c
-3 -0.795609 -2.683901 -1.55874 -2.12132 -2.12132 c
-1.55874 -2.683901 -0.795609 -3 0 -3 c
cl

gsave
0.122 0.467 0.706 setrgbcolor
fill
grestore
stroke
grestore
} bind def
grestore
1.000 0.498 0.055 setrgbcolor
gsave
357.1 266.1 57.6 38.02 clipbox
/o {
gsave
newpath
translate
1.0 setlinewidth
1 setlinejoin
0 setlinecap
0 -3 m
0.795609 -3 1.55874 -2.683901 2.12132 -2.12132 c
2.683901 -1.55874 3 -0.795609 3 0 c
3 0.795609 2.683901 1.55874 2.12132 2.12132 c
1.55874 2.683901 0.795609 3 0 3 c
-0.795609 3 -1.55874 2.683901 -2.12132 2.12132 c
-2.683901 1.55874 -3 0.795609 -3 0 c
-3 -0.795609 -2.683901 -1.55874 -2.12132 -2.12132 c
-1.55874 -2.683901 -0.795609 -3 0 -3 c
cl

gsave
1.000 0.498 0.055 setrgbcolor
fill
grestore
stroke
grestore
} bind def
grestore
0.800 setlinewidth
0 setlinejoin
2 setlinecap
[] 0 setdash
1.000 setgray
gsave
57.6 38.016 m
57.6 304.128 l
stroke
grestore
gsave
414.72 38.016 m
414.72 304.128 l
stroke
grestore
gsave
57.6 38.016 m
414.72 38.016 l
stroke
grestore
gsave
57.6 304.128 m
414.72 304.128 l
stroke
grestore
0.150 setgray
/DejaVuSans findfont
12.000 scalefont
setfont
gsave
65.941250 310.128000 translate
0.000000 rotate
0.000000 0.000000 m /C glyphshow
8.378906 0.000000 m /o glyphshow
15.720703 0.000000 m /v glyphshow
22.822266 0.000000 m /e glyphshow
30.205078 0.000000 m /r glyphshow
35.138672 0.000000 m /a glyphshow
42.492188 0.000000 m /g glyphshow
50.109375 0.000000 m /e glyphshow
57.492188 0.000000 m /space glyphshow
61.306641 0.000000 m /b glyphshow
68.923828 0.000000 m /r glyphshow
73.857422 0.000000 m /e glyphshow
81.240234 0.000000 m /a glyphshow
88.593750 0.000000 m /d glyphshow
96.210938 0.000000 m /t glyphshow
100.916016 0.000000 m /h glyphshow
108.521484 0.000000 m /space glyphshow
112.335938 0.000000 m /o glyphshow
119.677734 0.000000 m /v glyphshow
126.779297 0.000000 m /e glyphshow
134.162109 0.000000 m /r glyphshow
139.095703 0.000000 m /space glyphshow
142.910156 0.000000 m /c glyphshow
149.507812 0.000000 m /o glyphshow
156.849609 0.000000 m /v glyphshow
163.951172 0.000000 m /e glyphshow
171.333984 0.000000 m /r glyphshow
176.267578 0.000000 m /a glyphshow
183.621094 0.000000 m /g glyphshow
191.238281 0.000000 m /e glyphshow
198.621094 0.000000 m /space glyphshow
202.435547 0.000000 m /d glyphshow
210.052734 0.000000 m /e glyphshow
217.435547 0.000000 m /p glyphshow
225.052734 0.000000 m /t glyphshow
229.757812 0.000000 m /h glyphshow
237.363281 0.000000 m /space glyphshow
241.177734 0.000000 m /f glyphshow
245.402344 0.000000 m /o glyphshow
252.744141 0.000000 m /r glyphshow
257.677734 0.000000 m /space glyphshow
261.492188 0.000000 m /H glyphshow
270.515625 0.000000 m /period glyphshow
274.330078 0.000000 m /space glyphshow
278.144531 0.000000 m /i glyphshow
281.478516 0.000000 m /n glyphshow
289.083984 0.000000 m /f glyphshow
293.308594 0.000000 m /l glyphshow
296.642578 0.000000 m /u glyphshow
304.248047 0.000000 m /e glyphshow
311.630859 0.000000 m /n glyphshow
319.236328 0.000000 m /z glyphshow
325.535156 0.000000 m /a glyphshow
332.888672 0.000000 m /e glyphshow
grestore
1.000 setlinewidth
0 setlinecap
0.800 setgray
gsave
299.204375 43.016 m
407.72 43.016 l
409.053333 43.016 409.72 43.682667 409.72 45.016 c
409.72 88.031625 l
409.72 89.364958 409.053333 90.031625 407.72 90.031625 c
299.204375 90.031625 l
297.871042 90.031625 297.204375 89.364958 297.204375 88.031625 c
297.204375 45.016 l
297.204375 43.682667 297.871042 43.016 299.204375 43.016 c
cl
gsave
0.918 0.918 0.949 setrgbcolor
fill
grestore
stroke
grestore
0.150 setgray
/DejaVuSans findfont
10.000 scalefont
setfont
gsave
301.204375 78.437875 translate
0.000000 rotate
0.000000 0.000000 m /S glyphshow
6.347656 0.000000 m /e glyphshow
12.500000 0.000000 m /q glyphshow
18.847656 0.000000 m /u glyphshow
25.185547 0.000000 m /e glyphshow
31.337891 0.000000 m /n glyphshow
37.675781 0.000000 m /c glyphshow
43.173828 0.000000 m /i glyphshow
45.952148 0.000000 m /n glyphshow
52.290039 0.000000 m /g glyphshow
58.637695 0.000000 m /space glyphshow
61.816406 0.000000 m /p glyphshow
68.164062 0.000000 m /l glyphshow
70.942383 0.000000 m /a glyphshow
77.070312 0.000000 m /t glyphshow
80.991211 0.000000 m /f glyphshow
84.511719 0.000000 m /o glyphshow
90.629883 0.000000 m /r glyphshow
94.741211 0.000000 m /m glyphshow
grestore
1 setlinejoin
[] 0 setdash
0.122 0.467 0.706 setrgbcolor
gsave
/o {
gsave
newpath
translate
1.0 setlinewidth
1 setlinejoin
0 setlinecap
0 -3 m
0.795609 -3 1.55874 -2.683901 2.12132 -2.12132 c
2.683901 -1.55874 3 -0.795609 3 0 c
3 0.795609 2.683901 1.55874 2.12132 2.12132 c
1.55874 2.683901 0.795609 3 0 3 c
-0.795609 3 -1.55874 2.683901 -2.12132 2.12132 c
-2.683901 1.55874 -3 0.795609 -3 0 c
-3 -0.795609 -2.683901 -1.55874 -2.12132 -2.12132 c
-1.55874 -2.683901 -0.795609 -3 0 -3 c
cl

gsave
0.122 0.467 0.706 setrgbcolor
fill
grestore
stroke
grestore
} bind def
334.337 66.391 o
grestore
0.150 setgray
gsave
352.337188 63.766000 translate
0.000000 rotate
0.000000 0.000000 m /M glyphshow
8.627930 0.000000 m /i glyphshow
11.406250 0.000000 m /S glyphshow
17.753906 0.000000 m /e glyphshow
23.906250 0.000000 m /q glyphshow
grestore
1.000 0.498 0.055 setrgbcolor
gsave
/o {
gsave
newpath
translate
1.0 setlinewidth
1 setlinejoin
0 setlinecap
0 -3 m
0.795609 -3 1.55874 -2.683901 2.12132 -2.12132 c
2.683901 -1.55874 3 -0.795609 3 0 c
3 0.795609 2.683901 1.55874 2.12132 2.12132 c
1.55874 2.683901 0.795609 3 0 3 c
-0.795609 3 -1.55874 2.683901 -2.12132 2.12132 c
-2.683901 1.55874 -3 0.795609 -3 0 c
-3 -0.795609 -2.683901 -1.55874 -2.12132 -2.12132 c
-1.55874 -2.683901 -0.795609 -3 0 -3 c
cl

gsave
1.000 0.498 0.055 setrgbcolor
fill
grestore
stroke
grestore
} bind def
334.337 51.7191 o
grestore
0.150 setgray
gsave
352.337188 49.094125 translate
0.000000 rotate
0.000000 0.000000 m /O glyphshow
7.871094 0.000000 m /N glyphshow
15.351562 0.000000 m /T glyphshow
grestore

end
showpage
