sample name,guuid,run name,Total human reads removed
SA187_E,e0479f3c-8f30-4665-92e4-db0b5907cdb7,OX2301_BRC_Resp_TH,1854510
SA214_E,293770b9-5c5e-4e05-9ee8-c260af888262,OX2301_BRC_Resp_TH,1272947
SA235_E,514f1580-ac3f-413a-9c58-b55ef8505fa1,OX2301_BRC_Resp_TH,2203311
HC149_E,d49f8e5b-4128-4cc1-b2a1-134fb72a819c,OX2301_BRC_Resp_TH,1860467
HC149_spike_E,8864bb47-bff1-4fe6-a047-e97a7334cd95,OX2301_BRC_Resp_TH,1341625
negative_control_E,deb1433b-9308-4599-a93f-85cf10fecf85,OX2301_BRC_Resp_TH,32448
SA187_Q,7f93aa86-0904-40ff-a1fd-b27f7b1cabda,OX2301_BRC_Resp_TH,1960805
SA214_Q,c4c752b0-04f8-40f2-8594-84339ea8326b,OX2301_BRC_Resp_TH,1808857
SA235_Q,7822fa7a-cbf2-4a5c-8090-baac46f78125,OX2301_BRC_Resp_TH,1769928
HC149_Q,4fc396ca-3eca-43f3-a128-27c0f9a927a3,OX2301_BRC_Resp_TH,1690528
HC149_spike_Q,72fee239-f664-4a6a-85fa-bc6572683e28,OX2301_BRC_Resp_TH,1879708
negative_control_Q,f99549c4-6425-4c5a-a37e-0007d0852d6e,OX2301_BRC_Resp_TH,551094
AID187_Q_NNM,a1a8148d-a0a2-4677-821a-97e29f60d2d6,OX2333_BRC_Resp_TH,965762
AID214_Q_NNM,989036c8-a119-4cfb-943a-78d44d489b6d,OX2333_BRC_Resp_TH,611176
AID235_Q_NNM,88d05576-a7a9-4ce7-add5-21e4e6ba7bc2,OX2333_BRC_Resp_TH,1104912
AID149_Q_NNM,f5fddfcd-bd91-4e2d-bdbf-808688b226e9,OX2333_BRC_Resp_TH,1713540
AID149_S_Q_NNM,7a8dabc6-86a3-41fb-ac41-b22a54dd5a0d,OX2333_BRC_Resp_TH,904784
AID278_DC_Q,4a490f3c-853e-45ac-9396-b428bf1ed509,OX2333_BRC_Resp_TH,930342
AID1052_DC_Q,72cfc1df-3d40-4811-8341-23c51dbf0783,OX2333_BRC_Resp_TH,1196176
AID278_Q,37f1ed4e-8c64-4989-96c5-86434db50361,OX2333_BRC_Resp_TH,1052784
AID1052_Q,5f98ed91-4601-4c50-9f94-3d98cc310e79,OX2333_BRC_Resp_TH,1229211
AID278_Q_NNM,6b85a8a1-2087-4847-a67c-7b5f87ce8ebe,OX2333_BRC_Resp_TH,740682
AID1052_Q_NNM,33bf67ab-232d-4a50-8eec-22a249fe4139,OX2333_BRC_Resp_TH,1001948
Neg_cntrl,8e8a041a-faa8-408f-b6bc-92c28107331f,OX2333_BRC_Resp_TH,114115
SA1055_DC,38c66e2f-c10c-4e23-9185-66aba84c27a1,OX2387_BRC_Resp_TH,2168543
SA05_DC,a3f2bc00-3f40-4b35-9e01-6b182144a084,OX2387_BRC_Resp_TH,1785218
SA288_DC,7f06b5cf-dbad-4017-8613-b79afeabe58e,OX2387_BRC_Resp_TH,2239485
SA279_DC,4360a410-5482-490d-9698-236f5b6639ff,OX2387_BRC_Resp_TH,2372694
SA294_DC,b46558ad-e74e-45eb-add3-db0dbc1f4a84,OX2387_BRC_Resp_TH,1100301
SA29_DC,7707decc-4aa2-4697-9ab9-d8cc48a81e21,OX2387_BRC_Resp_TH,1392660
SA1049_DC,a0a3f3dc-60b2-41de-b360-b885aba60402,OX2387_BRC_Resp_TH,2381151
SA295_DC,0b15e362-693f-4a19-98c4-abb3f344ab15,OX2387_BRC_Resp_TH,1288229
SA297_DC,7eed314d-449d-4661-86f4-d44f1cd4a9c9,OX2387_BRC_Resp_TH,1524830
SA1041_DC,a1f93188-2b2a-46ed-bf08-800cbc4dcb71,OX2387_BRC_Resp_TH,1732343
SA133_DC,9565d489-d471-47ff-b63d-effee46db329,OX2387_BRC_Resp_TH,1679688
Neg_Cntrl_4,c7b98535-ca2e-451c-9827-60ca466f27e8,OX2387_BRC_Resp_TH,92638
SA1054,19ac0ca2-8755-401a-8f56-c885e94e6865,180712_BRC_Resp_TH_4,1121786
SA275,8c348f01-8738-4441-bc2c-09c1da6c9b80,180712_BRC_Resp_TH_4,1784594
SA1053,13149bae-3dae-49a9-aaae-195ada45678f,180712_BRC_Resp_TH_4,2518455
SA1060,d69a86ec-d3c1-4014-bc4e-2544565cc7c6,180712_BRC_Resp_TH_4,2727351
SA1058,05a7b4c3-3796-4197-ad55-91ca33b22dc2,180712_BRC_Resp_TH_4,3159443
SA315,63fb8b78-c936-4e07-ba39-2fbc3eb687de,180712_BRC_Resp_TH_4,2111578
SA306,9dad46ff-3b36-46b6-918c-4c3a8d10a31c,180712_BRC_Resp_TH_4,1903915
SA1052_R,c68150f3-f972-4fdc-86c4-7a11b2bf3649,180712_BRC_Resp_TH,893051
SA278_R,0f32123d-d330-4fb5-a6e5-9c3f7d3ed3b6,180712_BRC_Resp_TH_4,2161603
SA295_R,4ef6f194-7c61-4af1-abcf-c6af775e44d1,180712_BRC_Resp_TH_4,1415572
SA297_R,8d49a8b0-3e51-4deb-addd-9060b434286d,180712_BRC_Resp_TH_4,1434322
SA279_R,87c8a3dd-bca9-4811-8d97-2e537b70bff3,180712_BRC_Resp_TH_4,907124
Neg_cntrl_4,7dfebcde-b899-4739-b579-d1ff7e8ecc81,180712_BRC_Resp_TH,28003
